verif/log/core_sdr16_sim.log
 Compiling with MODELSIM in core SDR_16BIT Mode 
Model Technology ModelSim ACTEL vlog 6.6d Compiler 2010.11 Nov  2 2010
-- Compiling module tb_core
-- Compiling module IS42VM16400K
-- Compiling module mt48lc2m32b2
-- Compiling module mt48lc8m8a2
-- Compiling module sdrc_core
-- Compiling module sdrc_bank_ctl
-- Compiling module sdrc_bank_fsm
-- Compiling module sdrc_bs_convert
-- Compiling module sdrc_req_gen
-- Compiling module sdrc_xfr_ctl

Top level modules:
	tb_core
	mt48lc2m32b2
	mt48lc8m8a2
#### Compile : PASSED

###########################################
 Runing test programs 
###########################################
###########################################
### Running test 1: basic_test1
Reading D:/Actel/Libero_v9.1/Model/tcl/vsim/pref.tcl 

# 6.6d

# vsim +basic_test1 -do run.do -c tb_core 
# //  ModelSim ACTEL 6.6d Nov  2 2010 
# //
# //  Copyright 1991-2010 Mentor Graphics Corporation
# //              All Rights Reserved.
# //
# //  THIS WORK CONTAINS TRADE SECRET AND 
# //  PROPRIETARY INFORMATION WHICH IS THE PROPERTY
# //  OF MENTOR GRAPHICS CORPORATION OR ITS LICENSORS
# //  AND IS SUBJECT TO LICENSE TERMS.
# //
# Loading sv_std.std
# Loading work.tb_core
# Loading work.sdrc_core
# Loading work.sdrc_req_gen
# Loading work.sdrc_bank_ctl
# Loading work.sdrc_bank_fsm
# Loading work.sdrc_xfr_ctl
# Loading work.sdrc_bs_convert
# Loading work.IS42VM16400K
# ** Warning: (vsim-3017) ../tb/tb_core.sv(180): [TFMPC] - Too few port connections. Expected 44, found 43.
#         Region: /tb_core/u_dut
# ** Warning: (vsim-3722) ../tb/tb_core.sv(180): [TFMPC] - Missing connection for port 'app_last_wr'.
# ** Warning: (vsim-3015) ../../rtl/core/sdrc_core.v(302): [PCDPC] - Port size (31 or 31) does not match connection size (30) for port 'req_addr'. The port definition is at: ../../rtl/core/sdrc_req_gen.v(75).
#         Region: /tb_core/u_dut/u_req_gen
# do run.do 
# Write Address: 00040000, Burst Size:   4
# Status: Burst-No:           0  Write Address: 00040000  WriteData: 12153524 
# Status: Burst-No:           1  Write Address: 00040000  WriteData: c0895e81 
# Status: Burst-No:           2  Write Address: 00040000  WriteData: 8484d609 
# Status: Burst-No:           3  Write Address: 00040000  WriteData: b1f05663 
# READ STATUS: Burst-No:           0 Addr: 00040000 Rxd: 12153524
# READ STATUS: Burst-No:           1 Addr: 00040002 Rxd: c0895e81
# READ STATUS: Burst-No:           2 Addr: 00040004 Rxd: 8484d609
# READ STATUS: Burst-No:           3 Addr: 00040006 Rxd: b1f05663
# Write Address: 00400000, Burst Size:   5
# Status: Burst-No:           0  Write Address: 00400000  WriteData: 06b97b0d 
# Status: Burst-No:           1  Write Address: 00400000  WriteData: 46df998d 
# Status: Burst-No:           2  Write Address: 00400000  WriteData: b2c28465 
# Status: Burst-No:           3  Write Address: 00400000  WriteData: 89375212 
# Status: Burst-No:           4  Write Address: 00400000  WriteData: 00f3e301 
# READ STATUS: Burst-No:           0 Addr: 00400000 Rxd: 06b97b0d
# READ STATUS: Burst-No:           1 Addr: 00400002 Rxd: 46df998d
# READ STATUS: Burst-No:           2 Addr: 00400004 Rxd: b2c28465
# READ STATUS: Burst-No:           3 Addr: 00400006 Rxd: 89375212
# READ STATUS: Burst-No:           4 Addr: 00400008 Rxd: 00f3e301
# Write Address: 00040000, Burst Size:   4
# Status: Burst-No:           0  Write Address: 00040000  WriteData: 06d7cd0d 
# Status: Burst-No:           1  Write Address: 00040000  WriteData: 3b23f176 
# Status: Burst-No:           2  Write Address: 00040000  WriteData: 1e8dcd3d 
# Status: Burst-No:           3  Write Address: 00040000  WriteData: 76d457ed 
# Write Address: 00050000, Burst Size:   5
# Status: Burst-No:           0  Write Address: 00050000  WriteData: 462df78c 
# Status: Burst-No:           1  Write Address: 00050000  WriteData: 7cfde9f9 
# Status: Burst-No:           2  Write Address: 00050000  WriteData: e33724c6 
# Status: Burst-No:           3  Write Address: 00050000  WriteData: e2f784c5 
# Status: Burst-No:           4  Write Address: 00050000  WriteData: d513d2aa 
# Write Address: 00060000, Burst Size:   6
# Status: Burst-No:           0  Write Address: 00060000  WriteData: 72aff7e5 
# Status: Burst-No:           1  Write Address: 00060000  WriteData: bbd27277 
# Status: Burst-No:           2  Write Address: 00060000  WriteData: 8932d612 
# Status: Burst-No:           3  Write Address: 00060000  WriteData: 47ecdb8f 
# Status: Burst-No:           4  Write Address: 00060000  WriteData: 793069f2 
# Status: Burst-No:           5  Write Address: 00060000  WriteData: e77696ce 
# Write Address: 00070000, Burst Size:   7
# Status: Burst-No:           0  Write Address: 00070000  WriteData: f4007ae8 
# Status: Burst-No:           1  Write Address: 00070000  WriteData: e2ca4ec5 
# Status: Burst-No:           2  Write Address: 00070000  WriteData: 2e58495c 
# Status: Burst-No:           3  Write Address: 00070000  WriteData: de8e28bd 
# Status: Burst-No:           4  Write Address: 00070000  WriteData: 96ab582d 
# Status: Burst-No:           5  Write Address: 00070000  WriteData: b2a72665 
# Status: Burst-No:           6  Write Address: 00070000  WriteData: b1ef6263 
# READ STATUS: Burst-No:           0 Addr: 00040000 Rxd: 06d7cd0d
# READ STATUS: Burst-No:           1 Addr: 00040002 Rxd: 3b23f176
# READ STATUS: Burst-No:           2 Addr: 00040004 Rxd: 1e8dcd3d
# READ STATUS: Burst-No:           3 Addr: 00040006 Rxd: 76d457ed
# READ STATUS: Burst-No:           0 Addr: 00050000 Rxd: 462df78c
# READ STATUS: Burst-No:           1 Addr: 00050002 Rxd: 7cfde9f9
# READ STATUS: Burst-No:           2 Addr: 00050004 Rxd: e33724c6
# READ STATUS: Burst-No:           3 Addr: 00050006 Rxd: e2f784c5
# READ STATUS: Burst-No:           4 Addr: 00050008 Rxd: d513d2aa
# READ STATUS: Burst-No:           0 Addr: 00060000 Rxd: 72aff7e5
# READ STATUS: Burst-No:           1 Addr: 00060002 Rxd: bbd27277
# READ STATUS: Burst-No:           2 Addr: 00060004 Rxd: 8932d612
# READ STATUS: Burst-No:           3 Addr: 00060006 Rxd: 47ecdb8f
# READ STATUS: Burst-No:           4 Addr: 00060008 Rxd: 793069f2
# READ STATUS: Burst-No:           5 Addr: 0006000a Rxd: e77696ce
# READ STATUS: Burst-No:           0 Addr: 00070000 Rxd: f4007ae8
# READ STATUS: Burst-No:           1 Addr: 00070002 Rxd: e2ca4ec5
# READ STATUS: Burst-No:           2 Addr: 00070004 Rxd: 2e58495c
# READ STATUS: Burst-No:           3 Addr: 00070006 Rxd: de8e28bd
# READ STATUS: Burst-No:           4 Addr: 00070008 Rxd: 96ab582d
# READ STATUS: Burst-No:           5 Addr: 0007000a Rxd: b2a72665
# READ STATUS: Burst-No:           6 Addr: 0007000c Rxd: b1ef6263
# Write Address: 0033870a, Burst Size:   1
# Status: Burst-No:           0  Write Address: 0033870a  WriteData: 10642120 
# Write Address: 003845aa, Burst Size:  30
# Status: Burst-No:           0  Write Address: 003845aa  WriteData: cb203e96 
# Status: Burst-No:           1  Write Address: 003845aa  WriteData: 8983b813 
# Status: Burst-No:           2  Write Address: 003845aa  WriteData: 86bc380d 
# Status: Burst-No:           3  Write Address: 003845aa  WriteData: a9a7d653 
# Status: Burst-No:           4  Write Address: 003845aa  WriteData: 359fdd6b 
# Status: Burst-No:           5  Write Address: 003845aa  WriteData: eaa62ad5 
# Status: Burst-No:           6  Write Address: 003845aa  WriteData: 81174a02 
# Status: Burst-No:           7  Write Address: 003845aa  WriteData: d7563eae 
# Status: Burst-No:           8  Write Address: 003845aa  WriteData: 0effe91d 
# Status: Burst-No:           9  Write Address: 003845aa  WriteData: e7c572cf 
# Status: Burst-No:          10  Write Address: 003845aa  WriteData: 11844923 
# Status: Burst-No:          11  Write Address: 003845aa  WriteData: 0509650a 
# Status: Burst-No:          12  Write Address: 003845aa  WriteData: e5730aca 
# Status: Burst-No:          13  Write Address: 003845aa  WriteData: 9e314c3c 
# Status: Burst-No:          14  Write Address: 003845aa  WriteData: 7968bdf2 
# Status: Burst-No:          15  Write Address: 003845aa  WriteData: 452e618a 
# Status: Burst-No:          16  Write Address: 003845aa  WriteData: 20c4b341 
# Status: Burst-No:          17  Write Address: 003845aa  WriteData: ec4b34d8 
# Status: Burst-No:          18  Write Address: 003845aa  WriteData: 3c20f378 
# Status: Burst-No:          19  Write Address: 003845aa  WriteData: c48a1289 
# Status: Burst-No:          20  Write Address: 003845aa  WriteData: 75c50deb 
# Status: Burst-No:          21  Write Address: 003845aa  WriteData: 5b0265b6 
# Status: Burst-No:          22  Write Address: 003845aa  WriteData: 634bf9c6 
# Status: Burst-No:          23  Write Address: 003845aa  WriteData: 571513ae 
# Status: Burst-No:          24  Write Address: 003845aa  WriteData: de7502bc 
# Status: Burst-No:          25  Write Address: 003845aa  WriteData: 150fdd2a 
# Status: Burst-No:          26  Write Address: 003845aa  WriteData: 85d79a0b 
# Status: Burst-No:          27  Write Address: 003845aa  WriteData: b897be71 
# Status: Burst-No:          28  Write Address: 003845aa  WriteData: 42f24185 
# Status: Burst-No:          29  Write Address: 003845aa  WriteData: 27f2554f 
# READ STATUS: Burst-No:           0 Addr: 0033870a Rxd: 10642120
# READ STATUS: Burst-No:           0 Addr: 003845aa Rxd: cb203e96
# READ STATUS: Burst-No:           1 Addr: 003845ac Rxd: 8983b813
# READ STATUS: Burst-No:           2 Addr: 003845ae Rxd: 86bc380d
# READ STATUS: Burst-No:           3 Addr: 003845b0 Rxd: a9a7d653
# READ STATUS: Burst-No:           4 Addr: 003845b2 Rxd: 359fdd6b
# READ STATUS: Burst-No:           5 Addr: 003845b4 Rxd: eaa62ad5
# READ STATUS: Burst-No:           6 Addr: 003845b6 Rxd: 81174a02
# READ STATUS: Burst-No:           7 Addr: 003845b8 Rxd: d7563eae
# READ STATUS: Burst-No:           8 Addr: 003845ba Rxd: 0effe91d
# READ STATUS: Burst-No:           9 Addr: 003845bc Rxd: e7c572cf
# READ STATUS: Burst-No:          10 Addr: 003845be Rxd: 11844923
# READ STATUS: Burst-No:          11 Addr: 003845c0 Rxd: 0509650a
# READ STATUS: Burst-No:          12 Addr: 003845c2 Rxd: e5730aca
# READ STATUS: Burst-No:          13 Addr: 003845c4 Rxd: 9e314c3c
# READ STATUS: Burst-No:          14 Addr: 003845c6 Rxd: 7968bdf2
# READ STATUS: Burst-No:          15 Addr: 003845c8 Rxd: 452e618a
# READ STATUS: Burst-No:          16 Addr: 003845ca Rxd: 20c4b341
# READ STATUS: Burst-No:          17 Addr: 003845cc Rxd: ec4b34d8
# READ STATUS: Burst-No:          18 Addr: 003845ce Rxd: 3c20f378
# READ STATUS: Burst-No:          19 Addr: 003845d0 Rxd: c48a1289
# READ STATUS: Burst-No:          20 Addr: 003845d2 Rxd: 75c50deb
# READ STATUS: Burst-No:          21 Addr: 003845d4 Rxd: 5b0265b6
# READ STATUS: Burst-No:          22 Addr: 003845d6 Rxd: 634bf9c6
# READ STATUS: Burst-No:          23 Addr: 003845d8 Rxd: 571513ae
# READ STATUS: Burst-No:          24 Addr: 003845da Rxd: de7502bc
# READ STATUS: Burst-No:          25 Addr: 003845dc Rxd: 150fdd2a
# READ STATUS: Burst-No:          26 Addr: 003845de Rxd: 85d79a0b
# READ STATUS: Burst-No:          27 Addr: 003845e0 Rxd: b897be71
# READ STATUS: Burst-No:          28 Addr: 003845e2 Rxd: 42f24185
# READ STATUS: Burst-No:          29 Addr: 003845e4 Rxd: 27f2554f
# Write Address: 000c603b, Burst Size:  59
# Status: Burst-No:           0  Write Address: 000c603b  WriteData: bf23327e 
# Status: Burst-No:           1  Write Address: 000c603b  WriteData: 0aaa4b15 
# Status: Burst-No:           2  Write Address: 000c603b  WriteData: 78d99bf1 
# Status: Burst-No:           3  Write Address: 000c603b  WriteData: 6c9c4bd9 
# Status: Burst-No:           4  Write Address: 000c603b  WriteData: 31230762 
# Status: Burst-No:           5  Write Address: 000c603b  WriteData: 2635fb4c 
# Status: Burst-No:           6  Write Address: 000c603b  WriteData: 4fa1559f 
# Status: Burst-No:           7  Write Address: 000c603b  WriteData: 47b9a18f 
# Status: Burst-No:           8  Write Address: 000c603b  WriteData: 7c6da9f8 
# Status: Burst-No:           9  Write Address: 000c603b  WriteData: dbcd60b7 
# Status: Burst-No:          10  Write Address: 000c603b  WriteData: cfc4569f 
# Status: Burst-No:          11  Write Address: 000c603b  WriteData: ae7d945c 
# Status: Burst-No:          12  Write Address: 000c603b  WriteData: adcbc05b 
# Status: Burst-No:          13  Write Address: 000c603b  WriteData: 44de3789 
# Status: Burst-No:          14  Write Address: 000c603b  WriteData: a4ae3249 
# Status: Burst-No:          15  Write Address: 000c603b  WriteData: e8233ed0 
# Status: Burst-No:          16  Write Address: 000c603b  WriteData: ebfec0d7 
# Status: Burst-No:          17  Write Address: 000c603b  WriteData: a8c7fc51 
# Status: Burst-No:          18  Write Address: 000c603b  WriteData: 4b212f96 
# Status: Burst-No:          19  Write Address: 000c603b  WriteData: 061d7f0c 
# Status: Burst-No:          20  Write Address: 000c603b  WriteData: e12ccec2 
# Status: Burst-No:          21  Write Address: 000c603b  WriteData: 6457edc8 
# Status: Burst-No:          22  Write Address: 000c603b  WriteData: bb825a77 
# Status: Burst-No:          23  Write Address: 000c603b  WriteData: 1ef2ed3d 
# Status: Burst-No:          24  Write Address: 000c603b  WriteData: 090cdb12 
# Status: Burst-No:          25  Write Address: 000c603b  WriteData: bf05007e 
# Status: Burst-No:          26  Write Address: 000c603b  WriteData: 36e5816d 
# Status: Burst-No:          27  Write Address: 000c603b  WriteData: 1cd9e739 
# Status: Burst-No:          28  Write Address: 000c603b  WriteData: 0fd28f1f 
# Status: Burst-No:          29  Write Address: 000c603b  WriteData: e9ebf6d3 
# Status: Burst-No:          30  Write Address: 000c603b  WriteData: 42d92f85 
# Status: Burst-No:          31  Write Address: 000c603b  WriteData: bc148878 
# Status: Burst-No:          32  Write Address: 000c603b  WriteData: 2dda595b 
# Status: Burst-No:          33  Write Address: 000c603b  WriteData: 248b4b49 
# Status: Burst-No:          34  Write Address: 000c603b  WriteData: 9ff2ae3f 
# Status: Burst-No:          35  Write Address: 000c603b  WriteData: 150caf2a 
# Status: Burst-No:          36  Write Address: 000c603b  WriteData: 2c156358 
# Status: Burst-No:          37  Write Address: 000c603b  WriteData: c33f3886 
# Status: Burst-No:          38  Write Address: 000c603b  WriteData: c71a0c8e 
# Status: Burst-No:          39  Write Address: 000c603b  WriteData: ce2ff29c 
# Status: Burst-No:          40  Write Address: 000c603b  WriteData: 7d3599fa 
# Status: Burst-No:          41  Write Address: 000c603b  WriteData: 937dbc26 
# Status: Burst-No:          42  Write Address: 000c603b  WriteData: 39961773 
# Status: Burst-No:          43  Write Address: 000c603b  WriteData: d18bb4a3 
# Status: Burst-No:          44  Write Address: 000c603b  WriteData: 9799a82f 
# Status: Burst-No:          45  Write Address: 000c603b  WriteData: d9d292b3 
# Status: Burst-No:          46  Write Address: 000c603b  WriteData: afd8565f 
# Status: Burst-No:          47  Write Address: 000c603b  WriteData: 22290d44 
# Status: Burst-No:          48  Write Address: 000c603b  WriteData: 7bf8fdf7 
# Status: Burst-No:          49  Write Address: 000c603b  WriteData: e59b36cb 
# Status: Burst-No:          50  Write Address: 000c603b  WriteData: f3091ae6 
# Status: Burst-No:          51  Write Address: 000c603b  WriteData: 2d28db5a 
# Status: Burst-No:          52  Write Address: 000c603b  WriteData: 14cfc129 
# Status: Burst-No:          53  Write Address: 000c603b  WriteData: f682e2ed 
# Status: Burst-No:          54  Write Address: 000c603b  WriteData: ed536cda 
# Status: Burst-No:          55  Write Address: 000c603b  WriteData: b29fb665 
# Status: Burst-No:          56  Write Address: 000c603b  WriteData: da8ae2b5 
# Status: Burst-No:          57  Write Address: 000c603b  WriteData: efbe94df 
# Status: Burst-No:          58  Write Address: 000c603b  WriteData: 3cf11979 
# Write Address: 0031ff44, Burst Size:  17
# Status: Burst-No:           0  Write Address: 0031ff44  WriteData: 15090b2a 
# Status: Burst-No:           1  Write Address: 0031ff44  WriteData: 55f6adab 
# Status: Burst-No:           2  Write Address: 0031ff44  WriteData: 076fcf0e 
# Status: Burst-No:           3  Write Address: 0031ff44  WriteData: 6e5daddc 
# Status: Burst-No:           4  Write Address: 0031ff44  WriteData: cd5ebc9a 
# Status: Burst-No:           5  Write Address: 0031ff44  WriteData: fedf72fd 
# Status: Burst-No:           6  Write Address: 0031ff44  WriteData: e1f102c3 
# Status: Burst-No:           7  Write Address: 0031ff44  WriteData: 2b0eed56 
# Status: Burst-No:           8  Write Address: 0031ff44  WriteData: 2779e94e 
# Status: Burst-No:           9  Write Address: 0031ff44  WriteData: b3d97667 
# Status: Burst-No:          10  Write Address: 0031ff44  WriteData: 8531340a 
# Status: Burst-No:          11  Write Address: 0031ff44  WriteData: 5b6fb9b6 
# Status: Burst-No:          12  Write Address: 0031ff44  WriteData: 9c0e8a38 
# Status: Burst-No:          13  Write Address: 0031ff44  WriteData: 3cd18779 
# Status: Burst-No:          14  Write Address: 0031ff44  WriteData: dc2bc4b8 
# Status: Burst-No:          15  Write Address: 0031ff44  WriteData: 4a74bf94 
# Status: Burst-No:          16  Write Address: 0031ff44  WriteData: 49c65d93 
# READ STATUS: Burst-No:           0 Addr: 000c603b Rxd: bf23327e
# READ STATUS: Burst-No:           1 Addr: 000c603d Rxd: 0aaa4b15
# READ STATUS: Burst-No:           2 Addr: 000c603f Rxd: 78d99bf1
# READ STATUS: Burst-No:           3 Addr: 000c6041 Rxd: 6c9c4bd9
# READ STATUS: Burst-No:           4 Addr: 000c6043 Rxd: 31230762
# READ STATUS: Burst-No:           5 Addr: 000c6045 Rxd: 2635fb4c
# READ STATUS: Burst-No:           6 Addr: 000c6047 Rxd: 4fa1559f
# READ STATUS: Burst-No:           7 Addr: 000c6049 Rxd: 47b9a18f
# READ STATUS: Burst-No:           8 Addr: 000c604b Rxd: 7c6da9f8
# READ STATUS: Burst-No:           9 Addr: 000c604d Rxd: dbcd60b7
# READ STATUS: Burst-No:          10 Addr: 000c604f Rxd: cfc4569f
# READ STATUS: Burst-No:          11 Addr: 000c6051 Rxd: ae7d945c
# READ STATUS: Burst-No:          12 Addr: 000c6053 Rxd: adcbc05b
# READ STATUS: Burst-No:          13 Addr: 000c6055 Rxd: 44de3789
# READ STATUS: Burst-No:          14 Addr: 000c6057 Rxd: a4ae3249
# READ STATUS: Burst-No:          15 Addr: 000c6059 Rxd: e8233ed0
# READ STATUS: Burst-No:          16 Addr: 000c605b Rxd: ebfec0d7
# READ STATUS: Burst-No:          17 Addr: 000c605d Rxd: a8c7fc51
# READ STATUS: Burst-No:          18 Addr: 000c605f Rxd: 4b212f96
# READ STATUS: Burst-No:          19 Addr: 000c6061 Rxd: 061d7f0c
# READ STATUS: Burst-No:          20 Addr: 000c6063 Rxd: e12ccec2
# READ STATUS: Burst-No:          21 Addr: 000c6065 Rxd: 6457edc8
# READ STATUS: Burst-No:          22 Addr: 000c6067 Rxd: bb825a77
# READ STATUS: Burst-No:          23 Addr: 000c6069 Rxd: 1ef2ed3d
# READ STATUS: Burst-No:          24 Addr: 000c606b Rxd: 090cdb12
# READ STATUS: Burst-No:          25 Addr: 000c606d Rxd: bf05007e
# READ STATUS: Burst-No:          26 Addr: 000c606f Rxd: 36e5816d
# READ STATUS: Burst-No:          27 Addr: 000c6071 Rxd: 1cd9e739
# READ STATUS: Burst-No:          28 Addr: 000c6073 Rxd: 0fd28f1f
# READ STATUS: Burst-No:          29 Addr: 000c6075 Rxd: e9ebf6d3
# READ STATUS: Burst-No:          30 Addr: 000c6077 Rxd: 42d92f85
# READ STATUS: Burst-No:          31 Addr: 000c6079 Rxd: bc148878
# READ STATUS: Burst-No:          32 Addr: 000c607b Rxd: 2dda595b
# READ STATUS: Burst-No:          33 Addr: 000c607d Rxd: 248b4b49
# READ STATUS: Burst-No:          34 Addr: 000c607f Rxd: 9ff2ae3f
# READ STATUS: Burst-No:          35 Addr: 000c6081 Rxd: 150caf2a
# READ STATUS: Burst-No:          36 Addr: 000c6083 Rxd: 2c156358
# READ STATUS: Burst-No:          37 Addr: 000c6085 Rxd: c33f3886
# READ STATUS: Burst-No:          38 Addr: 000c6087 Rxd: c71a0c8e
# READ STATUS: Burst-No:          39 Addr: 000c6089 Rxd: ce2ff29c
# READ STATUS: Burst-No:          40 Addr: 000c608b Rxd: 7d3599fa
# READ STATUS: Burst-No:          41 Addr: 000c608d Rxd: 937dbc26
# READ STATUS: Burst-No:          42 Addr: 000c608f Rxd: 39961773
# READ STATUS: Burst-No:          43 Addr: 000c6091 Rxd: d18bb4a3
# READ STATUS: Burst-No:          44 Addr: 000c6093 Rxd: 9799a82f
# READ STATUS: Burst-No:          45 Addr: 000c6095 Rxd: d9d292b3
# READ STATUS: Burst-No:          46 Addr: 000c6097 Rxd: afd8565f
# READ STATUS: Burst-No:          47 Addr: 000c6099 Rxd: 22290d44
# READ STATUS: Burst-No:          48 Addr: 000c609b Rxd: 7bf8fdf7
# READ STATUS: Burst-No:          49 Addr: 000c609d Rxd: e59b36cb
# READ STATUS: Burst-No:          50 Addr: 000c609f Rxd: f3091ae6
# READ STATUS: Burst-No:          51 Addr: 000c60a1 Rxd: 2d28db5a
# READ STATUS: Burst-No:          52 Addr: 000c60a3 Rxd: 14cfc129
# READ STATUS: Burst-No:          53 Addr: 000c60a5 Rxd: f682e2ed
# READ STATUS: Burst-No:          54 Addr: 000c60a7 Rxd: ed536cda
# READ STATUS: Burst-No:          55 Addr: 000c60a9 Rxd: b29fb665
# READ STATUS: Burst-No:          56 Addr: 000c60ab Rxd: da8ae2b5
# READ STATUS: Burst-No:          57 Addr: 000c60ad Rxd: efbe94df
# READ STATUS: Burst-No:          58 Addr: 000c60af Rxd: 3cf11979
# READ STATUS: Burst-No:           0 Addr: 0031ff44 Rxd: 15090b2a
# READ STATUS: Burst-No:           1 Addr: 0031ff46 Rxd: 55f6adab
# READ STATUS: Burst-No:           2 Addr: 0031ff48 Rxd: 076fcf0e
# READ STATUS: Burst-No:           3 Addr: 0031ff4a Rxd: 6e5daddc
# READ STATUS: Burst-No:           4 Addr: 0031ff4c Rxd: cd5ebc9a
# READ STATUS: Burst-No:           5 Addr: 0031ff4e Rxd: fedf72fd
# READ STATUS: Burst-No:           6 Addr: 0031ff50 Rxd: e1f102c3
# READ STATUS: Burst-No:           7 Addr: 0031ff52 Rxd: 2b0eed56
# READ STATUS: Burst-No:           8 Addr: 0031ff54 Rxd: 2779e94e
# READ STATUS: Burst-No:           9 Addr: 0031ff56 Rxd: b3d97667
# READ STATUS: Burst-No:          10 Addr: 0031ff58 Rxd: 8531340a
# READ STATUS: Burst-No:          11 Addr: 0031ff5a Rxd: 5b6fb9b6
# READ STATUS: Burst-No:          12 Addr: 0031ff5c Rxd: 9c0e8a38
# READ STATUS: Burst-No:          13 Addr: 0031ff5e Rxd: 3cd18779
# READ STATUS: Burst-No:          14 Addr: 0031ff60 Rxd: dc2bc4b8
# READ STATUS: Burst-No:          15 Addr: 0031ff62 Rxd: 4a74bf94
# READ STATUS: Burst-No:          16 Addr: 0031ff64 Rxd: 49c65d93
# Write Address: 003f2c04, Burst Size:  26
# Status: Burst-No:           0  Write Address: 003f2c04  WriteData: 6dcb69db 
# Status: Burst-No:           1  Write Address: 003f2c04  WriteData: a6fcde4d 
# Status: Burst-No:           2  Write Address: 003f2c04  WriteData: 6cb0b7d9 
# Status: Burst-No:           3  Write Address: 003f2c04  WriteData: b6a4266d 
# Status: Burst-No:           4  Write Address: 003f2c04  WriteData: bb45e276 
# Status: Burst-No:           5  Write Address: 003f2c04  WriteData: 653b49ca 
# Status: Burst-No:           6  Write Address: 003f2c04  WriteData: 5b172db6 
# Status: Burst-No:           7  Write Address: 003f2c04  WriteData: 4a937195 
# Status: Burst-No:           8  Write Address: 003f2c04  WriteData: a3071a46 
# Status: Burst-No:           9  Write Address: 003f2c04  WriteData: 02749b04 
# Status: Burst-No:          10  Write Address: 003f2c04  WriteData: 7bd261f7 
# Status: Burst-No:          11  Write Address: 003f2c04  WriteData: 34980769 
# Status: Burst-No:          12  Write Address: 003f2c04  WriteData: da6ebab4 
# Status: Burst-No:          13  Write Address: 003f2c04  WriteData: 44018d88 
# Status: Burst-No:          14  Write Address: 003f2c04  WriteData: 147cd928 
# Status: Burst-No:          15  Write Address: 003f2c04  WriteData: 9690042d 
# Status: Burst-No:          16  Write Address: 003f2c04  WriteData: e3c530c7 
# Status: Burst-No:          17  Write Address: 003f2c04  WriteData: 975c9c2e 
# Status: Burst-No:          18  Write Address: 003f2c04  WriteData: 8477e408 
# Status: Burst-No:          19  Write Address: 003f2c04  WriteData: 0e41451c 
# Status: Burst-No:          20  Write Address: 003f2c04  WriteData: fea7a6fd 
# Status: Burst-No:          21  Write Address: 003f2c04  WriteData: 149e0729 
# Status: Burst-No:          22  Write Address: 003f2c04  WriteData: 8e37901c 
# Status: Burst-No:          23  Write Address: 003f2c04  WriteData: 43356786 
# Status: Burst-No:          24  Write Address: 003f2c04  WriteData: ed3408da 
# Status: Burst-No:          25  Write Address: 003f2c04  WriteData: 9eb7c63d 
# Write Address: 000ea766, Burst Size:  49
# Status: Burst-No:           0  Write Address: 000ea766  WriteData: b9f50473 
# Status: Burst-No:           1  Write Address: 000ea766  WriteData: 5d7199ba 
# Status: Burst-No:           2  Write Address: 000ea766  WriteData: 2f3ab35e 
# Status: Burst-No:           3  Write Address: 000ea766  WriteData: 7d4779fa 
# Status: Burst-No:           4  Write Address: 000ea766  WriteData: 6a8e05d5 
# Status: Burst-No:           5  Write Address: 000ea766  WriteData: 8d24f61a 
# Status: Burst-No:           6  Write Address: 000ea766  WriteData: dcf000b9 
# Status: Burst-No:           7  Write Address: 000ea766  WriteData: 1b876137 
# Status: Burst-No:           8  Write Address: 000ea766  WriteData: 4b273796 
# Status: Burst-No:           9  Write Address: 000ea766  WriteData: 603921c0 
# Status: Burst-No:          10  Write Address: 000ea766  WriteData: 13259f26 
# Status: Burst-No:          11  Write Address: 000ea766  WriteData: db461ab6 
# Status: Burst-No:          12  Write Address: 000ea766  WriteData: 3e99837d 
# Status: Burst-No:          13  Write Address: 000ea766  WriteData: 6e5f0fdc 
# Status: Burst-No:          14  Write Address: 000ea766  WriteData: 43615786 
# Status: Burst-No:          15  Write Address: 000ea766  WriteData: 3c03ff78 
# Status: Burst-No:          16  Write Address: 000ea766  WriteData: 3f5a9b7e 
# Status: Burst-No:          17  Write Address: 000ea766  WriteData: ed8d80db 
# Status: Burst-No:          18  Write Address: 000ea766  WriteData: e7c3b6cf 
# Status: Burst-No:          19  Write Address: 000ea766  WriteData: 3ced2b79 
# Status: Burst-No:          20  Write Address: 000ea766  WriteData: fd28e4fa 
# Status: Burst-No:          21  Write Address: 000ea766  WriteData: b0bcee61 
# Status: Burst-No:          22  Write Address: 000ea766  WriteData: 0b940917 
# Status: Burst-No:          23  Write Address: 000ea766  WriteData: d0f578a1 
# Status: Burst-No:          24  Write Address: 000ea766  WriteData: 43779186 
# Status: Burst-No:          25  Write Address: 000ea766  WriteData: a8639650 
# Status: Burst-No:          26  Write Address: 000ea766  WriteData: 7a8c59f5 
# Status: Burst-No:          27  Write Address: 000ea766  WriteData: 9ab48835 
# Status: Burst-No:          28  Write Address: 000ea766  WriteData: 949a8a29 
# Status: Burst-No:          29  Write Address: 000ea766  WriteData: 60b175c1 
# Status: Burst-No:          30  Write Address: 000ea766  WriteData: e2e574c5 
# Status: Burst-No:          31  Write Address: 000ea766  WriteData: cc01b498 
# Status: Burst-No:          32  Write Address: 000ea766  WriteData: 25b27b4b 
# Status: Burst-No:          33  Write Address: 000ea766  WriteData: b98c4273 
# Status: Burst-No:          34  Write Address: 000ea766  WriteData: f622e6ec 
# Status: Burst-No:          35  Write Address: 000ea766  WriteData: c550168a 
# Status: Burst-No:          36  Write Address: 000ea766  WriteData: 2758d14e 
# Status: Burst-No:          37  Write Address: 000ea766  WriteData: d44b80a8 
# Status: Burst-No:          38  Write Address: 000ea766  WriteData: 549efda9 
# Status: Burst-No:          39  Write Address: 000ea766  WriteData: d0ca8ca1 
# Status: Burst-No:          40  Write Address: 000ea766  WriteData: 070bb90e 
# Status: Burst-No:          41  Write Address: 000ea766  WriteData: f33466e6 
# Status: Burst-No:          42  Write Address: 000ea766  WriteData: cfd6c09f 
# Status: Burst-No:          43  Write Address: 000ea766  WriteData: 152fb52a 
# Status: Burst-No:          44  Write Address: 000ea766  WriteData: 155a1d2a 
# Status: Burst-No:          45  Write Address: 000ea766  WriteData: c6b5f48d 
# Status: Burst-No:          46  Write Address: 000ea766  WriteData: 4f75ff9e 
# Status: Burst-No:          47  Write Address: 000ea766  WriteData: 9c6de638 
# Status: Burst-No:          48  Write Address: 000ea766  WriteData: bccfa879 
# READ STATUS: Burst-No:           0 Addr: 003f2c04 Rxd: 6dcb69db
# READ STATUS: Burst-No:           1 Addr: 003f2c06 Rxd: a6fcde4d
# READ STATUS: Burst-No:           2 Addr: 003f2c08 Rxd: 6cb0b7d9
# READ STATUS: Burst-No:           3 Addr: 003f2c0a Rxd: b6a4266d
# READ STATUS: Burst-No:           4 Addr: 003f2c0c Rxd: bb45e276
# READ STATUS: Burst-No:           5 Addr: 003f2c0e Rxd: 653b49ca
# READ STATUS: Burst-No:           6 Addr: 003f2c10 Rxd: 5b172db6
# READ STATUS: Burst-No:           7 Addr: 003f2c12 Rxd: 4a937195
# READ STATUS: Burst-No:           8 Addr: 003f2c14 Rxd: a3071a46
# READ STATUS: Burst-No:           9 Addr: 003f2c16 Rxd: 02749b04
# READ STATUS: Burst-No:          10 Addr: 003f2c18 Rxd: 7bd261f7
