verif/log/core_sdr16_sim.log
 Compiling with MODELSIM in core SDR_16BIT Mode 
Model Technology ModelSim ACTEL vlog 6.6d Compiler 2010.11 Nov  2 2010
-- Compiling module tb_core
-- Compiling module IS42VM16400K
-- Compiling module mt48lc2m32b2
-- Compiling module mt48lc8m8a2
-- Compiling module sdrc_core
-- Compiling module sdrc_bank_ctl
-- Compiling module sdrc_bank_fsm
-- Compiling module sdrc_bs_convert
-- Compiling module sdrc_req_gen
-- Compiling module sdrc_xfr_ctl

Top level modules:
	tb_core
	mt48lc2m32b2
	mt48lc8m8a2
#### Compile : PASSED

###########################################
 Runing test programs 
###########################################
###########################################
### Running test 1: basic_test1
Reading D:/Actel/Libero_v9.1/Model/tcl/vsim/pref.tcl 

# 6.6d

# vsim +basic_test1 -do run.do -c tb_core 
# //  ModelSim ACTEL 6.6d Nov  2 2010 
# //
# //  Copyright 1991-2010 Mentor Graphics Corporation
# //              All Rights Reserved.
# //
# //  THIS WORK CONTAINS TRADE SECRET AND 
# //  PROPRIETARY INFORMATION WHICH IS THE PROPERTY
# //  OF MENTOR GRAPHICS CORPORATION OR ITS LICENSORS
# //  AND IS SUBJECT TO LICENSE TERMS.
# //
# Loading sv_std.std
# Loading work.tb_core
# Loading work.sdrc_core
# Loading work.sdrc_req_gen
# Loading work.sdrc_bank_ctl
# Loading work.sdrc_bank_fsm
# Loading work.sdrc_xfr_ctl
# Loading work.sdrc_bs_convert
# Loading work.IS42VM16400K
# do run.do 
# ----------------------------------------
#  Case-3 Create a Page Cross Over        
# ----------------------------------------
# Write Address: 00040ffc, Burst Size:   8
# Status: Burst-No:           0  Write Address: 00040ffc  WriteData: 12153524 
# Status: Burst-No:           1  Write Address: 00040ffc  WriteData: c0895e81 
# Status: Burst-No:           2  Write Address: 00040ffc  WriteData: 8484d609 
# Status: Burst-No:           3  Write Address: 00040ffc  WriteData: b1f05663 
# Status: Burst-No:           4  Write Address: 00040ffc  WriteData: 06b97b0d 
# Status: Burst-No:           5  Write Address: 00040ffc  WriteData: 46df998d 
# Status: Burst-No:           6  Write Address: 00040ffc  WriteData: b2c28465 
# Status: Burst-No:           7  Write Address: 00040ffc  WriteData: 89375212 
# Write Address: 00400ff8, Burst Size:  15
# Status: Burst-No:           0  Write Address: 00400ff8  WriteData: 00f3e301 
# Status: Burst-No:           1  Write Address: 00400ff8  WriteData: 06d7cd0d 
# Status: Burst-No:           2  Write Address: 00400ff8  WriteData: 3b23f176 
# Status: Burst-No:           3  Write Address: 00400ff8  WriteData: 1e8dcd3d 
# Status: Burst-No:           4  Write Address: 00400ff8  WriteData: 76d457ed 
# Status: Burst-No:           5  Write Address: 00400ff8  WriteData: 462df78c 
# Status: Burst-No:           6  Write Address: 00400ff8  WriteData: 7cfde9f9 
# Status: Burst-No:           7  Write Address: 00400ff8  WriteData: e33724c6 
# Status: Burst-No:           8  Write Address: 00400ff8  WriteData: e2f784c5 
# Status: Burst-No:           9  Write Address: 00400ff8  WriteData: d513d2aa 
# Status: Burst-No:          10  Write Address: 00400ff8  WriteData: 72aff7e5 
# Status: Burst-No:          11  Write Address: 00400ff8  WriteData: bbd27277 
# Status: Burst-No:          12  Write Address: 00400ff8  WriteData: 8932d612 
# Status: Burst-No:          13  Write Address: 00400ff8  WriteData: 47ecdb8f 
# Status: Burst-No:          14  Write Address: 00400ff8  WriteData: 793069f2 
# READ STATUS: Burst-No:           0 Addr: 00040ffc Rxd: 12153524
# READ STATUS: Burst-No:           1 Addr: 00040ffe Rxd: c0895e81
# READ STATUS: Burst-No:           2 Addr: 00041000 Rxd: 8484d609
# READ STATUS: Burst-No:           3 Addr: 00041002 Rxd: b1f05663
# READ STATUS: Burst-No:           4 Addr: 00041004 Rxd: 06b97b0d
# READ STATUS: Burst-No:           5 Addr: 00041006 Rxd: 46df998d
# READ STATUS: Burst-No:           6 Addr: 00041008 Rxd: b2c28465
# READ STATUS: Burst-No:           7 Addr: 0004100a Rxd: 89375212
# READ STATUS: Burst-No:           0 Addr: 00400ff8 Rxd: 00f3e301
# READ STATUS: Burst-No:           1 Addr: 00400ffa Rxd: 06d7cd0d
# READ STATUS: Burst-No:           2 Addr: 00400ffc Rxd: 3b23f176
# READ STATUS: Burst-No:           3 Addr: 00400ffe Rxd: 1e8dcd3d
# READ STATUS: Burst-No:           4 Addr: 00401000 Rxd: 76d457ed
# READ STATUS: Burst-No:           5 Addr: 00401002 Rxd: 462df78c
# READ STATUS: Burst-No:           6 Addr: 00401004 Rxd: 7cfde9f9
# READ STATUS: Burst-No:           7 Addr: 00401006 Rxd: e33724c6
# READ STATUS: Burst-No:           8 Addr: 00401008 Rxd: e2f784c5
# READ STATUS: Burst-No:           9 Addr: 0040100a Rxd: d513d2aa
# READ STATUS: Burst-No:          10 Addr: 0040100c Rxd: 72aff7e5
# READ STATUS: Burst-No:          11 Addr: 0040100e Rxd: bbd27277
# READ STATUS: Burst-No:          12 Addr: 00401010 Rxd: 8932d612
# READ STATUS: Burst-No:          13 Addr: 00401012 Rxd: 47ecdb8f
# READ STATUS: Burst-No:          14 Addr: 00401014 Rxd: 793069f2
###############################
# STATUS: SDRAM Write/Read TEST PASSED
###############################
# ** Note: $finish    : ../tb/tb_core.sv(382)
#    Time: 23950 ns  Iteration: 0  Instance: /tb_core
### test 1: basic_test1 --> PASSED
###########################################

###########################################
###  Test Logs                            
   test 1: ../log/core_SDR_16BIT_basic_test1.log
###########################################

###########################################
###  Test Summary                          
### 
### Failed 0 of 1 SDR_16BIT tests
###########################################
