verif/log/sdr32_sim.log
 Compiling with MODELSIM in SDR_32BIT Mode 
Model Technology ModelSim ACTEL vlog 6.6d Compiler 2010.11 Nov  2 2010
-- Compiling module tb_top
-- Compiling module IS42VM16400K
-- Compiling module mt48lc2m32b2
-- Compiling module sdrc_core
-- Compiling module sdrc_bank_ctl
-- Compiling module sdrc_bank_fsm
-- Compiling module sdrc_bs_convert
-- Compiling module sdrc_req_gen
-- Compiling module sdrc_xfr_ctl

Top level modules:
	tb_top
	IS42VM16400K
#### Compile : PASSED

###########################################
 Runing GMAC/SPI/UART test programs 
###########################################
###########################################
### Running test 1: basic_test1
Reading D:/Actel/Libero_v9.1/Model/tcl/vsim/pref.tcl 

# 6.6d

# vsim +basic_test1 -do run.do -c tb_top 
# //  ModelSim ACTEL 6.6d Nov  2 2010 
# //
# //  Copyright 1991-2010 Mentor Graphics Corporation
# //              All Rights Reserved.
# //
# //  THIS WORK CONTAINS TRADE SECRET AND 
# //  PROPRIETARY INFORMATION WHICH IS THE PROPERTY
# //  OF MENTOR GRAPHICS CORPORATION OR ITS LICENSORS
# //  AND IS SUBJECT TO LICENSE TERMS.
# //
# Loading sv_std.std
# Loading work.tb_top
# Loading work.sdrc_core
# Loading work.sdrc_req_gen
# Loading work.sdrc_bank_ctl
# Loading work.sdrc_bank_fsm
# Loading work.sdrc_xfr_ctl
# Loading work.sdrc_bs_convert
# Loading work.mt48lc2m32b2
# ** Warning: (vsim-3015) ../tb/tb.sv(182): [PCDPC] - Port size (11 or 11) does not match connection size (12) for port 'Addr'. The port definition is at: ../model/mt48lc2m32b2.v(42).
#         Region: /tb_top/u_sdram32
# do run.do 
# tb_top.u_sdram32 : at time   10165.0 ns AREF : Auto Refresh
# tb_top.u_sdram32 : at time   10255.0 ns AREF : Auto Refresh
# tb_top.u_sdram32 : at time   10345.0 ns AREF : Auto Refresh
# tb_top.u_sdram32 : at time   10435.0 ns AREF : Auto Refresh
# tb_top.u_sdram32 : at time   10525.0 ns AREF : Auto Refresh
# tb_top.u_sdram32 : at time   10615.0 ns AREF : Auto Refresh
# tb_top.u_sdram32 : at time   10705.0 ns AREF : Auto Refresh
# tb_top.u_sdram32 : at time   10795.0 ns AREF : Auto Refresh
# tb_top.u_sdram32 : at time   10885.0 ns AREF : Auto Refresh
# tb_top.u_sdram32 : at time   10975.0 ns AREF : Auto Refresh
# tb_top.u_sdram32 : at time   11065.0 ns AREF : Auto Refresh
# tb_top.u_sdram32 : at time   11155.0 ns AREF : Auto Refresh
# tb_top.u_sdram32 : at time   11245.0 ns AREF : Auto Refresh
# tb_top.u_sdram32 : at time   11335.0 ns AREF : Auto Refresh
# tb_top.u_sdram32 : at time   11425.0 ns AREF : Auto Refresh
# tb_top.u_sdram32 : at time   11515.0 ns LMR  : Load Mode Register
# tb_top.u_sdram32 :                             CAS Latency      = 3
# tb_top.u_sdram32 :                             Burst Length     = 8
# tb_top.u_sdram32 :                             Burst Type       = Sequential
# tb_top.u_sdram32 :                             Write Burst Mode = Programmed Burst Length
# Write Address: 00040000, Burst Size:           5
# tb_top.u_sdram32 : at time   12655.0 ns ACT  : Bank = 0 Row =  256
# Status: Burst-No:           0  Write Address: 00040000  WriteData: 11223344 
# tb_top.u_sdram32 : at time   12685.0 ns WRITE: Bank = 0 Row =  256, Col =   0, Data = 11223344
# Status: Burst-No:           1  Write Address: 00040000  WriteData: 22334455 
# tb_top.u_sdram32 : at time   12695.0 ns WRITE: Bank = 0 Row =  256, Col =   1, Data = 22334455
# Status: Burst-No:           2  Write Address: 00040000  WriteData: 33445566 
# tb_top.u_sdram32 : at time   12705.0 ns WRITE: Bank = 0 Row =  256, Col =   2, Data = 33445566
# Status: Burst-No:           3  Write Address: 00040000  WriteData: 44556677 
# tb_top.u_sdram32 : at time   12715.0 ns WRITE: Bank = 0 Row =  256, Col =   3, Data = 44556677
# Status: Burst-No:           4  Write Address: 00040000  WriteData: 55667788 
# tb_top.u_sdram32 : at time   12725.0 ns WRITE: Bank = 0 Row =  256, Col =   4, Data = 55667788
# tb_top.u_sdram32 : at time   12735.0 ns BST  : Burst Terminate
# tb_top.u_sdram32 : at time   13771.0 ns READ : Bank = 0 Row =  256, Col =   0, Data = 11223344
# READ STATUS: Burst-No:           0 Addr: 00040000 Rxd: 11223344
# tb_top.u_sdram32 : at time   13781.0 ns READ : Bank = 0 Row =  256, Col =   1, Data = 22334455
# READ STATUS: Burst-No:           1 Addr: 00040002 Rxd: 22334455
# tb_top.u_sdram32 : at time   13791.0 ns READ : Bank = 0 Row =  256, Col =   2, Data = 33445566
# READ STATUS: Burst-No:           2 Addr: 00040004 Rxd: 33445566
# tb_top.u_sdram32 : at time   13795.0 ns BST  : Burst Terminate
# tb_top.u_sdram32 : at time   13801.0 ns READ : Bank = 0 Row =  256, Col =   3, Data = 44556677
# READ STATUS: Burst-No:           3 Addr: 00040006 Rxd: 44556677
# tb_top.u_sdram32 : at time   13811.0 ns READ : Bank = 0 Row =  256, Col =   4, Data = 55667788
# READ STATUS: Burst-No:           4 Addr: 00040008 Rxd: 55667788
# Write Address: 70000000, Burst Size:           5
# tb_top.u_sdram32 : at time   14875.0 ns ACT  : Bank = 0 Row =    0
# Status: Burst-No:           0  Write Address: 70000000  WriteData: 11223344 
# tb_top.u_sdram32 : at time   14905.0 ns WRITE: Bank = 0 Row =    0, Col =   0, Data = 11223344
# Status: Burst-No:           1  Write Address: 70000000  WriteData: 22334455 
# tb_top.u_sdram32 : at time   14915.0 ns WRITE: Bank = 0 Row =    0, Col =   1, Data = 22334455
# Status: Burst-No:           2  Write Address: 70000000  WriteData: 33445566 
# tb_top.u_sdram32 : at time   14925.0 ns WRITE: Bank = 0 Row =    0, Col =   2, Data = 33445566
# Status: Burst-No:           3  Write Address: 70000000  WriteData: 44556677 
# tb_top.u_sdram32 : at time   14935.0 ns WRITE: Bank = 0 Row =    0, Col =   3, Data = 44556677
# Status: Burst-No:           4  Write Address: 70000000  WriteData: 55667788 
# tb_top.u_sdram32 : at time   14945.0 ns WRITE: Bank = 0 Row =    0, Col =   4, Data = 55667788
# tb_top.u_sdram32 : at time   14955.0 ns BST  : Burst Terminate
# tb_top.u_sdram32 : at time   15991.0 ns READ : Bank = 0 Row =    0, Col =   0, Data = 11223344
# READ STATUS: Burst-No:           0 Addr: 70000000 Rxd: 11223344
# tb_top.u_sdram32 : at time   16001.0 ns READ : Bank = 0 Row =    0, Col =   1, Data = 22334455
# READ STATUS: Burst-No:           1 Addr: 70000002 Rxd: 22334455
# tb_top.u_sdram32 : at time   16011.0 ns READ : Bank = 0 Row =    0, Col =   2, Data = 33445566
# READ STATUS: Burst-No:           2 Addr: 70000004 Rxd: 33445566
# tb_top.u_sdram32 : at time   16015.0 ns BST  : Burst Terminate
# tb_top.u_sdram32 : at time   16021.0 ns READ : Bank = 0 Row =    0, Col =   3, Data = 44556677
# READ STATUS: Burst-No:           3 Addr: 70000006 Rxd: 44556677
# tb_top.u_sdram32 : at time   16031.0 ns READ : Bank = 0 Row =    0, Col =   4, Data = 55667788
# READ STATUS: Burst-No:           4 Addr: 70000008 Rxd: 55667788
# Write Address: 02153524, Burst Size:           5
# tb_top.u_sdram32 : at time   16105.0 ns ACT  : Bank = 0 Row = 1357
# Status: Burst-No:           0  Write Address: 02153524  WriteData: 11223344 
# tb_top.u_sdram32 : at time   16135.0 ns WRITE: Bank = 0 Row = 1357, Col =  73, Data = 11223344
# Status: Burst-No:           1  Write Address: 02153524  WriteData: 22334455 
# tb_top.u_sdram32 : at time   16145.0 ns WRITE: Bank = 0 Row = 1357, Col =  74, Data = 22334455
# Status: Burst-No:           2  Write Address: 02153524  WriteData: 33445566 
# tb_top.u_sdram32 : at time   16155.0 ns WRITE: Bank = 0 Row = 1357, Col =  75, Data = 33445566
# Status: Burst-No:           3  Write Address: 02153524  WriteData: 44556677 
# tb_top.u_sdram32 : at time   16165.0 ns WRITE: Bank = 0 Row = 1357, Col =  76, Data = 44556677
# Status: Burst-No:           4  Write Address: 02153524  WriteData: 55667788 
# tb_top.u_sdram32 : at time   16175.0 ns WRITE: Bank = 0 Row = 1357, Col =  77, Data = 55667788
# tb_top.u_sdram32 : at time   16185.0 ns BST  : Burst Terminate
# tb_top.u_sdram32 : at time   17221.0 ns READ : Bank = 0 Row = 1357, Col =  73, Data = 11223344
# READ STATUS: Burst-No:           0 Addr: 02153524 Rxd: 11223344
# tb_top.u_sdram32 : at time   17231.0 ns READ : Bank = 0 Row = 1357, Col =  74, Data = 22334455
# READ STATUS: Burst-No:           1 Addr: 02153526 Rxd: 22334455
# tb_top.u_sdram32 : at time   17241.0 ns READ : Bank = 0 Row = 1357, Col =  75, Data = 33445566
# READ STATUS: Burst-No:           2 Addr: 02153528 Rxd: 33445566
# tb_top.u_sdram32 : at time   17245.0 ns BST  : Burst Terminate
# tb_top.u_sdram32 : at time   17251.0 ns READ : Bank = 0 Row = 1357, Col =  76, Data = 44556677
# READ STATUS: Burst-No:           3 Addr: 0215352a Rxd: 44556677
# tb_top.u_sdram32 : at time   17261.0 ns READ : Bank = 0 Row = 1357, Col =  77, Data = 55667788
# READ STATUS: Burst-No:           4 Addr: 0215352c Rxd: 55667788
# Write Address: 00895e81, Burst Size:           5
# tb_top.u_sdram32 : at time   17335.0 ns ACT  : Bank = 0 Row =  599
# Status: Burst-No:           0  Write Address: 00895e81  WriteData: 11223344 
# tb_top.u_sdram32 : at time   17365.0 ns WRITE: Bank = 0 Row =  599, Col = 160, Data = 11223344
# Status: Burst-No:           1  Write Address: 00895e81  WriteData: 22334455 
# tb_top.u_sdram32 : at time   17375.0 ns WRITE: Bank = 0 Row =  599, Col = 161, Data = 22334455
# Status: Burst-No:           2  Write Address: 00895e81  WriteData: 33445566 
# tb_top.u_sdram32 : at time   17385.0 ns WRITE: Bank = 0 Row =  599, Col = 162, Data = 33445566
# Status: Burst-No:           3  Write Address: 00895e81  WriteData: 44556677 
# tb_top.u_sdram32 : at time   17395.0 ns WRITE: Bank = 0 Row =  599, Col = 163, Data = 44556677
# Status: Burst-No:           4  Write Address: 00895e81  WriteData: 55667788 
# tb_top.u_sdram32 : at time   17405.0 ns WRITE: Bank = 0 Row =  599, Col = 164, Data = 55667788
# tb_top.u_sdram32 : at time   17415.0 ns BST  : Burst Terminate
# tb_top.u_sdram32 : at time   18451.0 ns READ : Bank = 0 Row =  599, Col = 160, Data = 11223344
# READ STATUS: Burst-No:           0 Addr: 00895e81 Rxd: 11223344
# tb_top.u_sdram32 : at time   18461.0 ns READ : Bank = 0 Row =  599, Col = 161, Data = 22334455
# READ STATUS: Burst-No:           1 Addr: 00895e83 Rxd: 22334455
# tb_top.u_sdram32 : at time   18471.0 ns READ : Bank = 0 Row =  599, Col = 162, Data = 33445566
# READ STATUS: Burst-No:           2 Addr: 00895e85 Rxd: 33445566
# tb_top.u_sdram32 : at time   18475.0 ns BST  : Burst Terminate
# tb_top.u_sdram32 : at time   18481.0 ns READ : Bank = 0 Row =  599, Col = 163, Data = 44556677
# READ STATUS: Burst-No:           3 Addr: 00895e87 Rxd: 44556677
# tb_top.u_sdram32 : at time   18491.0 ns READ : Bank = 0 Row =  599, Col = 164, Data = 55667788
# READ STATUS: Burst-No:           4 Addr: 00895e89 Rxd: 55667788
# Write Address: 0484d609, Burst Size:           5
# tb_top.u_sdram32 : at time   18565.0 ns ACT  : Bank = 0 Row =  309
# Status: Burst-No:           0  Write Address: 0484d609  WriteData: 11223344 
# tb_top.u_sdram32 : at time   18595.0 ns WRITE: Bank = 0 Row =  309, Col = 130, Data = 11223344
# Status: Burst-No:           1  Write Address: 0484d609  WriteData: 22334455 
# tb_top.u_sdram32 : at time   18605.0 ns WRITE: Bank = 0 Row =  309, Col = 131, Data = 22334455
# Status: Burst-No:           2  Write Address: 0484d609  WriteData: 33445566 
# tb_top.u_sdram32 : at time   18615.0 ns WRITE: Bank = 0 Row =  309, Col = 132, Data = 33445566
# Status: Burst-No:           3  Write Address: 0484d609  WriteData: 44556677 
# tb_top.u_sdram32 : at time   18625.0 ns WRITE: Bank = 0 Row =  309, Col = 133, Data = 44556677
# Status: Burst-No:           4  Write Address: 0484d609  WriteData: 55667788 
# tb_top.u_sdram32 : at time   18635.0 ns WRITE: Bank = 0 Row =  309, Col = 134, Data = 55667788
# tb_top.u_sdram32 : at time   18645.0 ns BST  : Burst Terminate
# tb_top.u_sdram32 : at time   19681.0 ns READ : Bank = 0 Row =  309, Col = 130, Data = 11223344
# READ STATUS: Burst-No:           0 Addr: 0484d609 Rxd: 11223344
# tb_top.u_sdram32 : at time   19691.0 ns READ : Bank = 0 Row =  309, Col = 131, Data = 22334455
# READ STATUS: Burst-No:           1 Addr: 0484d60b Rxd: 22334455
# tb_top.u_sdram32 : at time   19701.0 ns READ : Bank = 0 Row =  309, Col = 132, Data = 33445566
# READ STATUS: Burst-No:           2 Addr: 0484d60d Rxd: 33445566
# tb_top.u_sdram32 : at time   19705.0 ns BST  : Burst Terminate
# tb_top.u_sdram32 : at time   19711.0 ns READ : Bank = 0 Row =  309, Col = 133, Data = 44556677
# READ STATUS: Burst-No:           3 Addr: 0484d60f Rxd: 44556677
# tb_top.u_sdram32 : at time   19721.0 ns READ : Bank = 0 Row =  309, Col = 134, Data = 55667788
# READ STATUS: Burst-No:           4 Addr: 0484d611 Rxd: 55667788
# Write Address: 01f05663, Burst Size:           5
# tb_top.u_sdram32 : at time   19795.0 ns ACT  : Bank = 3 Row = 1045
# Status: Burst-No:           0  Write Address: 01f05663  WriteData: 11223344 
# tb_top.u_sdram32 : at time   19825.0 ns WRITE: Bank = 3 Row = 1045, Col = 152, Data = 11223344
# Status: Burst-No:           1  Write Address: 01f05663  WriteData: 22334455 
# tb_top.u_sdram32 : at time   19835.0 ns WRITE: Bank = 3 Row = 1045, Col = 153, Data = 22334455
# Status: Burst-No:           2  Write Address: 01f05663  WriteData: 33445566 
# tb_top.u_sdram32 : at time   19845.0 ns WRITE: Bank = 3 Row = 1045, Col = 154, Data = 33445566
# Status: Burst-No:           3  Write Address: 01f05663  WriteData: 44556677 
# tb_top.u_sdram32 : at time   19855.0 ns WRITE: Bank = 3 Row = 1045, Col = 155, Data = 44556677
# Status: Burst-No:           4  Write Address: 01f05663  WriteData: 55667788 
# tb_top.u_sdram32 : at time   19865.0 ns WRITE: Bank = 3 Row = 1045, Col = 156, Data = 55667788
# tb_top.u_sdram32 : at time   19875.0 ns BST  : Burst Terminate
# tb_top.u_sdram32 : at time   20911.0 ns READ : Bank = 3 Row = 1045, Col = 152, Data = 11223344
# READ STATUS: Burst-No:           0 Addr: 01f05663 Rxd: 11223344
# tb_top.u_sdram32 : at time   20921.0 ns READ : Bank = 3 Row = 1045, Col = 153, Data = 22334455
# READ STATUS: Burst-No:           1 Addr: 01f05665 Rxd: 22334455
# tb_top.u_sdram32 : at time   20931.0 ns READ : Bank = 3 Row = 1045, Col = 154, Data = 33445566
# READ STATUS: Burst-No:           2 Addr: 01f05667 Rxd: 33445566
# tb_top.u_sdram32 : at time   20935.0 ns BST  : Burst Terminate
# tb_top.u_sdram32 : at time   20941.0 ns READ : Bank = 3 Row = 1045, Col = 155, Data = 44556677
# READ STATUS: Burst-No:           3 Addr: 01f05669 Rxd: 44556677
# tb_top.u_sdram32 : at time   20951.0 ns READ : Bank = 3 Row = 1045, Col = 156, Data = 55667788
# READ STATUS: Burst-No:           4 Addr: 01f0566b Rxd: 55667788
# Write Address: 06b97b0d, Burst Size:           5
# tb_top.u_sdram32 : at time   21025.0 ns ACT  : Bank = 1 Row = 1630
# Status: Burst-No:           0  Write Address: 06b97b0d  WriteData: 11223344 
# tb_top.u_sdram32 : at time   21055.0 ns WRITE: Bank = 1 Row = 1630, Col = 195, Data = 11223344
# Status: Burst-No:           1  Write Address: 06b97b0d  WriteData: 22334455 
# tb_top.u_sdram32 : at time   21065.0 ns WRITE: Bank = 1 Row = 1630, Col = 196, Data = 22334455
# Status: Burst-No:           2  Write Address: 06b97b0d  WriteData: 33445566 
# tb_top.u_sdram32 : at time   21075.0 ns WRITE: Bank = 1 Row = 1630, Col = 197, Data = 33445566
# Status: Burst-No:           3  Write Address: 06b97b0d  WriteData: 44556677 
# tb_top.u_sdram32 : at time   21085.0 ns WRITE: Bank = 1 Row = 1630, Col = 198, Data = 44556677
# Status: Burst-No:           4  Write Address: 06b97b0d  WriteData: 55667788 
# tb_top.u_sdram32 : at time   21095.0 ns WRITE: Bank = 1 Row = 1630, Col = 199, Data = 55667788
# tb_top.u_sdram32 : at time   21105.0 ns BST  : Burst Terminate
# tb_top.u_sdram32 : at time   22141.0 ns READ : Bank = 1 Row = 1630, Col = 195, Data = 11223344
# READ STATUS: Burst-No:           0 Addr: 06b97b0d Rxd: 11223344
# tb_top.u_sdram32 : at time   22151.0 ns READ : Bank = 1 Row = 1630, Col = 196, Data = 22334455
# READ STATUS: Burst-No:           1 Addr: 06b97b0f Rxd: 22334455
# tb_top.u_sdram32 : at time   22161.0 ns READ : Bank = 1 Row = 1630, Col = 197, Data = 33445566
# READ STATUS: Burst-No:           2 Addr: 06b97b11 Rxd: 33445566
# tb_top.u_sdram32 : at time   22165.0 ns BST  : Burst Terminate
# tb_top.u_sdram32 : at time   22171.0 ns READ : Bank = 1 Row = 1630, Col = 198, Data = 44556677
# READ STATUS: Burst-No:           3 Addr: 06b97b13 Rxd: 44556677
# tb_top.u_sdram32 : at time   22181.0 ns READ : Bank = 1 Row = 1630, Col = 199, Data = 55667788
# READ STATUS: Burst-No:           4 Addr: 06b97b15 Rxd: 55667788
# Write Address: 06df998d, Burst Size:           5
# tb_top.u_sdram32 : at time   22255.0 ns ACT  : Bank = 2 Row = 2022
# Status: Burst-No:           0  Write Address: 06df998d  WriteData: 11223344 
# tb_top.u_sdram32 : at time   22285.0 ns WRITE: Bank = 2 Row = 2022, Col =  99, Data = 11223344
# Status: Burst-No:           1  Write Address: 06df998d  WriteData: 22334455 
# tb_top.u_sdram32 : at time   22295.0 ns WRITE: Bank = 2 Row = 2022, Col = 100, Data = 22334455
# Status: Burst-No:           2  Write Address: 06df998d  WriteData: 33445566 
# tb_top.u_sdram32 : at time   22305.0 ns WRITE: Bank = 2 Row = 2022, Col = 101, Data = 33445566
# Status: Burst-No:           3  Write Address: 06df998d  WriteData: 44556677 
# tb_top.u_sdram32 : at time   22315.0 ns WRITE: Bank = 2 Row = 2022, Col = 102, Data = 44556677
# Status: Burst-No:           4  Write Address: 06df998d  WriteData: 55667788 
# tb_top.u_sdram32 : at time   22325.0 ns WRITE: Bank = 2 Row = 2022, Col = 103, Data = 55667788
# tb_top.u_sdram32 : at time   22335.0 ns BST  : Burst Terminate
# tb_top.u_sdram32 : at time   23371.0 ns READ : Bank = 2 Row = 2022, Col =  99, Data = 11223344
# READ STATUS: Burst-No:           0 Addr: 06df998d Rxd: 11223344
# tb_top.u_sdram32 : at time   23381.0 ns READ : Bank = 2 Row = 2022, Col = 100, Data = 22334455
# READ STATUS: Burst-No:           1 Addr: 06df998f Rxd: 22334455
# tb_top.u_sdram32 : at time   23391.0 ns READ : Bank = 2 Row = 2022, Col = 101, Data = 33445566
# READ STATUS: Burst-No:           2 Addr: 06df9991 Rxd: 33445566
# tb_top.u_sdram32 : at time   23395.0 ns BST  : Burst Terminate
# tb_top.u_sdram32 : at time   23401.0 ns READ : Bank = 2 Row = 2022, Col = 102, Data = 44556677
# READ STATUS: Burst-No:           3 Addr: 06df9993 Rxd: 44556677
# tb_top.u_sdram32 : at time   23411.0 ns READ : Bank = 2 Row = 2022, Col = 103, Data = 55667788
# READ STATUS: Burst-No:           4 Addr: 06df9995 Rxd: 55667788
# Write Address: 02c28465, Burst Size:           5
# tb_top.u_sdram32 : at time   23485.0 ns ACT  : Bank = 2 Row =  161
# Status: Burst-No:           0  Write Address: 02c28465  WriteData: 11223344 
# tb_top.u_sdram32 : at time   23515.0 ns WRITE: Bank = 2 Row =  161, Col =  25, Data = 11223344
# Status: Burst-No:           1  Write Address: 02c28465  WriteData: 22334455 
# tb_top.u_sdram32 : at time   23525.0 ns WRITE: Bank = 2 Row =  161, Col =  26, Data = 22334455
# Status: Burst-No:           2  Write Address: 02c28465  WriteData: 33445566 
# tb_top.u_sdram32 : at time   23535.0 ns WRITE: Bank = 2 Row =  161, Col =  27, Data = 33445566
# Status: Burst-No:           3  Write Address: 02c28465  WriteData: 44556677 
# tb_top.u_sdram32 : at time   23545.0 ns WRITE: Bank = 2 Row =  161, Col =  28, Data = 44556677
# Status: Burst-No:           4  Write Address: 02c28465  WriteData: 55667788 
# tb_top.u_sdram32 : at time   23555.0 ns WRITE: Bank = 2 Row =  161, Col =  29, Data = 55667788
# tb_top.u_sdram32 : at time   23565.0 ns BST  : Burst Terminate
# tb_top.u_sdram32 : at time   24601.0 ns READ : Bank = 2 Row =  161, Col =  25, Data = 11223344
# READ STATUS: Burst-No:           0 Addr: 02c28465 Rxd: 11223344
# tb_top.u_sdram32 : at time   24611.0 ns READ : Bank = 2 Row =  161, Col =  26, Data = 22334455
# READ STATUS: Burst-No:           1 Addr: 02c28467 Rxd: 22334455
# tb_top.u_sdram32 : at time   24621.0 ns READ : Bank = 2 Row =  161, Col =  27, Data = 33445566
# READ STATUS: Burst-No:           2 Addr: 02c28469 Rxd: 33445566
# tb_top.u_sdram32 : at time   24625.0 ns BST  : Burst Terminate
# tb_top.u_sdram32 : at time   24631.0 ns READ : Bank = 2 Row =  161, Col =  28, Data = 44556677
# READ STATUS: Burst-No:           3 Addr: 02c2846b Rxd: 44556677
# tb_top.u_sdram32 : at time   24641.0 ns READ : Bank = 2 Row =  161, Col =  29, Data = 55667788
# READ STATUS: Burst-No:           4 Addr: 02c2846d Rxd: 55667788
# Write Address: 01375212, Burst Size:           5
# tb_top.u_sdram32 : at time   24715.0 ns ACT  : Bank = 1 Row = 1492
# Status: Burst-No:           0  Write Address: 01375212  WriteData: 11223344 
# tb_top.u_sdram32 : at time   24745.0 ns WRITE: Bank = 1 Row = 1492, Col = 132, Data = 11223344
# Status: Burst-No:           1  Write Address: 01375212  WriteData: 22334455 
# tb_top.u_sdram32 : at time   24755.0 ns WRITE: Bank = 1 Row = 1492, Col = 133, Data = 22334455
# Status: Burst-No:           2  Write Address: 01375212  WriteData: 33445566 
# tb_top.u_sdram32 : at time   24765.0 ns WRITE: Bank = 1 Row = 1492, Col = 134, Data = 33445566
# Status: Burst-No:           3  Write Address: 01375212  WriteData: 44556677 
# tb_top.u_sdram32 : at time   24775.0 ns WRITE: Bank = 1 Row = 1492, Col = 135, Data = 44556677
# Status: Burst-No:           4  Write Address: 01375212  WriteData: 55667788 
# tb_top.u_sdram32 : at time   24785.0 ns WRITE: Bank = 1 Row = 1492, Col = 136, Data = 55667788
# tb_top.u_sdram32 : at time   24795.0 ns BST  : Burst Terminate
# tb_top.u_sdram32 : at time   25831.0 ns READ : Bank = 1 Row = 1492, Col = 132, Data = 11223344
# READ STATUS: Burst-No:           0 Addr: 01375212 Rxd: 11223344
# tb_top.u_sdram32 : at time   25841.0 ns READ : Bank = 1 Row = 1492, Col = 133, Data = 22334455
# READ STATUS: Burst-No:           1 Addr: 01375214 Rxd: 22334455
# tb_top.u_sdram32 : at time   25851.0 ns READ : Bank = 1 Row = 1492, Col = 134, Data = 33445566
# READ STATUS: Burst-No:           2 Addr: 01375216 Rxd: 33445566
# tb_top.u_sdram32 : at time   25855.0 ns BST  : Burst Terminate
# tb_top.u_sdram32 : at time   25861.0 ns READ : Bank = 1 Row = 1492, Col = 135, Data = 44556677
# READ STATUS: Burst-No:           3 Addr: 01375218 Rxd: 44556677
# tb_top.u_sdram32 : at time   25871.0 ns READ : Bank = 1 Row = 1492, Col = 136, Data = 55667788
# READ STATUS: Burst-No:           4 Addr: 0137521a Rxd: 55667788
# Write Address: 00f3e301, Burst Size:           5
# tb_top.u_sdram32 : at time   25945.0 ns ACT  : Bank = 3 Row = 1272
# Status: Burst-No:           0  Write Address: 00f3e301  WriteData: 11223344 
# tb_top.u_sdram32 : at time   25975.0 ns WRITE: Bank = 3 Row = 1272, Col = 192, Data = 11223344
# Status: Burst-No:           1  Write Address: 00f3e301  WriteData: 22334455 
# tb_top.u_sdram32 : at time   25985.0 ns WRITE: Bank = 3 Row = 1272, Col = 193, Data = 22334455
# Status: Burst-No:           2  Write Address: 00f3e301  WriteData: 33445566 
# tb_top.u_sdram32 : at time   25995.0 ns WRITE: Bank = 3 Row = 1272, Col = 194, Data = 33445566
# Status: Burst-No:           3  Write Address: 00f3e301  WriteData: 44556677 
# tb_top.u_sdram32 : at time   26005.0 ns WRITE: Bank = 3 Row = 1272, Col = 195, Data = 44556677
# Status: Burst-No:           4  Write Address: 00f3e301  WriteData: 55667788 
# tb_top.u_sdram32 : at time   26015.0 ns WRITE: Bank = 3 Row = 1272, Col = 196, Data = 55667788
# tb_top.u_sdram32 : at time   26025.0 ns BST  : Burst Terminate
# tb_top.u_sdram32 : at time   27061.0 ns READ : Bank = 3 Row = 1272, Col = 192, Data = 11223344
# READ STATUS: Burst-No:           0 Addr: 00f3e301 Rxd: 11223344
# tb_top.u_sdram32 : at time   27071.0 ns READ : Bank = 3 Row = 1272, Col = 193, Data = 22334455
# READ STATUS: Burst-No:           1 Addr: 00f3e303 Rxd: 22334455
# tb_top.u_sdram32 : at time   27081.0 ns READ : Bank = 3 Row = 1272, Col = 194, Data = 33445566
# READ STATUS: Burst-No:           2 Addr: 00f3e305 Rxd: 33445566
# tb_top.u_sdram32 : at time   27085.0 ns BST  : Burst Terminate
# tb_top.u_sdram32 : at time   27091.0 ns READ : Bank = 3 Row = 1272, Col = 195, Data = 44556677
# READ STATUS: Burst-No:           3 Addr: 00f3e307 Rxd: 44556677
# tb_top.u_sdram32 : at time   27101.0 ns READ : Bank = 3 Row = 1272, Col = 196, Data = 55667788
# READ STATUS: Burst-No:           4 Addr: 00f3e309 Rxd: 55667788
# Write Address: 06d7cd0d, Burst Size:           5
# tb_top.u_sdram32 : at time   27175.0 ns ACT  : Bank = 2 Row = 1523
# Status: Burst-No:           0  Write Address: 06d7cd0d  WriteData: 11223344 
# tb_top.u_sdram32 : at time   27205.0 ns WRITE: Bank = 2 Row = 1523, Col =  67, Data = 11223344
# Status: Burst-No:           1  Write Address: 06d7cd0d  WriteData: 22334455 
# tb_top.u_sdram32 : at time   27215.0 ns WRITE: Bank = 2 Row = 1523, Col =  68, Data = 22334455
# Status: Burst-No:           2  Write Address: 06d7cd0d  WriteData: 33445566 
# tb_top.u_sdram32 : at time   27225.0 ns WRITE: Bank = 2 Row = 1523, Col =  69, Data = 33445566
# Status: Burst-No:           3  Write Address: 06d7cd0d  WriteData: 44556677 
# tb_top.u_sdram32 : at time   27235.0 ns WRITE: Bank = 2 Row = 1523, Col =  70, Data = 44556677
# Status: Burst-No:           4  Write Address: 06d7cd0d  WriteData: 55667788 
# tb_top.u_sdram32 : at time   27245.0 ns WRITE: Bank = 2 Row = 1523, Col =  71, Data = 55667788
# tb_top.u_sdram32 : at time   27255.0 ns BST  : Burst Terminate
# tb_top.u_sdram32 : at time   28291.0 ns READ : Bank = 2 Row = 1523, Col =  67, Data = 11223344
# READ STATUS: Burst-No:           0 Addr: 06d7cd0d Rxd: 11223344
# tb_top.u_sdram32 : at time   28301.0 ns READ : Bank = 2 Row = 1523, Col =  68, Data = 22334455
# READ STATUS: Burst-No:           1 Addr: 06d7cd0f Rxd: 22334455
# tb_top.u_sdram32 : at time   28311.0 ns READ : Bank = 2 Row = 1523, Col =  69, Data = 33445566
# READ STATUS: Burst-No:           2 Addr: 06d7cd11 Rxd: 33445566
# tb_top.u_sdram32 : at time   28315.0 ns BST  : Burst Terminate
# tb_top.u_sdram32 : at time   28321.0 ns READ : Bank = 2 Row = 1523, Col =  70, Data = 44556677
# READ STATUS: Burst-No:           3 Addr: 06d7cd13 Rxd: 44556677
# tb_top.u_sdram32 : at time   28331.0 ns READ : Bank = 2 Row = 1523, Col =  71, Data = 55667788
# READ STATUS: Burst-No:           4 Addr: 06d7cd15 Rxd: 55667788
# Write Address: 0323f176, Burst Size:           5
# tb_top.u_sdram32 : at time   28405.0 ns ACT  : Bank = 1 Row =  252
# Status: Burst-No:           0  Write Address: 0323f176  WriteData: 11223344 
# tb_top.u_sdram32 : at time   28435.0 ns WRITE: Bank = 1 Row =  252, Col =  93, Data = 11223344
# Status: Burst-No:           1  Write Address: 0323f176  WriteData: 22334455 
# tb_top.u_sdram32 : at time   28445.0 ns WRITE: Bank = 1 Row =  252, Col =  94, Data = 22334455
# Status: Burst-No:           2  Write Address: 0323f176  WriteData: 33445566 
# tb_top.u_sdram32 : at time   28455.0 ns WRITE: Bank = 1 Row =  252, Col =  95, Data = 33445566
# Status: Burst-No:           3  Write Address: 0323f176  WriteData: 44556677 
# tb_top.u_sdram32 : at time   28465.0 ns WRITE: Bank = 1 Row =  252, Col =  96, Data = 44556677
# Status: Burst-No:           4  Write Address: 0323f176  WriteData: 55667788 
# tb_top.u_sdram32 : at time   28475.0 ns WRITE: Bank = 1 Row =  252, Col =  97, Data = 55667788
# tb_top.u_sdram32 : at time   28485.0 ns BST  : Burst Terminate
# tb_top.u_sdram32 : at time   29521.0 ns READ : Bank = 1 Row =  252, Col =  93, Data = 11223344
# READ STATUS: Burst-No:           0 Addr: 0323f176 Rxd: 11223344
# tb_top.u_sdram32 : at time   29531.0 ns READ : Bank = 1 Row =  252, Col =  94, Data = 22334455
# READ STATUS: Burst-No:           1 Addr: 0323f178 Rxd: 22334455
# tb_top.u_sdram32 : at time   29541.0 ns READ : Bank = 1 Row =  252, Col =  95, Data = 33445566
# READ STATUS: Burst-No:           2 Addr: 0323f17a Rxd: 33445566
