verif/log/SDR_8BIT_basic_test1.log
Reading D:/Actel/Libero_v9.1/Model/tcl/vsim/pref.tcl 

# 6.6d

# vsim +basic_test1 -do run.do -c tb_top 
# //  ModelSim ACTEL 6.6d Nov  2 2010 
# //
# //  Copyright 1991-2010 Mentor Graphics Corporation
# //              All Rights Reserved.
# //
# //  THIS WORK CONTAINS TRADE SECRET AND 
# //  PROPRIETARY INFORMATION WHICH IS THE PROPERTY
# //  OF MENTOR GRAPHICS CORPORATION OR ITS LICENSORS
# //  AND IS SUBJECT TO LICENSE TERMS.
# //
# Loading sv_std.std
# Loading work.tb_top
# Loading work.sdrc_core
# Loading work.sdrc_req_gen
# Loading work.sdrc_bank_ctl
# Loading work.sdrc_bank_fsm
# Loading work.sdrc_xfr_ctl
# Loading work.sdrc_bs_convert
# Loading work.mt48lc8m8a2
# do run.do 
# Write Address: 00040000, Burst Size:           5
# Status: Burst-No:           0  Write Address: 00040000  WriteData: 11223344 
# Status: Burst-No:           1  Write Address: 00040000  WriteData: 22334455 
# Status: Burst-No:           2  Write Address: 00040000  WriteData: 33445566 
# Status: Burst-No:           3  Write Address: 00040000  WriteData: 44556677 
# Status: Burst-No:           4  Write Address: 00040000  WriteData: 55667788 
# READ STATUS: Burst-No:           0 Addr: 00040000 Rxd: 11223344
# READ STATUS: Burst-No:           1 Addr: 00040002 Rxd: 22334455
# READ STATUS: Burst-No:           2 Addr: 00040004 Rxd: 33445566
# READ STATUS: Burst-No:           3 Addr: 00040006 Rxd: 44556677
# READ STATUS: Burst-No:           4 Addr: 00040008 Rxd: 55667788
# Write Address: 70000000, Burst Size:           5
# Status: Burst-No:           0  Write Address: 70000000  WriteData: 11223344 
# Status: Burst-No:           1  Write Address: 70000000  WriteData: 22334455 
# Status: Burst-No:           2  Write Address: 70000000  WriteData: 33445566 
# Status: Burst-No:           3  Write Address: 70000000  WriteData: 44556677 
# Status: Burst-No:           4  Write Address: 70000000  WriteData: 55667788 
# READ STATUS: Burst-No:           0 Addr: 70000000 Rxd: 11223344
# READ STATUS: Burst-No:           1 Addr: 70000002 Rxd: 22334455
# READ STATUS: Burst-No:           2 Addr: 70000004 Rxd: 33445566
# READ STATUS: Burst-No:           3 Addr: 70000006 Rxd: 44556677
# READ STATUS: Burst-No:           4 Addr: 70000008 Rxd: 55667788
# Write Address: 02153524, Burst Size:           5
# Status: Burst-No:           0  Write Address: 02153524  WriteData: 11223344 
# Status: Burst-No:           1  Write Address: 02153524  WriteData: 22334455 
# Status: Burst-No:           2  Write Address: 02153524  WriteData: 33445566 
# Status: Burst-No:           3  Write Address: 02153524  WriteData: 44556677 
# Status: Burst-No:           4  Write Address: 02153524  WriteData: 55667788 
# READ STATUS: Burst-No:           0 Addr: 02153524 Rxd: 11223344
# READ STATUS: Burst-No:           1 Addr: 02153526 Rxd: 22334455
# READ STATUS: Burst-No:           2 Addr: 02153528 Rxd: 33445566
# READ STATUS: Burst-No:           3 Addr: 0215352a Rxd: 44556677
# READ STATUS: Burst-No:           4 Addr: 0215352c Rxd: 55667788
# Write Address: 00895e81, Burst Size:           5
# Status: Burst-No:           0  Write Address: 00895e81  WriteData: 11223344 
# Status: Burst-No:           1  Write Address: 00895e81  WriteData: 22334455 
# Status: Burst-No:           2  Write Address: 00895e81  WriteData: 33445566 
# Status: Burst-No:           3  Write Address: 00895e81  WriteData: 44556677 
# Status: Burst-No:           4  Write Address: 00895e81  WriteData: 55667788 
# READ STATUS: Burst-No:           0 Addr: 00895e81 Rxd: 11223344
# READ STATUS: Burst-No:           1 Addr: 00895e83 Rxd: 22334455
# READ STATUS: Burst-No:           2 Addr: 00895e85 Rxd: 33445566
# READ STATUS: Burst-No:           3 Addr: 00895e87 Rxd: 44556677
# READ STATUS: Burst-No:           4 Addr: 00895e89 Rxd: 55667788
# Write Address: 0484d609, Burst Size:           5
# Status: Burst-No:           0  Write Address: 0484d609  WriteData: 11223344 
# Status: Burst-No:           1  Write Address: 0484d609  WriteData: 22334455 
# Status: Burst-No:           2  Write Address: 0484d609  WriteData: 33445566 
# Status: Burst-No:           3  Write Address: 0484d609  WriteData: 44556677 
# Status: Burst-No:           4  Write Address: 0484d609  WriteData: 55667788 
# READ STATUS: Burst-No:           0 Addr: 0484d609 Rxd: 11223344
# READ STATUS: Burst-No:           1 Addr: 0484d60b Rxd: 22334455
# READ STATUS: Burst-No:           2 Addr: 0484d60d Rxd: 33445566
# READ STATUS: Burst-No:           3 Addr: 0484d60f Rxd: 44556677
# READ STATUS: Burst-No:           4 Addr: 0484d611 Rxd: 55667788
# Write Address: 01f05663, Burst Size:           5
# Status: Burst-No:           0  Write Address: 01f05663  WriteData: 11223344 
# Status: Burst-No:           1  Write Address: 01f05663  WriteData: 22334455 
# Status: Burst-No:           2  Write Address: 01f05663  WriteData: 33445566 
# Status: Burst-No:           3  Write Address: 01f05663  WriteData: 44556677 
# Status: Burst-No:           4  Write Address: 01f05663  WriteData: 55667788 
# READ STATUS: Burst-No:           0 Addr: 01f05663 Rxd: 11223344
# READ STATUS: Burst-No:           1 Addr: 01f05665 Rxd: 22334455
# READ STATUS: Burst-No:           2 Addr: 01f05667 Rxd: 33445566
# READ STATUS: Burst-No:           3 Addr: 01f05669 Rxd: 44556677
# READ STATUS: Burst-No:           4 Addr: 01f0566b Rxd: 55667788
# Write Address: 06b97b0d, Burst Size:           5
# Status: Burst-No:           0  Write Address: 06b97b0d  WriteData: 11223344 
# Status: Burst-No:           1  Write Address: 06b97b0d  WriteData: 22334455 
# Status: Burst-No:           2  Write Address: 06b97b0d  WriteData: 33445566 
# Status: Burst-No:           3  Write Address: 06b97b0d  WriteData: 44556677 
# Status: Burst-No:           4  Write Address: 06b97b0d  WriteData: 55667788 
# READ STATUS: Burst-No:           0 Addr: 06b97b0d Rxd: 11223344
# READ STATUS: Burst-No:           1 Addr: 06b97b0f Rxd: 22334455
# READ STATUS: Burst-No:           2 Addr: 06b97b11 Rxd: 33445566
# READ STATUS: Burst-No:           3 Addr: 06b97b13 Rxd: 44556677
# READ STATUS: Burst-No:           4 Addr: 06b97b15 Rxd: 55667788
# Write Address: 06df998d, Burst Size:           5
# Status: Burst-No:           0  Write Address: 06df998d  WriteData: 11223344 
# Status: Burst-No:           1  Write Address: 06df998d  WriteData: 22334455 
# Status: Burst-No:           2  Write Address: 06df998d  WriteData: 33445566 
# Status: Burst-No:           3  Write Address: 06df998d  WriteData: 44556677 
# Status: Burst-No:           4  Write Address: 06df998d  WriteData: 55667788 
# READ STATUS: Burst-No:           0 Addr: 06df998d Rxd: 11223344
# READ STATUS: Burst-No:           1 Addr: 06df998f Rxd: 22334455
# READ STATUS: Burst-No:           2 Addr: 06df9991 Rxd: 33445566
# READ STATUS: Burst-No:           3 Addr: 06df9993 Rxd: 44556677
# READ STATUS: Burst-No:           4 Addr: 06df9995 Rxd: 55667788
# Write Address: 02c28465, Burst Size:           5
# Status: Burst-No:           0  Write Address: 02c28465  WriteData: 11223344 
# Status: Burst-No:           1  Write Address: 02c28465  WriteData: 22334455 
# Status: Burst-No:           2  Write Address: 02c28465  WriteData: 33445566 
# Status: Burst-No:           3  Write Address: 02c28465  WriteData: 44556677 
# Status: Burst-No:           4  Write Address: 02c28465  WriteData: 55667788 
# READ STATUS: Burst-No:           0 Addr: 02c28465 Rxd: 11223344
# READ STATUS: Burst-No:           1 Addr: 02c28467 Rxd: 22334455
# READ STATUS: Burst-No:           2 Addr: 02c28469 Rxd: 33445566
# READ STATUS: Burst-No:           3 Addr: 02c2846b Rxd: 44556677
# READ STATUS: Burst-No:           4 Addr: 02c2846d Rxd: 55667788
# Write Address: 01375212, Burst Size:           5
# Status: Burst-No:           0  Write Address: 01375212  WriteData: 11223344 
# Status: Burst-No:           1  Write Address: 01375212  WriteData: 22334455 
# Status: Burst-No:           2  Write Address: 01375212  WriteData: 33445566 
# Status: Burst-No:           3  Write Address: 01375212  WriteData: 44556677 
# Status: Burst-No:           4  Write Address: 01375212  WriteData: 55667788 
# READ STATUS: Burst-No:           0 Addr: 01375212 Rxd: 11223344
# READ STATUS: Burst-No:           1 Addr: 01375214 Rxd: 22334455
# READ STATUS: Burst-No:           2 Addr: 01375216 Rxd: 33445566
# READ STATUS: Burst-No:           3 Addr: 01375218 Rxd: 44556677
# READ STATUS: Burst-No:           4 Addr: 0137521a Rxd: 55667788
# Write Address: 00f3e301, Burst Size:           5
# Status: Burst-No:           0  Write Address: 00f3e301  WriteData: 11223344 
# Status: Burst-No:           1  Write Address: 00f3e301  WriteData: 22334455 
# Status: Burst-No:           2  Write Address: 00f3e301  WriteData: 33445566 
# Status: Burst-No:           3  Write Address: 00f3e301  WriteData: 44556677 
# Status: Burst-No:           4  Write Address: 00f3e301  WriteData: 55667788 
# READ STATUS: Burst-No:           0 Addr: 00f3e301 Rxd: 11223344
# READ STATUS: Burst-No:           1 Addr: 00f3e303 Rxd: 22334455
# READ STATUS: Burst-No:           2 Addr: 00f3e305 Rxd: 33445566
# READ STATUS: Burst-No:           3 Addr: 00f3e307 Rxd: 44556677
# READ STATUS: Burst-No:           4 Addr: 00f3e309 Rxd: 55667788
# Write Address: 06d7cd0d, Burst Size:           5
# Status: Burst-No:           0  Write Address: 06d7cd0d  WriteData: 11223344 
# Status: Burst-No:           1  Write Address: 06d7cd0d  WriteData: 22334455 
# Status: Burst-No:           2  Write Address: 06d7cd0d  WriteData: 33445566 
# Status: Burst-No:           3  Write Address: 06d7cd0d  WriteData: 44556677 
# Status: Burst-No:           4  Write Address: 06d7cd0d  WriteData: 55667788 
# READ STATUS: Burst-No:           0 Addr: 06d7cd0d Rxd: 11223344
# READ STATUS: Burst-No:           1 Addr: 06d7cd0f Rxd: 22334455
# READ STATUS: Burst-No:           2 Addr: 06d7cd11 Rxd: 33445566
# READ STATUS: Burst-No:           3 Addr: 06d7cd13 Rxd: 44556677
# READ STATUS: Burst-No:           4 Addr: 06d7cd15 Rxd: 55667788
# Write Address: 0323f176, Burst Size:           5
# Status: Burst-No:           0  Write Address: 0323f176  WriteData: 11223344 
# Status: Burst-No:           1  Write Address: 0323f176  WriteData: 22334455 
# Status: Burst-No:           2  Write Address: 0323f176  WriteData: 33445566 
# Status: Burst-No:           3  Write Address: 0323f176  WriteData: 44556677 
# Status: Burst-No:           4  Write Address: 0323f176  WriteData: 55667788 
# READ STATUS: Burst-No:           0 Addr: 0323f176 Rxd: 11223344
# READ STATUS: Burst-No:           1 Addr: 0323f178 Rxd: 22334455
# READ STATUS: Burst-No:           2 Addr: 0323f17a Rxd: 33445566
# READ STATUS: Burst-No:           3 Addr: 0323f17c Rxd: 44556677
# READ STATUS: Burst-No:           4 Addr: 0323f17e Rxd: 55667788
# Write Address: 068dcd3d, Burst Size:           5
# Status: Burst-No:           0  Write Address: 068dcd3d  WriteData: 11223344 
# Status: Burst-No:           1  Write Address: 068dcd3d  WriteData: 22334455 
# Status: Burst-No:           2  Write Address: 068dcd3d  WriteData: 33445566 
# Status: Burst-No:           3  Write Address: 068dcd3d  WriteData: 44556677 
# Status: Burst-No:           4  Write Address: 068dcd3d  WriteData: 55667788 
# READ STATUS: Burst-No:           0 Addr: 068dcd3d Rxd: 11223344
# READ STATUS: Burst-No:           1 Addr: 068dcd3f Rxd: 22334455
# READ STATUS: Burst-No:           2 Addr: 068dcd41 Rxd: 33445566
# READ STATUS: Burst-No:           3 Addr: 068dcd43 Rxd: 44556677
# READ STATUS: Burst-No:           4 Addr: 068dcd45 Rxd: 55667788
# Write Address: 06d457ed, Burst Size:           5
# Status: Burst-No:           0  Write Address: 06d457ed  WriteData: 11223344 
# Status: Burst-No:           1  Write Address: 06d457ed  WriteData: 22334455 
# Status: Burst-No:           2  Write Address: 06d457ed  WriteData: 33445566 
# Status: Burst-No:           3  Write Address: 06d457ed  WriteData: 44556677 
# Status: Burst-No:           4  Write Address: 06d457ed  WriteData: 55667788 
# READ STATUS: Burst-No:           0 Addr: 06d457ed Rxd: 11223344
# READ STATUS: Burst-No:           1 Addr: 06d457ef Rxd: 22334455
# READ STATUS: Burst-No:           2 Addr: 06d457f1 Rxd: 33445566
# READ STATUS: Burst-No:           3 Addr: 06d457f3 Rxd: 44556677
# READ STATUS: Burst-No:           4 Addr: 06d457f5 Rxd: 55667788
# Write Address: 062df78c, Burst Size:           5
# Status: Burst-No:           0  Write Address: 062df78c  WriteData: 11223344 
# Status: Burst-No:           1  Write Address: 062df78c  WriteData: 22334455 
# Status: Burst-No:           2  Write Address: 062df78c  WriteData: 33445566 
# Status: Burst-No:           3  Write Address: 062df78c  WriteData: 44556677 
# Status: Burst-No:           4  Write Address: 062df78c  WriteData: 55667788 
# READ STATUS: Burst-No:           0 Addr: 062df78c Rxd: 11223344
# READ STATUS: Burst-No:           1 Addr: 062df78e Rxd: 22334455
# READ STATUS: Burst-No:           2 Addr: 062df790 Rxd: 33445566
# READ STATUS: Burst-No:           3 Addr: 062df792 Rxd: 44556677
# READ STATUS: Burst-No:           4 Addr: 062df794 Rxd: 55667788
# Write Address: 04fde9f9, Burst Size:           5
# Status: Burst-No:           0  Write Address: 04fde9f9  WriteData: 11223344 
# Status: Burst-No:           1  Write Address: 04fde9f9  WriteData: 22334455 
# Status: Burst-No:           2  Write Address: 04fde9f9  WriteData: 33445566 
# Status: Burst-No:           3  Write Address: 04fde9f9  WriteData: 44556677 
# Status: Burst-No:           4  Write Address: 04fde9f9  WriteData: 55667788 
# READ STATUS: Burst-No:           0 Addr: 04fde9f9 Rxd: 11223344
# READ STATUS: Burst-No:           1 Addr: 04fde9fb Rxd: 22334455
# READ STATUS: Burst-No:           2 Addr: 04fde9fd Rxd: 33445566
# READ STATUS: Burst-No:           3 Addr: 04fde9ff Rxd: 44556677
# READ STATUS: Burst-No:           4 Addr: 04fdea01 Rxd: 55667788
# Write Address: 033724c6, Burst Size:           5
# Status: Burst-No:           0  Write Address: 033724c6  WriteData: 11223344 
# Status: Burst-No:           1  Write Address: 033724c6  WriteData: 22334455 
# Status: Burst-No:           2  Write Address: 033724c6  WriteData: 33445566 
# Status: Burst-No:           3  Write Address: 033724c6  WriteData: 44556677 
# Status: Burst-No:           4  Write Address: 033724c6  WriteData: 55667788 
# READ STATUS: Burst-No:           0 Addr: 033724c6 Rxd: 11223344
# READ STATUS: Burst-No:           1 Addr: 033724c8 Rxd: 22334455
# READ STATUS: Burst-No:           2 Addr: 033724ca Rxd: 33445566
# READ STATUS: Burst-No:           3 Addr: 033724cc Rxd: 44556677
# READ STATUS: Burst-No:           4 Addr: 033724ce Rxd: 55667788
# Write Address: 02f784c5, Burst Size:           5
# Status: Burst-No:           0  Write Address: 02f784c5  WriteData: 11223344 
# Status: Burst-No:           1  Write Address: 02f784c5  WriteData: 22334455 
# Status: Burst-No:           2  Write Address: 02f784c5  WriteData: 33445566 
# Status: Burst-No:           3  Write Address: 02f784c5  WriteData: 44556677 
# Status: Burst-No:           4  Write Address: 02f784c5  WriteData: 55667788 
# READ STATUS: Burst-No:           0 Addr: 02f784c5 Rxd: 11223344
# READ STATUS: Burst-No:           1 Addr: 02f784c7 Rxd: 22334455
# READ STATUS: Burst-No:           2 Addr: 02f784c9 Rxd: 33445566
# READ STATUS: Burst-No:           3 Addr: 02f784cb Rxd: 44556677
# READ STATUS: Burst-No:           4 Addr: 02f784cd Rxd: 55667788
# Write Address: 0513d2aa, Burst Size:           5
# Status: Burst-No:           0  Write Address: 0513d2aa  WriteData: 11223344 
# Status: Burst-No:           1  Write Address: 0513d2aa  WriteData: 22334455 
# Status: Burst-No:           2  Write Address: 0513d2aa  WriteData: 33445566 
# Status: Burst-No:           3  Write Address: 0513d2aa  WriteData: 44556677 
# Status: Burst-No:           4  Write Address: 0513d2aa  WriteData: 55667788 
# READ STATUS: Burst-No:           0 Addr: 0513d2aa Rxd: 11223344
# READ STATUS: Burst-No:           1 Addr: 0513d2ac Rxd: 22334455
# READ STATUS: Burst-No:           2 Addr: 0513d2ae Rxd: 33445566
# READ STATUS: Burst-No:           3 Addr: 0513d2b0 Rxd: 44556677
# READ STATUS: Burst-No:           4 Addr: 0513d2b2 Rxd: 55667788
# Write Address: 02aff7e5, Burst Size:           5
# Status: Burst-No:           0  Write Address: 02aff7e5  WriteData: 11223344 
# Status: Burst-No:           1  Write Address: 02aff7e5  WriteData: 22334455 
# Status: Burst-No:           2  Write Address: 02aff7e5  WriteData: 33445566 
# Status: Burst-No:           3  Write Address: 02aff7e5  WriteData: 44556677 
# Status: Burst-No:           4  Write Address: 02aff7e5  WriteData: 55667788 
# READ STATUS: Burst-No:           0 Addr: 02aff7e5 Rxd: 11223344
# READ STATUS: Burst-No:           1 Addr: 02aff7e7 Rxd: 22334455
# READ STATUS: Burst-No:           2 Addr: 02aff7e9 Rxd: 33445566
# READ STATUS: Burst-No:           3 Addr: 02aff7eb Rxd: 44556677
# READ STATUS: Burst-No:           4 Addr: 02aff7ed Rxd: 55667788
# Write Address: 03d27277, Burst Size:           5
# Status: Burst-No:           0  Write Address: 03d27277  WriteData: 11223344 
# Status: Burst-No:           1  Write Address: 03d27277  WriteData: 22334455 
# Status: Burst-No:           2  Write Address: 03d27277  WriteData: 33445566 
# Status: Burst-No:           3  Write Address: 03d27277  WriteData: 44556677 
# Status: Burst-No:           4  Write Address: 03d27277  WriteData: 55667788 
# READ STATUS: Burst-No:           0 Addr: 03d27277 Rxd: 11223344
# READ STATUS: Burst-No:           1 Addr: 03d27279 Rxd: 22334455
# READ STATUS: Burst-No:           2 Addr: 03d2727b Rxd: 33445566
# READ STATUS: Burst-No:           3 Addr: 03d2727d Rxd: 44556677
# READ STATUS: Burst-No:           4 Addr: 03d2727f Rxd: 55667788
###############################
# STATUS: SDRAM Write/Read TEST PASSED
###############################
# ** Note: $finish    : ../tb/tb.sv(297)
#    Time: 57460 ns  Iteration: 0  Instance: /tb_top
