verif/log/top_sdr8_sim.log
 Compiling with MODELSIM in top SDR_8BIT Mode 
Model Technology ModelSim ACTEL vlog 6.6d Compiler 2010.11 Nov  2 2010
-- Compiling module tb_top
-- Compiling module IS42VM16400K
-- Compiling module mt48lc2m32b2
-- Compiling module mt48lc8m8a2
-- Compiling module sdrc_top
-- Compiling module wb2sdrc
-- Compiling module async_fifo
-- Compiling module sdrc_core
-- Compiling module sdrc_bank_ctl
-- Compiling module sdrc_bank_fsm
-- Compiling module sdrc_bs_convert
-- Compiling module sdrc_req_gen
-- Compiling module sdrc_xfr_ctl

Top level modules:
	tb_top
	IS42VM16400K
	mt48lc2m32b2
#### Compile : PASSED

###########################################
 Runing GMAC/SPI/UART test programs 
###########################################
###########################################
### Running test 1: basic_test1
Reading D:/Actel/Libero_v9.1/Model/tcl/vsim/pref.tcl 

# 6.6d

# vsim +basic_test1 -do run.do -c tb_top 
# //  ModelSim ACTEL 6.6d Nov  2 2010 
# //
# //  Copyright 1991-2010 Mentor Graphics Corporation
# //              All Rights Reserved.
# //
# //  THIS WORK CONTAINS TRADE SECRET AND 
# //  PROPRIETARY INFORMATION WHICH IS THE PROPERTY
# //  OF MENTOR GRAPHICS CORPORATION OR ITS LICENSORS
# //  AND IS SUBJECT TO LICENSE TERMS.
# //
# Loading sv_std.std
# Loading work.tb_top
# Loading work.sdrc_top
# Loading work.wb2sdrc
# Loading work.async_fifo
# Loading work.sdrc_core
# Loading work.sdrc_req_gen
# Loading work.sdrc_bank_ctl
# Loading work.sdrc_bank_fsm
# Loading work.sdrc_xfr_ctl
# Loading work.sdrc_bs_convert
# Loading work.mt48lc8m8a2
# do run.do 
# at time     10132 ns PRE  : Bank = ALL
# at time     10212 ns AREF : Auto Refresh
# at time     10392 ns AREF : Auto Refresh
# at time     10572 ns AREF : Auto Refresh
# at time     10752 ns AREF : Auto Refresh
# at time     10932 ns AREF : Auto Refresh
# at time     11112 ns AREF : Auto Refresh
# at time     11292 ns AREF : Auto Refresh
# at time     11472 ns AREF : Auto Refresh
# at time     11652 ns AREF : Auto Refresh
# at time     11832 ns AREF : Auto Refresh
# at time     12012 ns AREF : Auto Refresh
# at time     12192 ns AREF : Auto Refresh
# at time     12372 ns AREF : Auto Refresh
# at time     12552 ns AREF : Auto Refresh
# at time     12732 ns AREF : Auto Refresh
# at time     12912 ns LMR  : Load Mode Register
#                             CAS Latency      = 3
#                             Burst Length     = 8
#                             Burst Type       = Sequential
#                             Write Burst Mode = Programmed Burst Length
# Write Address: 00040000, Burst Size:           5
# Status: Burst-No:           0  Write Address: 00010000  WriteData: 11223344 
# Status: Burst-No:           1  Write Address: 00010001  WriteData: 22334455 
# Status: Burst-No:           2  Write Address: 00010002  WriteData: 33445566 
# Status: Burst-No:           3  Write Address: 00010003  WriteData: 44556677 
# at time     14172 ns PRE  : Bank = 0
# Status: Burst-No:           4  Write Address: 00010004  WriteData: 55667788 
# at time     14232 ns ACT  : Bank = 0 Row =  256
# at time     14292 ns WRITE: Bank = 0 Row =  256, Col =   0, Data = 44, Dqm = 0
# at time     14312 ns WRITE: Bank = 0 Row =  256, Col =   1, Data = 33, Dqm = 0
# at time     14332 ns WRITE: Bank = 0 Row =  256, Col =   2, Data = 22, Dqm = 0
# at time     14352 ns WRITE: Bank = 0 Row =  256, Col =   3, Data = 11, Dqm = 0
# at time     14372 ns BST  : Burst Terminate
# at time     14392 ns WRITE: Bank = 0 Row =  256, Col =   4, Data = 55, Dqm = 0
# at time     14412 ns WRITE: Bank = 0 Row =  256, Col =   5, Data = 44, Dqm = 0
# at time     14432 ns WRITE: Bank = 0 Row =  256, Col =   6, Data = 33, Dqm = 0
# at time     14452 ns WRITE: Bank = 0 Row =  256, Col =   7, Data = 22, Dqm = 0
# at time     14472 ns BST  : Burst Terminate
# at time     14492 ns WRITE: Bank = 0 Row =  256, Col =   8, Data = 66, Dqm = 0
# at time     14512 ns WRITE: Bank = 0 Row =  256, Col =   9, Data = 55, Dqm = 0
# at time     14532 ns WRITE: Bank = 0 Row =  256, Col =  10, Data = 44, Dqm = 0
# at time     14552 ns WRITE: Bank = 0 Row =  256, Col =  11, Data = 33, Dqm = 0
# at time     14572 ns BST  : Burst Terminate
# at time     14592 ns WRITE: Bank = 0 Row =  256, Col =  12, Data = 77, Dqm = 0
# at time     14612 ns WRITE: Bank = 0 Row =  256, Col =  13, Data = 66, Dqm = 0
# at time     14632 ns WRITE: Bank = 0 Row =  256, Col =  14, Data = 55, Dqm = 0
# at time     14652 ns WRITE: Bank = 0 Row =  256, Col =  15, Data = 44, Dqm = 0
# at time     14672 ns BST  : Burst Terminate
# at time     14692 ns WRITE: Bank = 0 Row =  256, Col =  16, Data = 88, Dqm = 0
# at time     14712 ns WRITE: Bank = 0 Row =  256, Col =  17, Data = 77, Dqm = 0
# at time     14732 ns WRITE: Bank = 0 Row =  256, Col =  18, Data = 66, Dqm = 0
# at time     14752 ns WRITE: Bank = 0 Row =  256, Col =  19, Data = 55, Dqm = 0
# at time     14772 ns BST  : Burst Terminate
# at time     15298 ns READ : Bank = 0 Row =  256, Col =   0, Data = 44, Dqm = 0
# at time     15318 ns READ : Bank = 0 Row =  256, Col =   1, Data = 33, Dqm = 0
# at time     15332 ns BST  : Burst Terminate
# at time     15338 ns READ : Bank = 0 Row =  256, Col =   2, Data = 22, Dqm = 0
# at time     15358 ns READ : Bank = 0 Row =  256, Col =   3, Data = 11, Dqm = 0
# READ STATUS: Burst-No:           0 Addr: 00010000 Rxd: 11223344
# at time     15558 ns READ : Bank = 0 Row =  256, Col =   4, Data = 55, Dqm = 0
# at time     15578 ns READ : Bank = 0 Row =  256, Col =   5, Data = 44, Dqm = 0
# at time     15592 ns BST  : Burst Terminate
# at time     15598 ns READ : Bank = 0 Row =  256, Col =   6, Data = 33, Dqm = 0
# at time     15618 ns READ : Bank = 0 Row =  256, Col =   7, Data = 22, Dqm = 0
# READ STATUS: Burst-No:           1 Addr: 00010001 Rxd: 22334455
# at time     15818 ns READ : Bank = 0 Row =  256, Col =   8, Data = 66, Dqm = 0
# at time     15838 ns READ : Bank = 0 Row =  256, Col =   9, Data = 55, Dqm = 0
# at time     15852 ns BST  : Burst Terminate
# at time     15858 ns READ : Bank = 0 Row =  256, Col =  10, Data = 44, Dqm = 0
# at time     15878 ns READ : Bank = 0 Row =  256, Col =  11, Data = 33, Dqm = 0
# READ STATUS: Burst-No:           2 Addr: 00010002 Rxd: 33445566
# at time     16078 ns READ : Bank = 0 Row =  256, Col =  12, Data = 77, Dqm = 0
# at time     16098 ns READ : Bank = 0 Row =  256, Col =  13, Data = 66, Dqm = 0
# at time     16112 ns BST  : Burst Terminate
# at time     16118 ns READ : Bank = 0 Row =  256, Col =  14, Data = 55, Dqm = 0
# at time     16138 ns READ : Bank = 0 Row =  256, Col =  15, Data = 44, Dqm = 0
# READ STATUS: Burst-No:           3 Addr: 00010003 Rxd: 44556677
# at time     16338 ns READ : Bank = 0 Row =  256, Col =  16, Data = 88, Dqm = 0
# at time     16358 ns READ : Bank = 0 Row =  256, Col =  17, Data = 77, Dqm = 0
# at time     16372 ns BST  : Burst Terminate
# at time     16378 ns READ : Bank = 0 Row =  256, Col =  18, Data = 66, Dqm = 0
# at time     16398 ns READ : Bank = 0 Row =  256, Col =  19, Data = 55, Dqm = 0
# READ STATUS: Burst-No:           4 Addr: 00010004 Rxd: 55667788
# Write Address: 70000000, Burst Size:           5
# Status: Burst-No:           0  Write Address: 1c000000  WriteData: 11223344 
# Status: Burst-No:           1  Write Address: 1c000001  WriteData: 22334455 
# Status: Burst-No:           2  Write Address: 1c000002  WriteData: 33445566 
# Status: Burst-No:           3  Write Address: 1c000003  WriteData: 44556677 
# at time     17552 ns PRE  : Bank = 0
# Status: Burst-No:           4  Write Address: 1c000004  WriteData: 55667788 
# at time     17612 ns ACT  : Bank = 0 Row =    0
# at time     17672 ns WRITE: Bank = 0 Row =    0, Col =   0, Data = 44, Dqm = 0
# at time     17692 ns WRITE: Bank = 0 Row =    0, Col =   1, Data = 33, Dqm = 0
# at time     17712 ns WRITE: Bank = 0 Row =    0, Col =   2, Data = 22, Dqm = 0
# at time     17732 ns WRITE: Bank = 0 Row =    0, Col =   3, Data = 11, Dqm = 0
# at time     17752 ns BST  : Burst Terminate
# at time     17772 ns WRITE: Bank = 0 Row =    0, Col =   4, Data = 55, Dqm = 0
# at time     17792 ns WRITE: Bank = 0 Row =    0, Col =   5, Data = 44, Dqm = 0
# at time     17812 ns WRITE: Bank = 0 Row =    0, Col =   6, Data = 33, Dqm = 0
# at time     17832 ns WRITE: Bank = 0 Row =    0, Col =   7, Data = 22, Dqm = 0
# at time     17852 ns BST  : Burst Terminate
# at time     17872 ns WRITE: Bank = 0 Row =    0, Col =   8, Data = 66, Dqm = 0
# at time     17892 ns WRITE: Bank = 0 Row =    0, Col =   9, Data = 55, Dqm = 0
# at time     17912 ns WRITE: Bank = 0 Row =    0, Col =  10, Data = 44, Dqm = 0
# at time     17932 ns WRITE: Bank = 0 Row =    0, Col =  11, Data = 33, Dqm = 0
# at time     17952 ns BST  : Burst Terminate
# at time     17972 ns WRITE: Bank = 0 Row =    0, Col =  12, Data = 77, Dqm = 0
# at time     17992 ns WRITE: Bank = 0 Row =    0, Col =  13, Data = 66, Dqm = 0
# at time     18012 ns WRITE: Bank = 0 Row =    0, Col =  14, Data = 55, Dqm = 0
# at time     18032 ns WRITE: Bank = 0 Row =    0, Col =  15, Data = 44, Dqm = 0
# at time     18052 ns BST  : Burst Terminate
# at time     18072 ns WRITE: Bank = 0 Row =    0, Col =  16, Data = 88, Dqm = 0
# at time     18092 ns WRITE: Bank = 0 Row =    0, Col =  17, Data = 77, Dqm = 0
# at time     18112 ns WRITE: Bank = 0 Row =    0, Col =  18, Data = 66, Dqm = 0
# at time     18132 ns WRITE: Bank = 0 Row =    0, Col =  19, Data = 55, Dqm = 0
# at time     18152 ns BST  : Burst Terminate
# at time     18678 ns READ : Bank = 0 Row =    0, Col =   0, Data = 44, Dqm = 0
# at time     18698 ns READ : Bank = 0 Row =    0, Col =   1, Data = 33, Dqm = 0
# at time     18712 ns BST  : Burst Terminate
# at time     18718 ns READ : Bank = 0 Row =    0, Col =   2, Data = 22, Dqm = 0
# at time     18738 ns READ : Bank = 0 Row =    0, Col =   3, Data = 11, Dqm = 0
# READ STATUS: Burst-No:           0 Addr: 1c000000 Rxd: 11223344
# at time     18938 ns READ : Bank = 0 Row =    0, Col =   4, Data = 55, Dqm = 0
# at time     18958 ns READ : Bank = 0 Row =    0, Col =   5, Data = 44, Dqm = 0
# at time     18972 ns BST  : Burst Terminate
# at time     18978 ns READ : Bank = 0 Row =    0, Col =   6, Data = 33, Dqm = 0
# at time     18998 ns READ : Bank = 0 Row =    0, Col =   7, Data = 22, Dqm = 0
# READ STATUS: Burst-No:           1 Addr: 1c000001 Rxd: 22334455
# at time     19198 ns READ : Bank = 0 Row =    0, Col =   8, Data = 66, Dqm = 0
# at time     19218 ns READ : Bank = 0 Row =    0, Col =   9, Data = 55, Dqm = 0
# at time     19232 ns BST  : Burst Terminate
# at time     19238 ns READ : Bank = 0 Row =    0, Col =  10, Data = 44, Dqm = 0
# at time     19258 ns READ : Bank = 0 Row =    0, Col =  11, Data = 33, Dqm = 0
# READ STATUS: Burst-No:           2 Addr: 1c000002 Rxd: 33445566
# at time     19458 ns READ : Bank = 0 Row =    0, Col =  12, Data = 77, Dqm = 0
# at time     19478 ns READ : Bank = 0 Row =    0, Col =  13, Data = 66, Dqm = 0
# at time     19492 ns BST  : Burst Terminate
# at time     19498 ns READ : Bank = 0 Row =    0, Col =  14, Data = 55, Dqm = 0
# at time     19518 ns READ : Bank = 0 Row =    0, Col =  15, Data = 44, Dqm = 0
# READ STATUS: Burst-No:           3 Addr: 1c000003 Rxd: 44556677
# at time     19718 ns READ : Bank = 0 Row =    0, Col =  16, Data = 88, Dqm = 0
# at time     19738 ns READ : Bank = 0 Row =    0, Col =  17, Data = 77, Dqm = 0
# at time     19752 ns BST  : Burst Terminate
# at time     19758 ns READ : Bank = 0 Row =    0, Col =  18, Data = 66, Dqm = 0
# at time     19778 ns READ : Bank = 0 Row =    0, Col =  19, Data = 55, Dqm = 0
# READ STATUS: Burst-No:           4 Addr: 1c000004 Rxd: 55667788
# Write Address: 02153524, Burst Size:           5
# Status: Burst-No:           0  Write Address: 00854d49  WriteData: 11223344 
# Status: Burst-No:           1  Write Address: 00854d4a  WriteData: 22334455 
# Status: Burst-No:           2  Write Address: 00854d4b  WriteData: 33445566 
# Status: Burst-No:           3  Write Address: 00854d4c  WriteData: 44556677 
# at time     19952 ns PRE  : Bank = 1
# Status: Burst-No:           4  Write Address: 00854d4d  WriteData: 55667788 
# at time     20012 ns ACT  : Bank = 1 Row = 1357
# at time     20072 ns WRITE: Bank = 1 Row = 1357, Col =  36, Data = 44, Dqm = 0
# at time     20092 ns WRITE: Bank = 1 Row = 1357, Col =  37, Data = 33, Dqm = 0
# at time     20112 ns WRITE: Bank = 1 Row = 1357, Col =  38, Data = 22, Dqm = 0
# at time     20132 ns WRITE: Bank = 1 Row = 1357, Col =  39, Data = 11, Dqm = 0
# at time     20152 ns BST  : Burst Terminate
# at time     20172 ns WRITE: Bank = 1 Row = 1357, Col =  40, Data = 55, Dqm = 0
# at time     20192 ns WRITE: Bank = 1 Row = 1357, Col =  41, Data = 44, Dqm = 0
# at time     20212 ns WRITE: Bank = 1 Row = 1357, Col =  42, Data = 33, Dqm = 0
# at time     20232 ns WRITE: Bank = 1 Row = 1357, Col =  43, Data = 22, Dqm = 0
# at time     20252 ns BST  : Burst Terminate
# at time     20272 ns WRITE: Bank = 1 Row = 1357, Col =  44, Data = 66, Dqm = 0
# at time     20292 ns WRITE: Bank = 1 Row = 1357, Col =  45, Data = 55, Dqm = 0
# at time     20312 ns WRITE: Bank = 1 Row = 1357, Col =  46, Data = 44, Dqm = 0
# at time     20332 ns WRITE: Bank = 1 Row = 1357, Col =  47, Data = 33, Dqm = 0
# at time     20352 ns BST  : Burst Terminate
# at time     20372 ns WRITE: Bank = 1 Row = 1357, Col =  48, Data = 77, Dqm = 0
# at time     20392 ns WRITE: Bank = 1 Row = 1357, Col =  49, Data = 66, Dqm = 0
# at time     20412 ns WRITE: Bank = 1 Row = 1357, Col =  50, Data = 55, Dqm = 0
# at time     20432 ns WRITE: Bank = 1 Row = 1357, Col =  51, Data = 44, Dqm = 0
# at time     20452 ns BST  : Burst Terminate
# at time     20472 ns WRITE: Bank = 1 Row = 1357, Col =  52, Data = 88, Dqm = 0
# at time     20492 ns WRITE: Bank = 1 Row = 1357, Col =  53, Data = 77, Dqm = 0
# at time     20512 ns WRITE: Bank = 1 Row = 1357, Col =  54, Data = 66, Dqm = 0
# at time     20532 ns WRITE: Bank = 1 Row = 1357, Col =  55, Data = 55, Dqm = 0
# at time     20552 ns BST  : Burst Terminate
# at time     21078 ns READ : Bank = 1 Row = 1357, Col =  36, Data = 44, Dqm = 0
# at time     21098 ns READ : Bank = 1 Row = 1357, Col =  37, Data = 33, Dqm = 0
# at time     21112 ns BST  : Burst Terminate
# at time     21118 ns READ : Bank = 1 Row = 1357, Col =  38, Data = 22, Dqm = 0
# at time     21138 ns READ : Bank = 1 Row = 1357, Col =  39, Data = 11, Dqm = 0
# READ STATUS: Burst-No:           0 Addr: 00854d49 Rxd: 11223344
# at time     21338 ns READ : Bank = 1 Row = 1357, Col =  40, Data = 55, Dqm = 0
# at time     21358 ns READ : Bank = 1 Row = 1357, Col =  41, Data = 44, Dqm = 0
# at time     21372 ns BST  : Burst Terminate
# at time     21378 ns READ : Bank = 1 Row = 1357, Col =  42, Data = 33, Dqm = 0
# at time     21398 ns READ : Bank = 1 Row = 1357, Col =  43, Data = 22, Dqm = 0
# READ STATUS: Burst-No:           1 Addr: 00854d4a Rxd: 22334455
# at time     21598 ns READ : Bank = 1 Row = 1357, Col =  44, Data = 66, Dqm = 0
# at time     21618 ns READ : Bank = 1 Row = 1357, Col =  45, Data = 55, Dqm = 0
# at time     21632 ns BST  : Burst Terminate
# at time     21638 ns READ : Bank = 1 Row = 1357, Col =  46, Data = 44, Dqm = 0
# at time     21658 ns READ : Bank = 1 Row = 1357, Col =  47, Data = 33, Dqm = 0
# READ STATUS: Burst-No:           2 Addr: 00854d4b Rxd: 33445566
# at time     21858 ns READ : Bank = 1 Row = 1357, Col =  48, Data = 77, Dqm = 0
# at time     21878 ns READ : Bank = 1 Row = 1357, Col =  49, Data = 66, Dqm = 0
# at time     21892 ns BST  : Burst Terminate
# at time     21898 ns READ : Bank = 1 Row = 1357, Col =  50, Data = 55, Dqm = 0
# at time     21918 ns READ : Bank = 1 Row = 1357, Col =  51, Data = 44, Dqm = 0
# READ STATUS: Burst-No:           3 Addr: 00854d4c Rxd: 44556677
# at time     22118 ns READ : Bank = 1 Row = 1357, Col =  52, Data = 88, Dqm = 0
# at time     22138 ns READ : Bank = 1 Row = 1357, Col =  53, Data = 77, Dqm = 0
# at time     22152 ns BST  : Burst Terminate
# at time     22158 ns READ : Bank = 1 Row = 1357, Col =  54, Data = 66, Dqm = 0
# at time     22178 ns READ : Bank = 1 Row = 1357, Col =  55, Data = 55, Dqm = 0
# READ STATUS: Burst-No:           4 Addr: 00854d4d Rxd: 55667788
# Write Address: 00895e81, Burst Size:           5
# Status: Burst-No:           0  Write Address: 002257a0  WriteData: 11223344 
# Status: Burst-No:           1  Write Address: 002257a1  WriteData: 22334455 
# Status: Burst-No:           2  Write Address: 002257a2  WriteData: 33445566 
# Status: Burst-No:           3  Write Address: 002257a3  WriteData: 44556677 
# at time     22352 ns PRE  : Bank = 2
# Status: Burst-No:           4  Write Address: 002257a4  WriteData: 55667788 
# at time     22412 ns ACT  : Bank = 2 Row =  599
# at time     22472 ns WRITE: Bank = 2 Row =  599, Col = 128, Data = 44, Dqm = 0
# at time     22492 ns WRITE: Bank = 2 Row =  599, Col = 129, Data = 33, Dqm = 0
# at time     22512 ns WRITE: Bank = 2 Row =  599, Col = 130, Data = 22, Dqm = 0
# at time     22532 ns WRITE: Bank = 2 Row =  599, Col = 131, Data = 11, Dqm = 0
# at time     22552 ns BST  : Burst Terminate
# at time     22572 ns WRITE: Bank = 2 Row =  599, Col = 132, Data = 55, Dqm = 0
# at time     22592 ns WRITE: Bank = 2 Row =  599, Col = 133, Data = 44, Dqm = 0
# at time     22612 ns WRITE: Bank = 2 Row =  599, Col = 134, Data = 33, Dqm = 0
# at time     22632 ns WRITE: Bank = 2 Row =  599, Col = 135, Data = 22, Dqm = 0
# at time     22652 ns BST  : Burst Terminate
# at time     22672 ns WRITE: Bank = 2 Row =  599, Col = 136, Data = 66, Dqm = 0
# at time     22692 ns WRITE: Bank = 2 Row =  599, Col = 137, Data = 55, Dqm = 0
# at time     22712 ns WRITE: Bank = 2 Row =  599, Col = 138, Data = 44, Dqm = 0
# at time     22732 ns WRITE: Bank = 2 Row =  599, Col = 139, Data = 33, Dqm = 0
# at time     22752 ns BST  : Burst Terminate
# at time     22772 ns WRITE: Bank = 2 Row =  599, Col = 140, Data = 77, Dqm = 0
# at time     22792 ns WRITE: Bank = 2 Row =  599, Col = 141, Data = 66, Dqm = 0
# at time     22812 ns WRITE: Bank = 2 Row =  599, Col = 142, Data = 55, Dqm = 0
# at time     22832 ns WRITE: Bank = 2 Row =  599, Col = 143, Data = 44, Dqm = 0
# at time     22852 ns BST  : Burst Terminate
# at time     22872 ns WRITE: Bank = 2 Row =  599, Col = 144, Data = 88, Dqm = 0
# at time     22892 ns WRITE: Bank = 2 Row =  599, Col = 145, Data = 77, Dqm = 0
# at time     22912 ns WRITE: Bank = 2 Row =  599, Col = 146, Data = 66, Dqm = 0
# at time     22932 ns WRITE: Bank = 2 Row =  599, Col = 147, Data = 55, Dqm = 0
# at time     22952 ns BST  : Burst Terminate
# at time     23478 ns READ : Bank = 2 Row =  599, Col = 128, Data = 44, Dqm = 0
# at time     23498 ns READ : Bank = 2 Row =  599, Col = 129, Data = 33, Dqm = 0
# at time     23512 ns BST  : Burst Terminate
# at time     23518 ns READ : Bank = 2 Row =  599, Col = 130, Data = 22, Dqm = 0
# at time     23538 ns READ : Bank = 2 Row =  599, Col = 131, Data = 11, Dqm = 0
# READ STATUS: Burst-No:           0 Addr: 002257a0 Rxd: 11223344
# at time     23738 ns READ : Bank = 2 Row =  599, Col = 132, Data = 55, Dqm = 0
# at time     23758 ns READ : Bank = 2 Row =  599, Col = 133, Data = 44, Dqm = 0
# at time     23772 ns BST  : Burst Terminate
# at time     23778 ns READ : Bank = 2 Row =  599, Col = 134, Data = 33, Dqm = 0
# at time     23798 ns READ : Bank = 2 Row =  599, Col = 135, Data = 22, Dqm = 0
# READ STATUS: Burst-No:           1 Addr: 002257a1 Rxd: 22334455
# at time     23998 ns READ : Bank = 2 Row =  599, Col = 136, Data = 66, Dqm = 0
# at time     24018 ns READ : Bank = 2 Row =  599, Col = 137, Data = 55, Dqm = 0
# at time     24032 ns BST  : Burst Terminate
# at time     24038 ns READ : Bank = 2 Row =  599, Col = 138, Data = 44, Dqm = 0
# at time     24058 ns READ : Bank = 2 Row =  599, Col = 139, Data = 33, Dqm = 0
# READ STATUS: Burst-No:           2 Addr: 002257a2 Rxd: 33445566
# at time     24258 ns READ : Bank = 2 Row =  599, Col = 140, Data = 77, Dqm = 0
# at time     24278 ns READ : Bank = 2 Row =  599, Col = 141, Data = 66, Dqm = 0
# at time     24292 ns BST  : Burst Terminate
# at time     24298 ns READ : Bank = 2 Row =  599, Col = 142, Data = 55, Dqm = 0
# at time     24318 ns READ : Bank = 2 Row =  599, Col = 143, Data = 44, Dqm = 0
# READ STATUS: Burst-No:           3 Addr: 002257a3 Rxd: 44556677
# at time     24518 ns READ : Bank = 2 Row =  599, Col = 144, Data = 88, Dqm = 0
# at time     24538 ns READ : Bank = 2 Row =  599, Col = 145, Data = 77, Dqm = 0
# at time     24552 ns BST  : Burst Terminate
# at time     24558 ns READ : Bank = 2 Row =  599, Col = 146, Data = 66, Dqm = 0
# at time     24578 ns READ : Bank = 2 Row =  599, Col = 147, Data = 55, Dqm = 0
# READ STATUS: Burst-No:           4 Addr: 002257a4 Rxd: 55667788
# Write Address: 0484d609, Burst Size:           5
# Status: Burst-No:           0  Write Address: 01213582  WriteData: 11223344 
# Status: Burst-No:           1  Write Address: 01213583  WriteData: 22334455 
# Status: Burst-No:           2  Write Address: 01213584  WriteData: 33445566 
# Status: Burst-No:           3  Write Address: 01213585  WriteData: 44556677 
# at time     24752 ns PRE  : Bank = 2
# Status: Burst-No:           4  Write Address: 01213586  WriteData: 55667788 
# at time     24812 ns ACT  : Bank = 2 Row =  309
# at time     24872 ns WRITE: Bank = 2 Row =  309, Col =   8, Data = 44, Dqm = 0
# at time     24892 ns WRITE: Bank = 2 Row =  309, Col =   9, Data = 33, Dqm = 0
# at time     24912 ns WRITE: Bank = 2 Row =  309, Col =  10, Data = 22, Dqm = 0
# at time     24932 ns WRITE: Bank = 2 Row =  309, Col =  11, Data = 11, Dqm = 0
# at time     24952 ns BST  : Burst Terminate
# at time     24972 ns WRITE: Bank = 2 Row =  309, Col =  12, Data = 55, Dqm = 0
# at time     24992 ns WRITE: Bank = 2 Row =  309, Col =  13, Data = 44, Dqm = 0
# at time     25012 ns WRITE: Bank = 2 Row =  309, Col =  14, Data = 33, Dqm = 0
# at time     25032 ns WRITE: Bank = 2 Row =  309, Col =  15, Data = 22, Dqm = 0
# at time     25052 ns BST  : Burst Terminate
# at time     25072 ns WRITE: Bank = 2 Row =  309, Col =  16, Data = 66, Dqm = 0
# at time     25092 ns WRITE: Bank = 2 Row =  309, Col =  17, Data = 55, Dqm = 0
# at time     25112 ns WRITE: Bank = 2 Row =  309, Col =  18, Data = 44, Dqm = 0
# at time     25132 ns WRITE: Bank = 2 Row =  309, Col =  19, Data = 33, Dqm = 0
# at time     25152 ns BST  : Burst Terminate
# at time     25172 ns WRITE: Bank = 2 Row =  309, Col =  20, Data = 77, Dqm = 0
# at time     25192 ns WRITE: Bank = 2 Row =  309, Col =  21, Data = 66, Dqm = 0
# at time     25212 ns WRITE: Bank = 2 Row =  309, Col =  22, Data = 55, Dqm = 0
# at time     25232 ns WRITE: Bank = 2 Row =  309, Col =  23, Data = 44, Dqm = 0
# at time     25252 ns BST  : Burst Terminate
# at time     25272 ns WRITE: Bank = 2 Row =  309, Col =  24, Data = 88, Dqm = 0
# at time     25292 ns WRITE: Bank = 2 Row =  309, Col =  25, Data = 77, Dqm = 0
# at time     25312 ns WRITE: Bank = 2 Row =  309, Col =  26, Data = 66, Dqm = 0
# at time     25332 ns WRITE: Bank = 2 Row =  309, Col =  27, Data = 55, Dqm = 0
# at time     25352 ns BST  : Burst Terminate
# at time     25878 ns READ : Bank = 2 Row =  309, Col =   8, Data = 44, Dqm = 0
# at time     25898 ns READ : Bank = 2 Row =  309, Col =   9, Data = 33, Dqm = 0
# at time     25912 ns BST  : Burst Terminate
# at time     25918 ns READ : Bank = 2 Row =  309, Col =  10, Data = 22, Dqm = 0
# at time     25938 ns READ : Bank = 2 Row =  309, Col =  11, Data = 11, Dqm = 0
# READ STATUS: Burst-No:           0 Addr: 01213582 Rxd: 11223344
# at time     26138 ns READ : Bank = 2 Row =  309, Col =  12, Data = 55, Dqm = 0
# at time     26158 ns READ : Bank = 2 Row =  309, Col =  13, Data = 44, Dqm = 0
# at time     26172 ns BST  : Burst Terminate
# at time     26178 ns READ : Bank = 2 Row =  309, Col =  14, Data = 33, Dqm = 0
# at time     26198 ns READ : Bank = 2 Row =  309, Col =  15, Data = 22, Dqm = 0
# READ STATUS: Burst-No:           1 Addr: 01213583 Rxd: 22334455
# at time     26398 ns READ : Bank = 2 Row =  309, Col =  16, Data = 66, Dqm = 0
# at time     26418 ns READ : Bank = 2 Row =  309, Col =  17, Data = 55, Dqm = 0
# at time     26432 ns BST  : Burst Terminate
# at time     26438 ns READ : Bank = 2 Row =  309, Col =  18, Data = 44, Dqm = 0
# at time     26458 ns READ : Bank = 2 Row =  309, Col =  19, Data = 33, Dqm = 0
# READ STATUS: Burst-No:           2 Addr: 01213584 Rxd: 33445566
# at time     26658 ns READ : Bank = 2 Row =  309, Col =  20, Data = 77, Dqm = 0
# at time     26678 ns READ : Bank = 2 Row =  309, Col =  21, Data = 66, Dqm = 0
# at time     26692 ns BST  : Burst Terminate
# at time     26698 ns READ : Bank = 2 Row =  309, Col =  22, Data = 55, Dqm = 0
# at time     26718 ns READ : Bank = 2 Row =  309, Col =  23, Data = 44, Dqm = 0
# READ STATUS: Burst-No:           3 Addr: 01213585 Rxd: 44556677
# at time     26918 ns READ : Bank = 2 Row =  309, Col =  24, Data = 88, Dqm = 0
# at time     26938 ns READ : Bank = 2 Row =  309, Col =  25, Data = 77, Dqm = 0
# at time     26952 ns BST  : Burst Terminate
# at time     26958 ns READ : Bank = 2 Row =  309, Col =  26, Data = 66, Dqm = 0
# at time     26978 ns READ : Bank = 2 Row =  309, Col =  27, Data = 55, Dqm = 0
# READ STATUS: Burst-No:           4 Addr: 01213586 Rxd: 55667788
# Write Address: 01f05663, Burst Size:           5
# Status: Burst-No:           0  Write Address: 007c1598  WriteData: 11223344 
# Status: Burst-No:           1  Write Address: 007c1599  WriteData: 22334455 
# Status: Burst-No:           2  Write Address: 007c159a  WriteData: 33445566 
# Status: Burst-No:           3  Write Address: 007c159b  WriteData: 44556677 
# at time     27152 ns PRE  : Bank = 2
# Status: Burst-No:           4  Write Address: 007c159c  WriteData: 55667788 
# at time     27212 ns ACT  : Bank = 2 Row = 3093
# at time     27272 ns WRITE: Bank = 2 Row = 3093, Col =  96, Data = 44, Dqm = 0
# at time     27292 ns WRITE: Bank = 2 Row = 3093, Col =  97, Data = 33, Dqm = 0
# at time     27312 ns WRITE: Bank = 2 Row = 3093, Col =  98, Data = 22, Dqm = 0
# at time     27332 ns WRITE: Bank = 2 Row = 3093, Col =  99, Data = 11, Dqm = 0
# at time     27352 ns BST  : Burst Terminate
# at time     27372 ns WRITE: Bank = 2 Row = 3093, Col = 100, Data = 55, Dqm = 0
# at time     27392 ns WRITE: Bank = 2 Row = 3093, Col = 101, Data = 44, Dqm = 0
# at time     27412 ns WRITE: Bank = 2 Row = 3093, Col = 102, Data = 33, Dqm = 0
# at time     27432 ns WRITE: Bank = 2 Row = 3093, Col = 103, Data = 22, Dqm = 0
# at time     27452 ns BST  : Burst Terminate
# at time     27472 ns WRITE: Bank = 2 Row = 3093, Col = 104, Data = 66, Dqm = 0
# at time     27492 ns WRITE: Bank = 2 Row = 3093, Col = 105, Data = 55, Dqm = 0
# at time     27512 ns WRITE: Bank = 2 Row = 3093, Col = 106, Data = 44, Dqm = 0
# at time     27532 ns WRITE: Bank = 2 Row = 3093, Col = 107, Data = 33, Dqm = 0
# at time     27552 ns BST  : Burst Terminate
# at time     27572 ns WRITE: Bank = 2 Row = 3093, Col = 108, Data = 77, Dqm = 0
# at time     27592 ns WRITE: Bank = 2 Row = 3093, Col = 109, Data = 66, Dqm = 0
# at time     27612 ns WRITE: Bank = 2 Row = 3093, Col = 110, Data = 55, Dqm = 0
# at time     27632 ns WRITE: Bank = 2 Row = 3093, Col = 111, Data = 44, Dqm = 0
# at time     27652 ns BST  : Burst Terminate
# at time     27672 ns WRITE: Bank = 2 Row = 3093, Col = 112, Data = 88, Dqm = 0
# at time     27692 ns WRITE: Bank = 2 Row = 3093, Col = 113, Data = 77, Dqm = 0
# at time     27712 ns WRITE: Bank = 2 Row = 3093, Col = 114, Data = 66, Dqm = 0
# at time     27732 ns WRITE: Bank = 2 Row = 3093, Col = 115, Data = 55, Dqm = 0
# at time     27752 ns BST  : Burst Terminate
