verif/log/top_sdr32_sim.log
 Compiling with MODELSIM in top SDR_32BIT Mode 
Model Technology ModelSim ACTEL vlog 6.6d Compiler 2010.11 Nov  2 2010
-- Compiling module tb_top
-- Compiling module IS42VM16400K
-- Compiling module mt48lc2m32b2
-- Compiling module mt48lc8m8a2
-- Compiling module sdrc_top
-- Compiling module wb2sdrc
-- Compiling module async_fifo
-- Compiling module sdrc_core
-- Compiling module sdrc_bank_ctl
-- Compiling module sdrc_bank_fsm
-- Compiling module sdrc_bs_convert
-- Compiling module sdrc_req_gen
-- Compiling module sdrc_xfr_ctl

Top level modules:
	tb_top
	IS42VM16400K
	mt48lc8m8a2
#### Compile : PASSED

###########################################
 Runing GMAC/SPI/UART test programs 
###########################################
###########################################
### Running test 1: basic_test1
Reading D:/Actel/Libero_v9.1/Model/tcl/vsim/pref.tcl 

# 6.6d

# vsim +basic_test1 -do run.do -c tb_top 
# //  ModelSim ACTEL 6.6d Nov  2 2010 
# //
# //  Copyright 1991-2010 Mentor Graphics Corporation
# //              All Rights Reserved.
# //
# //  THIS WORK CONTAINS TRADE SECRET AND 
# //  PROPRIETARY INFORMATION WHICH IS THE PROPERTY
# //  OF MENTOR GRAPHICS CORPORATION OR ITS LICENSORS
# //  AND IS SUBJECT TO LICENSE TERMS.
# //
# Loading sv_std.std
# Loading work.tb_top
# Loading work.sdrc_top
# Loading work.wb2sdrc
# Loading work.async_fifo
# Loading work.sdrc_core
# Loading work.sdrc_req_gen
# Loading work.sdrc_bank_ctl
# Loading work.sdrc_bank_fsm
# Loading work.sdrc_xfr_ctl
# Loading work.sdrc_bs_convert
# Loading work.mt48lc2m32b2
# ** Warning: (vsim-3015) ../tb/tb_top.sv(182): [PCDPC] - Port size (11 or 11) does not match connection size (12) for port 'Addr'. The port definition is at: ../model/mt48lc2m32b2.v(42).
#         Region: /tb_top/u_sdram32
# do run.do 
# tb_top.u_sdram32 : at time   10212.0 ns AREF : Auto Refresh
# tb_top.u_sdram32 : at time   10392.0 ns AREF : Auto Refresh
# tb_top.u_sdram32 : at time   10572.0 ns AREF : Auto Refresh
# tb_top.u_sdram32 : at time   10752.0 ns AREF : Auto Refresh
# tb_top.u_sdram32 : at time   10932.0 ns AREF : Auto Refresh
# tb_top.u_sdram32 : at time   11112.0 ns AREF : Auto Refresh
# tb_top.u_sdram32 : at time   11292.0 ns AREF : Auto Refresh
# tb_top.u_sdram32 : at time   11472.0 ns AREF : Auto Refresh
# tb_top.u_sdram32 : at time   11652.0 ns AREF : Auto Refresh
# tb_top.u_sdram32 : at time   11832.0 ns AREF : Auto Refresh
# tb_top.u_sdram32 : at time   12012.0 ns AREF : Auto Refresh
# tb_top.u_sdram32 : at time   12192.0 ns AREF : Auto Refresh
# tb_top.u_sdram32 : at time   12372.0 ns AREF : Auto Refresh
# tb_top.u_sdram32 : at time   12552.0 ns AREF : Auto Refresh
# tb_top.u_sdram32 : at time   12732.0 ns AREF : Auto Refresh
# tb_top.u_sdram32 : at time   12912.0 ns LMR  : Load Mode Register
# tb_top.u_sdram32 :                             CAS Latency      = 3
# tb_top.u_sdram32 :                             Burst Length     = 8
# tb_top.u_sdram32 :                             Burst Type       = Sequential
# tb_top.u_sdram32 :                             Write Burst Mode = Programmed Burst Length
# Write Address: 00040000, Burst Size:           5
# Status: Burst-No:           0  Write Address: 00010000  WriteData: 11223344 
# Status: Burst-No:           1  Write Address: 00010001  WriteData: 22334455 
# Status: Burst-No:           2  Write Address: 00010002  WriteData: 33445566 
# Status: Burst-No:           3  Write Address: 00010003  WriteData: 44556677 
# Status: Burst-No:           4  Write Address: 00010004  WriteData: 55667788 
# tb_top.u_sdram32 : at time   14232.0 ns ACT  : Bank = 0 Row =   64
# tb_top.u_sdram32 : at time   14292.0 ns WRITE: Bank = 0 Row =   64, Col =   0, Data = 11223344
# tb_top.u_sdram32 : at time   14312.0 ns WRITE: Bank = 0 Row =   64, Col =   1, Data = 22334455
# tb_top.u_sdram32 : at time   14332.0 ns BST  : Burst Terminate
# tb_top.u_sdram32 : at time   14352.0 ns WRITE: Bank = 0 Row =   64, Col =   2, Data = 33445566
# tb_top.u_sdram32 : at time   14372.0 ns BST  : Burst Terminate
# tb_top.u_sdram32 : at time   14392.0 ns WRITE: Bank = 0 Row =   64, Col =   3, Data = 44556677
# tb_top.u_sdram32 : at time   14412.0 ns BST  : Burst Terminate
# tb_top.u_sdram32 : at time   14432.0 ns WRITE: Bank = 0 Row =   64, Col =   4, Data = 55667788
# tb_top.u_sdram32 : at time   14452.0 ns BST  : Burst Terminate
# tb_top.u_sdram32 : at time   15272.0 ns BST  : Burst Terminate
# tb_top.u_sdram32 : at time   15298.0 ns READ : Bank = 0 Row =   64, Col =   0, Data = 11223344
# READ STATUS: Burst-No:           0 Addr: 00010000 Rxd: 11223344
# tb_top.u_sdram32 : at time   15472.0 ns BST  : Burst Terminate
# tb_top.u_sdram32 : at time   15498.0 ns READ : Bank = 0 Row =   64, Col =   1, Data = 22334455
# READ STATUS: Burst-No:           1 Addr: 00010001 Rxd: 22334455
# tb_top.u_sdram32 : at time   15672.0 ns BST  : Burst Terminate
# tb_top.u_sdram32 : at time   15698.0 ns READ : Bank = 0 Row =   64, Col =   2, Data = 33445566
# READ STATUS: Burst-No:           2 Addr: 00010002 Rxd: 33445566
# tb_top.u_sdram32 : at time   15872.0 ns BST  : Burst Terminate
# tb_top.u_sdram32 : at time   15898.0 ns READ : Bank = 0 Row =   64, Col =   3, Data = 44556677
# READ STATUS: Burst-No:           3 Addr: 00010003 Rxd: 44556677
# tb_top.u_sdram32 : at time   16072.0 ns BST  : Burst Terminate
# tb_top.u_sdram32 : at time   16098.0 ns READ : Bank = 0 Row =   64, Col =   4, Data = 55667788
# READ STATUS: Burst-No:           4 Addr: 00010004 Rxd: 55667788
# Write Address: 70000000, Burst Size:           5
# Status: Burst-No:           0  Write Address: 1c000000  WriteData: 11223344 
# Status: Burst-No:           1  Write Address: 1c000001  WriteData: 22334455 
# Status: Burst-No:           2  Write Address: 1c000002  WriteData: 33445566 
# Status: Burst-No:           3  Write Address: 1c000003  WriteData: 44556677 
# Status: Burst-No:           4  Write Address: 1c000004  WriteData: 55667788 
# tb_top.u_sdram32 : at time   17312.0 ns ACT  : Bank = 0 Row =    0
# tb_top.u_sdram32 : at time   17372.0 ns WRITE: Bank = 0 Row =    0, Col =   0, Data = 11223344
# tb_top.u_sdram32 : at time   17392.0 ns WRITE: Bank = 0 Row =    0, Col =   1, Data = 22334455
# tb_top.u_sdram32 : at time   17412.0 ns BST  : Burst Terminate
# tb_top.u_sdram32 : at time   17432.0 ns WRITE: Bank = 0 Row =    0, Col =   2, Data = 33445566
# tb_top.u_sdram32 : at time   17452.0 ns BST  : Burst Terminate
# tb_top.u_sdram32 : at time   17472.0 ns WRITE: Bank = 0 Row =    0, Col =   3, Data = 44556677
# tb_top.u_sdram32 : at time   17492.0 ns BST  : Burst Terminate
# tb_top.u_sdram32 : at time   17512.0 ns WRITE: Bank = 0 Row =    0, Col =   4, Data = 55667788
# tb_top.u_sdram32 : at time   17532.0 ns BST  : Burst Terminate
# tb_top.u_sdram32 : at time   18352.0 ns BST  : Burst Terminate
# tb_top.u_sdram32 : at time   18378.0 ns READ : Bank = 0 Row =    0, Col =   0, Data = 11223344
# READ STATUS: Burst-No:           0 Addr: 1c000000 Rxd: 11223344
# tb_top.u_sdram32 : at time   18552.0 ns BST  : Burst Terminate
# tb_top.u_sdram32 : at time   18578.0 ns READ : Bank = 0 Row =    0, Col =   1, Data = 22334455
# READ STATUS: Burst-No:           1 Addr: 1c000001 Rxd: 22334455
# tb_top.u_sdram32 : at time   18752.0 ns BST  : Burst Terminate
# tb_top.u_sdram32 : at time   18778.0 ns READ : Bank = 0 Row =    0, Col =   2, Data = 33445566
# READ STATUS: Burst-No:           2 Addr: 1c000002 Rxd: 33445566
# tb_top.u_sdram32 : at time   18952.0 ns BST  : Burst Terminate
# tb_top.u_sdram32 : at time   18978.0 ns READ : Bank = 0 Row =    0, Col =   3, Data = 44556677
# READ STATUS: Burst-No:           3 Addr: 1c000003 Rxd: 44556677
# tb_top.u_sdram32 : at time   19152.0 ns BST  : Burst Terminate
# tb_top.u_sdram32 : at time   19178.0 ns READ : Bank = 0 Row =    0, Col =   4, Data = 55667788
# READ STATUS: Burst-No:           4 Addr: 1c000004 Rxd: 55667788
# Write Address: 02153524, Burst Size:           5
# Status: Burst-No:           0  Write Address: 00854d49  WriteData: 11223344 
# Status: Burst-No:           1  Write Address: 00854d4a  WriteData: 22334455 
# Status: Burst-No:           2  Write Address: 00854d4b  WriteData: 33445566 
# Status: Burst-No:           3  Write Address: 00854d4c  WriteData: 44556677 
# Status: Burst-No:           4  Write Address: 00854d4d  WriteData: 55667788 
# tb_top.u_sdram32 : at time   19412.0 ns ACT  : Bank = 1 Row =  339
# tb_top.u_sdram32 : at time   19472.0 ns WRITE: Bank = 1 Row =  339, Col =  73, Data = 11223344
# tb_top.u_sdram32 : at time   19492.0 ns WRITE: Bank = 1 Row =  339, Col =  74, Data = 22334455
# tb_top.u_sdram32 : at time   19512.0 ns BST  : Burst Terminate
# tb_top.u_sdram32 : at time   19532.0 ns WRITE: Bank = 1 Row =  339, Col =  75, Data = 33445566
# tb_top.u_sdram32 : at time   19552.0 ns BST  : Burst Terminate
# tb_top.u_sdram32 : at time   19572.0 ns WRITE: Bank = 1 Row =  339, Col =  76, Data = 44556677
# tb_top.u_sdram32 : at time   19592.0 ns BST  : Burst Terminate
# tb_top.u_sdram32 : at time   19612.0 ns WRITE: Bank = 1 Row =  339, Col =  77, Data = 55667788
# tb_top.u_sdram32 : at time   19632.0 ns BST  : Burst Terminate
# tb_top.u_sdram32 : at time   20452.0 ns BST  : Burst Terminate
# tb_top.u_sdram32 : at time   20478.0 ns READ : Bank = 1 Row =  339, Col =  73, Data = 11223344
# READ STATUS: Burst-No:           0 Addr: 00854d49 Rxd: 11223344
# tb_top.u_sdram32 : at time   20652.0 ns BST  : Burst Terminate
# tb_top.u_sdram32 : at time   20678.0 ns READ : Bank = 1 Row =  339, Col =  74, Data = 22334455
# READ STATUS: Burst-No:           1 Addr: 00854d4a Rxd: 22334455
# tb_top.u_sdram32 : at time   20852.0 ns BST  : Burst Terminate
# tb_top.u_sdram32 : at time   20878.0 ns READ : Bank = 1 Row =  339, Col =  75, Data = 33445566
# READ STATUS: Burst-No:           2 Addr: 00854d4b Rxd: 33445566
# tb_top.u_sdram32 : at time   21052.0 ns BST  : Burst Terminate
# tb_top.u_sdram32 : at time   21078.0 ns READ : Bank = 1 Row =  339, Col =  76, Data = 44556677
# READ STATUS: Burst-No:           3 Addr: 00854d4c Rxd: 44556677
# tb_top.u_sdram32 : at time   21252.0 ns BST  : Burst Terminate
# tb_top.u_sdram32 : at time   21278.0 ns READ : Bank = 1 Row =  339, Col =  77, Data = 55667788
# READ STATUS: Burst-No:           4 Addr: 00854d4d Rxd: 55667788
# Write Address: 00895e81, Burst Size:           5
# Status: Burst-No:           0  Write Address: 002257a0  WriteData: 11223344 
# Status: Burst-No:           1  Write Address: 002257a1  WriteData: 22334455 
# Status: Burst-No:           2  Write Address: 002257a2  WriteData: 33445566 
# Status: Burst-No:           3  Write Address: 002257a3  WriteData: 44556677 
# Status: Burst-No:           4  Write Address: 002257a4  WriteData: 55667788 
# tb_top.u_sdram32 : at time   21512.0 ns ACT  : Bank = 3 Row =  149
# tb_top.u_sdram32 : at time   21572.0 ns WRITE: Bank = 3 Row =  149, Col = 160, Data = 11223344
# tb_top.u_sdram32 : at time   21592.0 ns WRITE: Bank = 3 Row =  149, Col = 161, Data = 22334455
# tb_top.u_sdram32 : at time   21612.0 ns BST  : Burst Terminate
# tb_top.u_sdram32 : at time   21632.0 ns WRITE: Bank = 3 Row =  149, Col = 162, Data = 33445566
# tb_top.u_sdram32 : at time   21652.0 ns BST  : Burst Terminate
# tb_top.u_sdram32 : at time   21672.0 ns WRITE: Bank = 3 Row =  149, Col = 163, Data = 44556677
# tb_top.u_sdram32 : at time   21692.0 ns BST  : Burst Terminate
# tb_top.u_sdram32 : at time   21712.0 ns WRITE: Bank = 3 Row =  149, Col = 164, Data = 55667788
# tb_top.u_sdram32 : at time   21732.0 ns BST  : Burst Terminate
# tb_top.u_sdram32 : at time   22552.0 ns BST  : Burst Terminate
# tb_top.u_sdram32 : at time   22578.0 ns READ : Bank = 3 Row =  149, Col = 160, Data = 11223344
# READ STATUS: Burst-No:           0 Addr: 002257a0 Rxd: 11223344
# tb_top.u_sdram32 : at time   22752.0 ns BST  : Burst Terminate
# tb_top.u_sdram32 : at time   22778.0 ns READ : Bank = 3 Row =  149, Col = 161, Data = 22334455
# READ STATUS: Burst-No:           1 Addr: 002257a1 Rxd: 22334455
# tb_top.u_sdram32 : at time   22952.0 ns BST  : Burst Terminate
# tb_top.u_sdram32 : at time   22978.0 ns READ : Bank = 3 Row =  149, Col = 162, Data = 33445566
# READ STATUS: Burst-No:           2 Addr: 002257a2 Rxd: 33445566
# tb_top.u_sdram32 : at time   23152.0 ns BST  : Burst Terminate
# tb_top.u_sdram32 : at time   23178.0 ns READ : Bank = 3 Row =  149, Col = 163, Data = 44556677
# READ STATUS: Burst-No:           3 Addr: 002257a3 Rxd: 44556677
# tb_top.u_sdram32 : at time   23352.0 ns BST  : Burst Terminate
# tb_top.u_sdram32 : at time   23378.0 ns READ : Bank = 3 Row =  149, Col = 164, Data = 55667788
# READ STATUS: Burst-No:           4 Addr: 002257a4 Rxd: 55667788
# Write Address: 0484d609, Burst Size:           5
# Status: Burst-No:           0  Write Address: 01213582  WriteData: 11223344 
# Status: Burst-No:           1  Write Address: 01213583  WriteData: 22334455 
# Status: Burst-No:           2  Write Address: 01213584  WriteData: 33445566 
# Status: Burst-No:           3  Write Address: 01213585  WriteData: 44556677 
# Status: Burst-No:           4  Write Address: 01213586  WriteData: 55667788 
# tb_top.u_sdram32 : at time   23612.0 ns ACT  : Bank = 1 Row =   77
# tb_top.u_sdram32 : at time   23672.0 ns WRITE: Bank = 1 Row =   77, Col = 130, Data = 11223344
# tb_top.u_sdram32 : at time   23692.0 ns WRITE: Bank = 1 Row =   77, Col = 131, Data = 22334455
# tb_top.u_sdram32 : at time   23712.0 ns BST  : Burst Terminate
# tb_top.u_sdram32 : at time   23732.0 ns WRITE: Bank = 1 Row =   77, Col = 132, Data = 33445566
# tb_top.u_sdram32 : at time   23752.0 ns BST  : Burst Terminate
# tb_top.u_sdram32 : at time   23772.0 ns WRITE: Bank = 1 Row =   77, Col = 133, Data = 44556677
# tb_top.u_sdram32 : at time   23792.0 ns BST  : Burst Terminate
# tb_top.u_sdram32 : at time   23812.0 ns WRITE: Bank = 1 Row =   77, Col = 134, Data = 55667788
# tb_top.u_sdram32 : at time   23832.0 ns BST  : Burst Terminate
# tb_top.u_sdram32 : at time   24652.0 ns BST  : Burst Terminate
# tb_top.u_sdram32 : at time   24678.0 ns READ : Bank = 1 Row =   77, Col = 130, Data = 11223344
# READ STATUS: Burst-No:           0 Addr: 01213582 Rxd: 11223344
# tb_top.u_sdram32 : at time   24852.0 ns BST  : Burst Terminate
# tb_top.u_sdram32 : at time   24878.0 ns READ : Bank = 1 Row =   77, Col = 131, Data = 22334455
# READ STATUS: Burst-No:           1 Addr: 01213583 Rxd: 22334455
# tb_top.u_sdram32 : at time   25052.0 ns BST  : Burst Terminate
# tb_top.u_sdram32 : at time   25078.0 ns READ : Bank = 1 Row =   77, Col = 132, Data = 33445566
# READ STATUS: Burst-No:           2 Addr: 01213584 Rxd: 33445566
# tb_top.u_sdram32 : at time   25252.0 ns BST  : Burst Terminate
# tb_top.u_sdram32 : at time   25278.0 ns READ : Bank = 1 Row =   77, Col = 133, Data = 44556677
# READ STATUS: Burst-No:           3 Addr: 01213585 Rxd: 44556677
# tb_top.u_sdram32 : at time   25452.0 ns BST  : Burst Terminate
# tb_top.u_sdram32 : at time   25478.0 ns READ : Bank = 1 Row =   77, Col = 134, Data = 55667788
# READ STATUS: Burst-No:           4 Addr: 01213586 Rxd: 55667788
# Write Address: 01f05663, Burst Size:           5
# Status: Burst-No:           0  Write Address: 007c1598  WriteData: 11223344 
# Status: Burst-No:           1  Write Address: 007c1599  WriteData: 22334455 
# Status: Burst-No:           2  Write Address: 007c159a  WriteData: 33445566 
# Status: Burst-No:           3  Write Address: 007c159b  WriteData: 44556677 
# Status: Burst-No:           4  Write Address: 007c159c  WriteData: 55667788 
# tb_top.u_sdram32 : at time   25712.0 ns ACT  : Bank = 1 Row = 1797
# tb_top.u_sdram32 : at time   25772.0 ns WRITE: Bank = 1 Row = 1797, Col = 152, Data = 11223344
# tb_top.u_sdram32 : at time   25792.0 ns WRITE: Bank = 1 Row = 1797, Col = 153, Data = 22334455
# tb_top.u_sdram32 : at time   25812.0 ns BST  : Burst Terminate
# tb_top.u_sdram32 : at time   25832.0 ns WRITE: Bank = 1 Row = 1797, Col = 154, Data = 33445566
# tb_top.u_sdram32 : at time   25852.0 ns BST  : Burst Terminate
# tb_top.u_sdram32 : at time   25872.0 ns WRITE: Bank = 1 Row = 1797, Col = 155, Data = 44556677
# tb_top.u_sdram32 : at time   25892.0 ns BST  : Burst Terminate
# tb_top.u_sdram32 : at time   25912.0 ns WRITE: Bank = 1 Row = 1797, Col = 156, Data = 55667788
# tb_top.u_sdram32 : at time   25932.0 ns BST  : Burst Terminate
# tb_top.u_sdram32 : at time   26752.0 ns BST  : Burst Terminate
# tb_top.u_sdram32 : at time   26778.0 ns READ : Bank = 1 Row = 1797, Col = 152, Data = 11223344
# READ STATUS: Burst-No:           0 Addr: 007c1598 Rxd: 11223344
# tb_top.u_sdram32 : at time   26952.0 ns BST  : Burst Terminate
# tb_top.u_sdram32 : at time   26978.0 ns READ : Bank = 1 Row = 1797, Col = 153, Data = 22334455
# READ STATUS: Burst-No:           1 Addr: 007c1599 Rxd: 22334455
# tb_top.u_sdram32 : at time   27152.0 ns BST  : Burst Terminate
# tb_top.u_sdram32 : at time   27178.0 ns READ : Bank = 1 Row = 1797, Col = 154, Data = 33445566
# READ STATUS: Burst-No:           2 Addr: 007c159a Rxd: 33445566
# tb_top.u_sdram32 : at time   27352.0 ns BST  : Burst Terminate
# tb_top.u_sdram32 : at time   27378.0 ns READ : Bank = 1 Row = 1797, Col = 155, Data = 44556677
# READ STATUS: Burst-No:           3 Addr: 007c159b Rxd: 44556677
# tb_top.u_sdram32 : at time   27552.0 ns BST  : Burst Terminate
# tb_top.u_sdram32 : at time   27578.0 ns READ : Bank = 1 Row = 1797, Col = 156, Data = 55667788
# READ STATUS: Burst-No:           4 Addr: 007c159c Rxd: 55667788
# Write Address: 06b97b0d, Burst Size:           5
# Status: Burst-No:           0  Write Address: 01ae5ec3  WriteData: 11223344 
# Status: Burst-No:           1  Write Address: 01ae5ec4  WriteData: 22334455 
# Status: Burst-No:           2  Write Address: 01ae5ec5  WriteData: 33445566 
# Status: Burst-No:           3  Write Address: 01ae5ec6  WriteData: 44556677 
# Status: Burst-No:           4  Write Address: 01ae5ec7  WriteData: 55667788 
# tb_top.u_sdram32 : at time   27812.0 ns ACT  : Bank = 2 Row =  919
# tb_top.u_sdram32 : at time   27872.0 ns WRITE: Bank = 2 Row =  919, Col = 195, Data = 11223344
# tb_top.u_sdram32 : at time   27892.0 ns WRITE: Bank = 2 Row =  919, Col = 196, Data = 22334455
# tb_top.u_sdram32 : at time   27912.0 ns BST  : Burst Terminate
# tb_top.u_sdram32 : at time   27932.0 ns WRITE: Bank = 2 Row =  919, Col = 197, Data = 33445566
# tb_top.u_sdram32 : at time   27952.0 ns BST  : Burst Terminate
# tb_top.u_sdram32 : at time   27972.0 ns WRITE: Bank = 2 Row =  919, Col = 198, Data = 44556677
# tb_top.u_sdram32 : at time   27992.0 ns BST  : Burst Terminate
# tb_top.u_sdram32 : at time   28012.0 ns WRITE: Bank = 2 Row =  919, Col = 199, Data = 55667788
# tb_top.u_sdram32 : at time   28032.0 ns BST  : Burst Terminate
# tb_top.u_sdram32 : at time   28852.0 ns BST  : Burst Terminate
# tb_top.u_sdram32 : at time   28878.0 ns READ : Bank = 2 Row =  919, Col = 195, Data = 11223344
# READ STATUS: Burst-No:           0 Addr: 01ae5ec3 Rxd: 11223344
# tb_top.u_sdram32 : at time   29052.0 ns BST  : Burst Terminate
# tb_top.u_sdram32 : at time   29078.0 ns READ : Bank = 2 Row =  919, Col = 196, Data = 22334455
# READ STATUS: Burst-No:           1 Addr: 01ae5ec4 Rxd: 22334455
# tb_top.u_sdram32 : at time   29252.0 ns BST  : Burst Terminate
# tb_top.u_sdram32 : at time   29278.0 ns READ : Bank = 2 Row =  919, Col = 197, Data = 33445566
# READ STATUS: Burst-No:           2 Addr: 01ae5ec5 Rxd: 33445566
# tb_top.u_sdram32 : at time   29452.0 ns BST  : Burst Terminate
# tb_top.u_sdram32 : at time   29478.0 ns READ : Bank = 2 Row =  919, Col = 198, Data = 44556677
# READ STATUS: Burst-No:           3 Addr: 01ae5ec6 Rxd: 44556677
# tb_top.u_sdram32 : at time   29652.0 ns BST  : Burst Terminate
# tb_top.u_sdram32 : at time   29678.0 ns READ : Bank = 2 Row =  919, Col = 199, Data = 55667788
# READ STATUS: Burst-No:           4 Addr: 01ae5ec7 Rxd: 55667788
# Write Address: 06df998d, Burst Size:           5
# Status: Burst-No:           0  Write Address: 01b7e663  WriteData: 11223344 
# Status: Burst-No:           1  Write Address: 01b7e664  WriteData: 22334455 
# Status: Burst-No:           2  Write Address: 01b7e665  WriteData: 33445566 
# Status: Burst-No:           3  Write Address: 01b7e666  WriteData: 44556677 
# Status: Burst-No:           4  Write Address: 01b7e667  WriteData: 55667788 
# tb_top.u_sdram32 : at time   29912.0 ns ACT  : Bank = 2 Row = 1529
# tb_top.u_sdram32 : at time   29972.0 ns WRITE: Bank = 2 Row = 1529, Col =  99, Data = 11223344
# tb_top.u_sdram32 : at time   29992.0 ns WRITE: Bank = 2 Row = 1529, Col = 100, Data = 22334455
# tb_top.u_sdram32 : at time   30012.0 ns BST  : Burst Terminate
# tb_top.u_sdram32 : at time   30032.0 ns WRITE: Bank = 2 Row = 1529, Col = 101, Data = 33445566
# tb_top.u_sdram32 : at time   30052.0 ns BST  : Burst Terminate
# tb_top.u_sdram32 : at time   30072.0 ns WRITE: Bank = 2 Row = 1529, Col = 102, Data = 44556677
# tb_top.u_sdram32 : at time   30092.0 ns BST  : Burst Terminate
# tb_top.u_sdram32 : at time   30112.0 ns WRITE: Bank = 2 Row = 1529, Col = 103, Data = 55667788
# tb_top.u_sdram32 : at time   30132.0 ns BST  : Burst Terminate
# tb_top.u_sdram32 : at time   30952.0 ns BST  : Burst Terminate
# tb_top.u_sdram32 : at time   30978.0 ns READ : Bank = 2 Row = 1529, Col =  99, Data = 11223344
# READ STATUS: Burst-No:           0 Addr: 01b7e663 Rxd: 11223344
# tb_top.u_sdram32 : at time   31152.0 ns BST  : Burst Terminate
# tb_top.u_sdram32 : at time   31178.0 ns READ : Bank = 2 Row = 1529, Col = 100, Data = 22334455
# READ STATUS: Burst-No:           1 Addr: 01b7e664 Rxd: 22334455
# tb_top.u_sdram32 : at time   31352.0 ns BST  : Burst Terminate
# tb_top.u_sdram32 : at time   31378.0 ns READ : Bank = 2 Row = 1529, Col = 101, Data = 33445566
# READ STATUS: Burst-No:           2 Addr: 01b7e665 Rxd: 33445566
# tb_top.u_sdram32 : at time   31552.0 ns BST  : Burst Terminate
# tb_top.u_sdram32 : at time   31578.0 ns READ : Bank = 2 Row = 1529, Col = 102, Data = 44556677
# READ STATUS: Burst-No:           3 Addr: 01b7e666 Rxd: 44556677
# tb_top.u_sdram32 : at time   31752.0 ns BST  : Burst Terminate
# tb_top.u_sdram32 : at time   31778.0 ns READ : Bank = 2 Row = 1529, Col = 103, Data = 55667788
# READ STATUS: Burst-No:           4 Addr: 01b7e667 Rxd: 55667788
# Write Address: 02c28465, Burst Size:           5
# Status: Burst-No:           0  Write Address: 00b0a119  WriteData: 11223344 
# Status: Burst-No:           1  Write Address: 00b0a11a  WriteData: 22334455 
# Status: Burst-No:           2  Write Address: 00b0a11b  WriteData: 33445566 
# Status: Burst-No:           3  Write Address: 00b0a11c  WriteData: 44556677 
# Status: Burst-No:           4  Write Address: 00b0a11d  WriteData: 55667788 
# tb_top.u_sdram32 : at time   32012.0 ns ACT  : Bank = 1 Row = 1064
# tb_top.u_sdram32 : at time   32072.0 ns WRITE: Bank = 1 Row = 1064, Col =  25, Data = 11223344
# tb_top.u_sdram32 : at time   32092.0 ns WRITE: Bank = 1 Row = 1064, Col =  26, Data = 22334455
# tb_top.u_sdram32 : at time   32112.0 ns BST  : Burst Terminate
# tb_top.u_sdram32 : at time   32132.0 ns WRITE: Bank = 1 Row = 1064, Col =  27, Data = 33445566
# tb_top.u_sdram32 : at time   32152.0 ns BST  : Burst Terminate
# tb_top.u_sdram32 : at time   32172.0 ns WRITE: Bank = 1 Row = 1064, Col =  28, Data = 44556677
# tb_top.u_sdram32 : at time   32192.0 ns BST  : Burst Terminate
# tb_top.u_sdram32 : at time   32212.0 ns WRITE: Bank = 1 Row = 1064, Col =  29, Data = 55667788
# tb_top.u_sdram32 : at time   32232.0 ns BST  : Burst Terminate
# tb_top.u_sdram32 : at time   33052.0 ns BST  : Burst Terminate
# tb_top.u_sdram32 : at time   33078.0 ns READ : Bank = 1 Row = 1064, Col =  25, Data = 11223344
# READ STATUS: Burst-No:           0 Addr: 00b0a119 Rxd: 11223344
# tb_top.u_sdram32 : at time   33252.0 ns BST  : Burst Terminate
# tb_top.u_sdram32 : at time   33278.0 ns READ : Bank = 1 Row = 1064, Col =  26, Data = 22334455
# READ STATUS: Burst-No:           1 Addr: 00b0a11a Rxd: 22334455
# tb_top.u_sdram32 : at time   33452.0 ns BST  : Burst Terminate
# tb_top.u_sdram32 : at time   33478.0 ns READ : Bank = 1 Row = 1064, Col =  27, Data = 33445566
# READ STATUS: Burst-No:           2 Addr: 00b0a11b Rxd: 33445566
# tb_top.u_sdram32 : at time   33652.0 ns BST  : Burst Terminate
# tb_top.u_sdram32 : at time   33678.0 ns READ : Bank = 1 Row = 1064, Col =  28, Data = 44556677
# READ STATUS: Burst-No:           3 Addr: 00b0a11c Rxd: 44556677
# tb_top.u_sdram32 : at time   33852.0 ns BST  : Burst Terminate
# tb_top.u_sdram32 : at time   33878.0 ns READ : Bank = 1 Row = 1064, Col =  29, Data = 55667788
# READ STATUS: Burst-No:           4 Addr: 00b0a11d Rxd: 55667788
# Write Address: 01375212, Burst Size:           5
# Status: Burst-No:           0  Write Address: 004dd484  WriteData: 11223344 
# Status: Burst-No:           1  Write Address: 004dd485  WriteData: 22334455 
# Status: Burst-No:           2  Write Address: 004dd486  WriteData: 33445566 
# Status: Burst-No:           3  Write Address: 004dd487  WriteData: 44556677 
# Status: Burst-No:           4  Write Address: 004dd488  WriteData: 55667788 
# tb_top.u_sdram32 : at time   34112.0 ns ACT  : Bank = 0 Row =  885
# tb_top.u_sdram32 : at time   34172.0 ns WRITE: Bank = 0 Row =  885, Col = 132, Data = 11223344
# tb_top.u_sdram32 : at time   34192.0 ns WRITE: Bank = 0 Row =  885, Col = 133, Data = 22334455
# tb_top.u_sdram32 : at time   34212.0 ns BST  : Burst Terminate
# tb_top.u_sdram32 : at time   34232.0 ns WRITE: Bank = 0 Row =  885, Col = 134, Data = 33445566
# tb_top.u_sdram32 : at time   34252.0 ns BST  : Burst Terminate
# tb_top.u_sdram32 : at time   34272.0 ns WRITE: Bank = 0 Row =  885, Col = 135, Data = 44556677
# tb_top.u_sdram32 : at time   34292.0 ns BST  : Burst Terminate
# tb_top.u_sdram32 : at time   34312.0 ns WRITE: Bank = 0 Row =  885, Col = 136, Data = 55667788
# tb_top.u_sdram32 : at time   34332.0 ns BST  : Burst Terminate
# tb_top.u_sdram32 : at time   35152.0 ns BST  : Burst Terminate
# tb_top.u_sdram32 : at time   35178.0 ns READ : Bank = 0 Row =  885, Col = 132, Data = 11223344
# READ STATUS: Burst-No:           0 Addr: 004dd484 Rxd: 11223344
# tb_top.u_sdram32 : at time   35352.0 ns BST  : Burst Terminate
# tb_top.u_sdram32 : at time   35378.0 ns READ : Bank = 0 Row =  885, Col = 133, Data = 22334455
# READ STATUS: Burst-No:           1 Addr: 004dd485 Rxd: 22334455
# tb_top.u_sdram32 : at time   35552.0 ns BST  : Burst Terminate
# tb_top.u_sdram32 : at time   35578.0 ns READ : Bank = 0 Row =  885, Col = 134, Data = 33445566
# READ STATUS: Burst-No:           2 Addr: 004dd486 Rxd: 33445566
# tb_top.u_sdram32 : at time   35752.0 ns BST  : Burst Terminate
# tb_top.u_sdram32 : at time   35778.0 ns READ : Bank = 0 Row =  885, Col = 135, Data = 44556677
# READ STATUS: Burst-No:           3 Addr: 004dd487 Rxd: 44556677
# tb_top.u_sdram32 : at time   35952.0 ns BST  : Burst Terminate
# tb_top.u_sdram32 : at time   35978.0 ns READ : Bank = 0 Row =  885, Col = 136, Data = 55667788
# READ STATUS: Burst-No:           4 Addr: 004dd488 Rxd: 55667788
# Write Address: 00f3e301, Burst Size:           5
# Status: Burst-No:           0  Write Address: 003cf8c0  WriteData: 11223344 
# Status: Burst-No:           1  Write Address: 003cf8c1  WriteData: 22334455 
# Status: Burst-No:           2  Write Address: 003cf8c2  WriteData: 33445566 
# Status: Burst-No:           3  Write Address: 003cf8c3  WriteData: 44556677 
# Status: Burst-No:           4  Write Address: 003cf8c4  WriteData: 55667788 
# tb_top.u_sdram32 : at time   36212.0 ns ACT  : Bank = 0 Row = 1854
# tb_top.u_sdram32 : at time   36272.0 ns WRITE: Bank = 0 Row = 1854, Col = 192, Data = 11223344
