verif/log/top_sdr32_sim.log
 Compiling with MODELSIM in top SDR_32BIT Mode 
Model Technology ModelSim ACTEL vlog 6.6d Compiler 2010.11 Nov  2 2010
-- Compiling module tb_top
-- Compiling module IS42VM16400K
-- Compiling module mt48lc2m32b2
-- Compiling module mt48lc8m8a2
-- Compiling module sdrc_top
-- Compiling module wb2sdrc
-- Compiling module async_fifo
-- Compiling module sdrc_core
-- Compiling module sdrc_bank_ctl
-- Compiling module sdrc_bank_fsm
-- Compiling module sdrc_bs_convert
-- Compiling module sdrc_req_gen
-- Compiling module sdrc_xfr_ctl

Top level modules:
	tb_top
	IS42VM16400K
	mt48lc8m8a2
#### Compile : PASSED

###########################################
 Runing GMAC/SPI/UART test programs 
###########################################
###########################################
### Running test 1: basic_test1
Reading D:/Actel/Libero_v9.1/Model/tcl/vsim/pref.tcl 

# 6.6d

# vsim +basic_test1 -do run.do -c tb_top 
# //  ModelSim ACTEL 6.6d Nov  2 2010 
# //
# //  Copyright 1991-2010 Mentor Graphics Corporation
# //              All Rights Reserved.
# //
# //  THIS WORK CONTAINS TRADE SECRET AND 
# //  PROPRIETARY INFORMATION WHICH IS THE PROPERTY
# //  OF MENTOR GRAPHICS CORPORATION OR ITS LICENSORS
# //  AND IS SUBJECT TO LICENSE TERMS.
# //
# Loading sv_std.std
# Loading work.tb_top
# Loading work.sdrc_top
# Loading work.wb2sdrc
# Loading work.async_fifo
# Loading work.sdrc_core
# Loading work.sdrc_req_gen
# Loading work.sdrc_bank_ctl
# Loading work.sdrc_bank_fsm
# Loading work.sdrc_xfr_ctl
# Loading work.sdrc_bs_convert
# Loading work.mt48lc2m32b2
# ** Warning: (vsim-3015) ../tb/tb_top.sv(182): [PCDPC] - Port size (11 or 11) does not match connection size (12) for port 'Addr'. The port definition is at: ../model/mt48lc2m32b2.v(42).
#         Region: /tb_top/u_sdram32
# do run.do 
# tb_top.u_sdram32 : at time   10212.0 ns AREF : Auto Refresh
# tb_top.u_sdram32 : at time   10392.0 ns AREF : Auto Refresh
# tb_top.u_sdram32 : at time   10572.0 ns AREF : Auto Refresh
# tb_top.u_sdram32 : at time   10752.0 ns AREF : Auto Refresh
# tb_top.u_sdram32 : at time   10932.0 ns AREF : Auto Refresh
# tb_top.u_sdram32 : at time   11112.0 ns AREF : Auto Refresh
# tb_top.u_sdram32 : at time   11292.0 ns AREF : Auto Refresh
# tb_top.u_sdram32 : at time   11472.0 ns AREF : Auto Refresh
# tb_top.u_sdram32 : at time   11652.0 ns AREF : Auto Refresh
# tb_top.u_sdram32 : at time   11832.0 ns AREF : Auto Refresh
# tb_top.u_sdram32 : at time   12012.0 ns AREF : Auto Refresh
# tb_top.u_sdram32 : at time   12192.0 ns AREF : Auto Refresh
# tb_top.u_sdram32 : at time   12372.0 ns AREF : Auto Refresh
# tb_top.u_sdram32 : at time   12552.0 ns AREF : Auto Refresh
# tb_top.u_sdram32 : at time   12732.0 ns AREF : Auto Refresh
# tb_top.u_sdram32 : at time   12912.0 ns LMR  : Load Mode Register
# tb_top.u_sdram32 :                             CAS Latency      = 3
# tb_top.u_sdram32 :                             Burst Length     = 8
# tb_top.u_sdram32 :                             Burst Type       = Sequential
# tb_top.u_sdram32 :                             Write Burst Mode = Programmed Burst Length
# Write Address: 00040000, Burst Size:          10
# Status: Burst-No:           0  Write Address: 00010000  WriteData: 00112233 
# Status: Burst-No:           1  Write Address: 00010001  WriteData: 11223344 
# Status: Burst-No:           2  Write Address: 00010002  WriteData: 22334455 
# Status: Burst-No:           3  Write Address: 00010003  WriteData: 33445566 
# Status: Burst-No:           4  Write Address: 00010004  WriteData: 44556677 
# Status: Burst-No:           5  Write Address: 00010005  WriteData: 55667788 
# tb_top.u_sdram32 : at time   14232.0 ns ACT  : Bank = 0 Row =   64
# tb_top.u_sdram32 : at time   14292.0 ns WRITE: Bank = 0 Row =   64, Col =   0, Data = 00112233
# tb_top.u_sdram32 : at time   14312.0 ns WRITE: Bank = 0 Row =   64, Col =   1, Data = 11223344
# tb_top.u_sdram32 : at time   14332.0 ns BST  : Burst Terminate
# tb_top.u_sdram32 : at time   14352.0 ns WRITE: Bank = 0 Row =   64, Col =   2, Data = 22334455
# Status: Burst-No:           6  Write Address: 00010006  WriteData: 66778899 
# tb_top.u_sdram32 : at time   14372.0 ns BST  : Burst Terminate
# tb_top.u_sdram32 : at time   14392.0 ns WRITE: Bank = 0 Row =   64, Col =   3, Data = 33445566
# Status: Burst-No:           7  Write Address: 00010007  WriteData: 77889900 
# tb_top.u_sdram32 : at time   14412.0 ns BST  : Burst Terminate
# tb_top.u_sdram32 : at time   14432.0 ns WRITE: Bank = 0 Row =   64, Col =   4, Data = 44556677
# Status: Burst-No:           8  Write Address: 00010008  WriteData: 88990011 
# tb_top.u_sdram32 : at time   14452.0 ns BST  : Burst Terminate
# tb_top.u_sdram32 : at time   14472.0 ns WRITE: Bank = 0 Row =   64, Col =   5, Data = 55667788
# Status: Burst-No:           9  Write Address: 00010009  WriteData: 99001122 
# tb_top.u_sdram32 : at time   14492.0 ns BST  : Burst Terminate
# tb_top.u_sdram32 : at time   14512.0 ns WRITE: Bank = 0 Row =   64, Col =   6, Data = 66778899
# tb_top.u_sdram32 : at time   14532.0 ns BST  : Burst Terminate
# tb_top.u_sdram32 : at time   14552.0 ns WRITE: Bank = 0 Row =   64, Col =   7, Data = 77889900
# tb_top.u_sdram32 : at time   14572.0 ns BST  : Burst Terminate
# tb_top.u_sdram32 : at time   14592.0 ns WRITE: Bank = 0 Row =   64, Col =   8, Data = 88990011
# tb_top.u_sdram32 : at time   14612.0 ns BST  : Burst Terminate
# tb_top.u_sdram32 : at time   14632.0 ns WRITE: Bank = 0 Row =   64, Col =   9, Data = 99001122
# tb_top.u_sdram32 : at time   14652.0 ns BST  : Burst Terminate
# tb_top.u_sdram32 : at time   15592.0 ns BST  : Burst Terminate
# tb_top.u_sdram32 : at time   15618.0 ns READ : Bank = 0 Row =   64, Col =   0, Data = 00112233
# READ STATUS: Burst-No:           0 Addr: 00010000 Rxd: 00112233
# tb_top.u_sdram32 : at time   15792.0 ns BST  : Burst Terminate
# tb_top.u_sdram32 : at time   15818.0 ns READ : Bank = 0 Row =   64, Col =   1, Data = 11223344
# READ STATUS: Burst-No:           1 Addr: 00010001 Rxd: 11223344
# tb_top.u_sdram32 : at time   15992.0 ns BST  : Burst Terminate
# tb_top.u_sdram32 : at time   16018.0 ns READ : Bank = 0 Row =   64, Col =   2, Data = 22334455
# READ STATUS: Burst-No:           2 Addr: 00010002 Rxd: 22334455
# tb_top.u_sdram32 : at time   16192.0 ns BST  : Burst Terminate
# tb_top.u_sdram32 : at time   16218.0 ns READ : Bank = 0 Row =   64, Col =   3, Data = 33445566
# READ STATUS: Burst-No:           3 Addr: 00010003 Rxd: 33445566
# tb_top.u_sdram32 : at time   16392.0 ns BST  : Burst Terminate
# tb_top.u_sdram32 : at time   16418.0 ns READ : Bank = 0 Row =   64, Col =   4, Data = 44556677
# READ STATUS: Burst-No:           4 Addr: 00010004 Rxd: 44556677
# tb_top.u_sdram32 : at time   16592.0 ns BST  : Burst Terminate
# tb_top.u_sdram32 : at time   16618.0 ns READ : Bank = 0 Row =   64, Col =   5, Data = 55667788
# READ STATUS: Burst-No:           5 Addr: 00010005 Rxd: 55667788
# tb_top.u_sdram32 : at time   16792.0 ns BST  : Burst Terminate
# tb_top.u_sdram32 : at time   16818.0 ns READ : Bank = 0 Row =   64, Col =   6, Data = 66778899
# READ STATUS: Burst-No:           6 Addr: 00010006 Rxd: 66778899
# tb_top.u_sdram32 : at time   16992.0 ns BST  : Burst Terminate
# tb_top.u_sdram32 : at time   17018.0 ns READ : Bank = 0 Row =   64, Col =   7, Data = 77889900
# READ STATUS: Burst-No:           7 Addr: 00010007 Rxd: 77889900
# tb_top.u_sdram32 : at time   17192.0 ns BST  : Burst Terminate
# tb_top.u_sdram32 : at time   17218.0 ns READ : Bank = 0 Row =   64, Col =   8, Data = 88990011
# READ STATUS: Burst-No:           8 Addr: 00010008 Rxd: 88990011
# tb_top.u_sdram32 : at time   17392.0 ns BST  : Burst Terminate
# tb_top.u_sdram32 : at time   17418.0 ns READ : Bank = 0 Row =   64, Col =   9, Data = 99001122
# READ STATUS: Burst-No:           9 Addr: 00010009 Rxd: 99001122
# Write Address: 70000000, Burst Size:          10
# Status: Burst-No:           0  Write Address: 1c000000  WriteData: 00112233 
# Status: Burst-No:           1  Write Address: 1c000001  WriteData: 11223344 
# Status: Burst-No:           2  Write Address: 1c000002  WriteData: 22334455 
# Status: Burst-No:           3  Write Address: 1c000003  WriteData: 33445566 
# Status: Burst-No:           4  Write Address: 1c000004  WriteData: 44556677 
# Status: Burst-No:           5  Write Address: 1c000005  WriteData: 55667788 
# tb_top.u_sdram32 : at time   18632.0 ns ACT  : Bank = 0 Row =    0
# tb_top.u_sdram32 : at time   18692.0 ns WRITE: Bank = 0 Row =    0, Col =   0, Data = 00112233
# tb_top.u_sdram32 : at time   18712.0 ns WRITE: Bank = 0 Row =    0, Col =   1, Data = 11223344
# tb_top.u_sdram32 : at time   18732.0 ns BST  : Burst Terminate
# tb_top.u_sdram32 : at time   18752.0 ns WRITE: Bank = 0 Row =    0, Col =   2, Data = 22334455
# Status: Burst-No:           6  Write Address: 1c000006  WriteData: 66778899 
# tb_top.u_sdram32 : at time   18772.0 ns BST  : Burst Terminate
# tb_top.u_sdram32 : at time   18792.0 ns WRITE: Bank = 0 Row =    0, Col =   3, Data = 33445566
# Status: Burst-No:           7  Write Address: 1c000007  WriteData: 77889900 
# tb_top.u_sdram32 : at time   18812.0 ns BST  : Burst Terminate
# tb_top.u_sdram32 : at time   18832.0 ns WRITE: Bank = 0 Row =    0, Col =   4, Data = 44556677
# Status: Burst-No:           8  Write Address: 1c000008  WriteData: 88990011 
# tb_top.u_sdram32 : at time   18852.0 ns BST  : Burst Terminate
# tb_top.u_sdram32 : at time   18872.0 ns WRITE: Bank = 0 Row =    0, Col =   5, Data = 55667788
# Status: Burst-No:           9  Write Address: 1c000009  WriteData: 99001122 
# tb_top.u_sdram32 : at time   18892.0 ns BST  : Burst Terminate
# tb_top.u_sdram32 : at time   18912.0 ns WRITE: Bank = 0 Row =    0, Col =   6, Data = 66778899
# tb_top.u_sdram32 : at time   18932.0 ns BST  : Burst Terminate
# tb_top.u_sdram32 : at time   18952.0 ns WRITE: Bank = 0 Row =    0, Col =   7, Data = 77889900
# tb_top.u_sdram32 : at time   18972.0 ns BST  : Burst Terminate
# tb_top.u_sdram32 : at time   18992.0 ns WRITE: Bank = 0 Row =    0, Col =   8, Data = 88990011
# tb_top.u_sdram32 : at time   19012.0 ns BST  : Burst Terminate
# tb_top.u_sdram32 : at time   19032.0 ns WRITE: Bank = 0 Row =    0, Col =   9, Data = 99001122
# tb_top.u_sdram32 : at time   19052.0 ns BST  : Burst Terminate
# tb_top.u_sdram32 : at time   19992.0 ns BST  : Burst Terminate
# tb_top.u_sdram32 : at time   20018.0 ns READ : Bank = 0 Row =    0, Col =   0, Data = 00112233
# READ STATUS: Burst-No:           0 Addr: 1c000000 Rxd: 00112233
# tb_top.u_sdram32 : at time   20192.0 ns BST  : Burst Terminate
# tb_top.u_sdram32 : at time   20218.0 ns READ : Bank = 0 Row =    0, Col =   1, Data = 11223344
# READ STATUS: Burst-No:           1 Addr: 1c000001 Rxd: 11223344
# tb_top.u_sdram32 : at time   20392.0 ns BST  : Burst Terminate
# tb_top.u_sdram32 : at time   20418.0 ns READ : Bank = 0 Row =    0, Col =   2, Data = 22334455
# READ STATUS: Burst-No:           2 Addr: 1c000002 Rxd: 22334455
# tb_top.u_sdram32 : at time   20592.0 ns BST  : Burst Terminate
# tb_top.u_sdram32 : at time   20618.0 ns READ : Bank = 0 Row =    0, Col =   3, Data = 33445566
# READ STATUS: Burst-No:           3 Addr: 1c000003 Rxd: 33445566
# tb_top.u_sdram32 : at time   20792.0 ns BST  : Burst Terminate
# tb_top.u_sdram32 : at time   20818.0 ns READ : Bank = 0 Row =    0, Col =   4, Data = 44556677
# READ STATUS: Burst-No:           4 Addr: 1c000004 Rxd: 44556677
# tb_top.u_sdram32 : at time   20992.0 ns BST  : Burst Terminate
# tb_top.u_sdram32 : at time   21018.0 ns READ : Bank = 0 Row =    0, Col =   5, Data = 55667788
# READ STATUS: Burst-No:           5 Addr: 1c000005 Rxd: 55667788
# tb_top.u_sdram32 : at time   21192.0 ns BST  : Burst Terminate
# tb_top.u_sdram32 : at time   21218.0 ns READ : Bank = 0 Row =    0, Col =   6, Data = 66778899
# READ STATUS: Burst-No:           6 Addr: 1c000006 Rxd: 66778899
# tb_top.u_sdram32 : at time   21392.0 ns BST  : Burst Terminate
# tb_top.u_sdram32 : at time   21418.0 ns READ : Bank = 0 Row =    0, Col =   7, Data = 77889900
# READ STATUS: Burst-No:           7 Addr: 1c000007 Rxd: 77889900
# tb_top.u_sdram32 : at time   21592.0 ns BST  : Burst Terminate
# tb_top.u_sdram32 : at time   21618.0 ns READ : Bank = 0 Row =    0, Col =   8, Data = 88990011
# READ STATUS: Burst-No:           8 Addr: 1c000008 Rxd: 88990011
# tb_top.u_sdram32 : at time   21792.0 ns BST  : Burst Terminate
# tb_top.u_sdram32 : at time   21818.0 ns READ : Bank = 0 Row =    0, Col =   9, Data = 99001122
# READ STATUS: Burst-No:           9 Addr: 1c000009 Rxd: 99001122
# Write Address: 02153524, Burst Size:          10
# Status: Burst-No:           0  Write Address: 00854d49  WriteData: 00112233 
# Status: Burst-No:           1  Write Address: 00854d4a  WriteData: 11223344 
# Status: Burst-No:           2  Write Address: 00854d4b  WriteData: 22334455 
# Status: Burst-No:           3  Write Address: 00854d4c  WriteData: 33445566 
# Status: Burst-No:           4  Write Address: 00854d4d  WriteData: 44556677 
# Status: Burst-No:           5  Write Address: 00854d4e  WriteData: 55667788 
# tb_top.u_sdram32 : at time   22052.0 ns ACT  : Bank = 1 Row =  339
# tb_top.u_sdram32 : at time   22112.0 ns WRITE: Bank = 1 Row =  339, Col =  73, Data = 00112233
# tb_top.u_sdram32 : at time   22132.0 ns WRITE: Bank = 1 Row =  339, Col =  74, Data = 11223344
# tb_top.u_sdram32 : at time   22152.0 ns BST  : Burst Terminate
# tb_top.u_sdram32 : at time   22172.0 ns WRITE: Bank = 1 Row =  339, Col =  75, Data = 22334455
# Status: Burst-No:           6  Write Address: 00854d4f  WriteData: 66778899 
# tb_top.u_sdram32 : at time   22192.0 ns BST  : Burst Terminate
# tb_top.u_sdram32 : at time   22212.0 ns WRITE: Bank = 1 Row =  339, Col =  76, Data = 33445566
# Status: Burst-No:           7  Write Address: 00854d50  WriteData: 77889900 
# tb_top.u_sdram32 : at time   22232.0 ns BST  : Burst Terminate
# tb_top.u_sdram32 : at time   22252.0 ns WRITE: Bank = 1 Row =  339, Col =  77, Data = 44556677
# Status: Burst-No:           8  Write Address: 00854d51  WriteData: 88990011 
# tb_top.u_sdram32 : at time   22272.0 ns BST  : Burst Terminate
# tb_top.u_sdram32 : at time   22292.0 ns WRITE: Bank = 1 Row =  339, Col =  78, Data = 55667788
# Status: Burst-No:           9  Write Address: 00854d52  WriteData: 99001122 
# tb_top.u_sdram32 : at time   22312.0 ns BST  : Burst Terminate
# tb_top.u_sdram32 : at time   22332.0 ns WRITE: Bank = 1 Row =  339, Col =  79, Data = 66778899
# tb_top.u_sdram32 : at time   22352.0 ns BST  : Burst Terminate
# tb_top.u_sdram32 : at time   22372.0 ns WRITE: Bank = 1 Row =  339, Col =  80, Data = 77889900
# tb_top.u_sdram32 : at time   22392.0 ns BST  : Burst Terminate
# tb_top.u_sdram32 : at time   22412.0 ns WRITE: Bank = 1 Row =  339, Col =  81, Data = 88990011
# tb_top.u_sdram32 : at time   22432.0 ns BST  : Burst Terminate
# tb_top.u_sdram32 : at time   22452.0 ns WRITE: Bank = 1 Row =  339, Col =  82, Data = 99001122
# tb_top.u_sdram32 : at time   22472.0 ns BST  : Burst Terminate
# tb_top.u_sdram32 : at time   23412.0 ns BST  : Burst Terminate
# tb_top.u_sdram32 : at time   23438.0 ns READ : Bank = 1 Row =  339, Col =  73, Data = 00112233
# READ STATUS: Burst-No:           0 Addr: 00854d49 Rxd: 00112233
# tb_top.u_sdram32 : at time   23612.0 ns BST  : Burst Terminate
# tb_top.u_sdram32 : at time   23638.0 ns READ : Bank = 1 Row =  339, Col =  74, Data = 11223344
# READ STATUS: Burst-No:           1 Addr: 00854d4a Rxd: 11223344
# tb_top.u_sdram32 : at time   23812.0 ns BST  : Burst Terminate
# tb_top.u_sdram32 : at time   23838.0 ns READ : Bank = 1 Row =  339, Col =  75, Data = 22334455
# READ STATUS: Burst-No:           2 Addr: 00854d4b Rxd: 22334455
# tb_top.u_sdram32 : at time   24012.0 ns BST  : Burst Terminate
# tb_top.u_sdram32 : at time   24038.0 ns READ : Bank = 1 Row =  339, Col =  76, Data = 33445566
# READ STATUS: Burst-No:           3 Addr: 00854d4c Rxd: 33445566
# tb_top.u_sdram32 : at time   24212.0 ns BST  : Burst Terminate
# tb_top.u_sdram32 : at time   24238.0 ns READ : Bank = 1 Row =  339, Col =  77, Data = 44556677
# READ STATUS: Burst-No:           4 Addr: 00854d4d Rxd: 44556677
# tb_top.u_sdram32 : at time   24412.0 ns BST  : Burst Terminate
# tb_top.u_sdram32 : at time   24438.0 ns READ : Bank = 1 Row =  339, Col =  78, Data = 55667788
# READ STATUS: Burst-No:           5 Addr: 00854d4e Rxd: 55667788
# tb_top.u_sdram32 : at time   24612.0 ns BST  : Burst Terminate
# tb_top.u_sdram32 : at time   24638.0 ns READ : Bank = 1 Row =  339, Col =  79, Data = 66778899
# READ STATUS: Burst-No:           6 Addr: 00854d4f Rxd: 66778899
# tb_top.u_sdram32 : at time   24812.0 ns BST  : Burst Terminate
# tb_top.u_sdram32 : at time   24838.0 ns READ : Bank = 1 Row =  339, Col =  80, Data = 77889900
# READ STATUS: Burst-No:           7 Addr: 00854d50 Rxd: 77889900
# tb_top.u_sdram32 : at time   25012.0 ns BST  : Burst Terminate
# tb_top.u_sdram32 : at time   25038.0 ns READ : Bank = 1 Row =  339, Col =  81, Data = 88990011
# READ STATUS: Burst-No:           8 Addr: 00854d51 Rxd: 88990011
# tb_top.u_sdram32 : at time   25212.0 ns BST  : Burst Terminate
# tb_top.u_sdram32 : at time   25238.0 ns READ : Bank = 1 Row =  339, Col =  82, Data = 99001122
# READ STATUS: Burst-No:           9 Addr: 00854d52 Rxd: 99001122
# Write Address: 00895e81, Burst Size:          10
# Status: Burst-No:           0  Write Address: 002257a0  WriteData: 00112233 
# Status: Burst-No:           1  Write Address: 002257a1  WriteData: 11223344 
# Status: Burst-No:           2  Write Address: 002257a2  WriteData: 22334455 
# Status: Burst-No:           3  Write Address: 002257a3  WriteData: 33445566 
# Status: Burst-No:           4  Write Address: 002257a4  WriteData: 44556677 
# Status: Burst-No:           5  Write Address: 002257a5  WriteData: 55667788 
# tb_top.u_sdram32 : at time   25472.0 ns ACT  : Bank = 3 Row =  149
# tb_top.u_sdram32 : at time   25532.0 ns WRITE: Bank = 3 Row =  149, Col = 160, Data = 00112233
# tb_top.u_sdram32 : at time   25552.0 ns WRITE: Bank = 3 Row =  149, Col = 161, Data = 11223344
# tb_top.u_sdram32 : at time   25572.0 ns BST  : Burst Terminate
# tb_top.u_sdram32 : at time   25592.0 ns WRITE: Bank = 3 Row =  149, Col = 162, Data = 22334455
# Status: Burst-No:           6  Write Address: 002257a6  WriteData: 66778899 
# tb_top.u_sdram32 : at time   25612.0 ns BST  : Burst Terminate
# tb_top.u_sdram32 : at time   25632.0 ns WRITE: Bank = 3 Row =  149, Col = 163, Data = 33445566
# Status: Burst-No:           7  Write Address: 002257a7  WriteData: 77889900 
# tb_top.u_sdram32 : at time   25652.0 ns BST  : Burst Terminate
# tb_top.u_sdram32 : at time   25672.0 ns WRITE: Bank = 3 Row =  149, Col = 164, Data = 44556677
# Status: Burst-No:           8  Write Address: 002257a8  WriteData: 88990011 
# tb_top.u_sdram32 : at time   25692.0 ns BST  : Burst Terminate
# tb_top.u_sdram32 : at time   25712.0 ns WRITE: Bank = 3 Row =  149, Col = 165, Data = 55667788
# Status: Burst-No:           9  Write Address: 002257a9  WriteData: 99001122 
# tb_top.u_sdram32 : at time   25732.0 ns BST  : Burst Terminate
# tb_top.u_sdram32 : at time   25752.0 ns WRITE: Bank = 3 Row =  149, Col = 166, Data = 66778899
# tb_top.u_sdram32 : at time   25772.0 ns BST  : Burst Terminate
# tb_top.u_sdram32 : at time   25792.0 ns WRITE: Bank = 3 Row =  149, Col = 167, Data = 77889900
# tb_top.u_sdram32 : at time   25812.0 ns BST  : Burst Terminate
# tb_top.u_sdram32 : at time   25832.0 ns WRITE: Bank = 3 Row =  149, Col = 168, Data = 88990011
# tb_top.u_sdram32 : at time   25852.0 ns BST  : Burst Terminate
# tb_top.u_sdram32 : at time   25872.0 ns WRITE: Bank = 3 Row =  149, Col = 169, Data = 99001122
# tb_top.u_sdram32 : at time   25892.0 ns BST  : Burst Terminate
# tb_top.u_sdram32 : at time   26832.0 ns BST  : Burst Terminate
# tb_top.u_sdram32 : at time   26858.0 ns READ : Bank = 3 Row =  149, Col = 160, Data = 00112233
# READ STATUS: Burst-No:           0 Addr: 002257a0 Rxd: 00112233
# tb_top.u_sdram32 : at time   27032.0 ns BST  : Burst Terminate
# tb_top.u_sdram32 : at time   27058.0 ns READ : Bank = 3 Row =  149, Col = 161, Data = 11223344
# READ STATUS: Burst-No:           1 Addr: 002257a1 Rxd: 11223344
# tb_top.u_sdram32 : at time   27232.0 ns BST  : Burst Terminate
# tb_top.u_sdram32 : at time   27258.0 ns READ : Bank = 3 Row =  149, Col = 162, Data = 22334455
# READ STATUS: Burst-No:           2 Addr: 002257a2 Rxd: 22334455
# tb_top.u_sdram32 : at time   27432.0 ns BST  : Burst Terminate
# tb_top.u_sdram32 : at time   27458.0 ns READ : Bank = 3 Row =  149, Col = 163, Data = 33445566
# READ STATUS: Burst-No:           3 Addr: 002257a3 Rxd: 33445566
# tb_top.u_sdram32 : at time   27632.0 ns BST  : Burst Terminate
# tb_top.u_sdram32 : at time   27658.0 ns READ : Bank = 3 Row =  149, Col = 164, Data = 44556677
# READ STATUS: Burst-No:           4 Addr: 002257a4 Rxd: 44556677
# tb_top.u_sdram32 : at time   27832.0 ns BST  : Burst Terminate
# tb_top.u_sdram32 : at time   27858.0 ns READ : Bank = 3 Row =  149, Col = 165, Data = 55667788
# READ STATUS: Burst-No:           5 Addr: 002257a5 Rxd: 55667788
# tb_top.u_sdram32 : at time   28032.0 ns BST  : Burst Terminate
# tb_top.u_sdram32 : at time   28058.0 ns READ : Bank = 3 Row =  149, Col = 166, Data = 66778899
# READ STATUS: Burst-No:           6 Addr: 002257a6 Rxd: 66778899
# tb_top.u_sdram32 : at time   28232.0 ns BST  : Burst Terminate
# tb_top.u_sdram32 : at time   28258.0 ns READ : Bank = 3 Row =  149, Col = 167, Data = 77889900
# READ STATUS: Burst-No:           7 Addr: 002257a7 Rxd: 77889900
# tb_top.u_sdram32 : at time   28432.0 ns BST  : Burst Terminate
# tb_top.u_sdram32 : at time   28458.0 ns READ : Bank = 3 Row =  149, Col = 168, Data = 88990011
# READ STATUS: Burst-No:           8 Addr: 002257a8 Rxd: 88990011
# tb_top.u_sdram32 : at time   28632.0 ns BST  : Burst Terminate
# tb_top.u_sdram32 : at time   28658.0 ns READ : Bank = 3 Row =  149, Col = 169, Data = 99001122
# READ STATUS: Burst-No:           9 Addr: 002257a9 Rxd: 99001122
# Write Address: 0484d609, Burst Size:          10
# Status: Burst-No:           0  Write Address: 01213582  WriteData: 00112233 
# Status: Burst-No:           1  Write Address: 01213583  WriteData: 11223344 
# Status: Burst-No:           2  Write Address: 01213584  WriteData: 22334455 
# Status: Burst-No:           3  Write Address: 01213585  WriteData: 33445566 
# Status: Burst-No:           4  Write Address: 01213586  WriteData: 44556677 
# Status: Burst-No:           5  Write Address: 01213587  WriteData: 55667788 
# tb_top.u_sdram32 : at time   28892.0 ns ACT  : Bank = 1 Row =   77
# tb_top.u_sdram32 : at time   28952.0 ns WRITE: Bank = 1 Row =   77, Col = 130, Data = 00112233
# tb_top.u_sdram32 : at time   28972.0 ns WRITE: Bank = 1 Row =   77, Col = 131, Data = 11223344
# tb_top.u_sdram32 : at time   28992.0 ns BST  : Burst Terminate
# tb_top.u_sdram32 : at time   29012.0 ns WRITE: Bank = 1 Row =   77, Col = 132, Data = 22334455
# Status: Burst-No:           6  Write Address: 01213588  WriteData: 66778899 
# tb_top.u_sdram32 : at time   29032.0 ns BST  : Burst Terminate
# tb_top.u_sdram32 : at time   29052.0 ns WRITE: Bank = 1 Row =   77, Col = 133, Data = 33445566
# Status: Burst-No:           7  Write Address: 01213589  WriteData: 77889900 
# tb_top.u_sdram32 : at time   29072.0 ns BST  : Burst Terminate
# tb_top.u_sdram32 : at time   29092.0 ns WRITE: Bank = 1 Row =   77, Col = 134, Data = 44556677
# Status: Burst-No:           8  Write Address: 0121358a  WriteData: 88990011 
# tb_top.u_sdram32 : at time   29112.0 ns BST  : Burst Terminate
# tb_top.u_sdram32 : at time   29132.0 ns WRITE: Bank = 1 Row =   77, Col = 135, Data = 55667788
# Status: Burst-No:           9  Write Address: 0121358b  WriteData: 99001122 
# tb_top.u_sdram32 : at time   29152.0 ns BST  : Burst Terminate
# tb_top.u_sdram32 : at time   29172.0 ns WRITE: Bank = 1 Row =   77, Col = 136, Data = 66778899
# tb_top.u_sdram32 : at time   29192.0 ns BST  : Burst Terminate
# tb_top.u_sdram32 : at time   29212.0 ns WRITE: Bank = 1 Row =   77, Col = 137, Data = 77889900
# tb_top.u_sdram32 : at time   29232.0 ns BST  : Burst Terminate
# tb_top.u_sdram32 : at time   29252.0 ns WRITE: Bank = 1 Row =   77, Col = 138, Data = 88990011
# tb_top.u_sdram32 : at time   29272.0 ns BST  : Burst Terminate
# tb_top.u_sdram32 : at time   29292.0 ns WRITE: Bank = 1 Row =   77, Col = 139, Data = 99001122
# tb_top.u_sdram32 : at time   29312.0 ns BST  : Burst Terminate
# tb_top.u_sdram32 : at time   30252.0 ns BST  : Burst Terminate
# tb_top.u_sdram32 : at time   30278.0 ns READ : Bank = 1 Row =   77, Col = 130, Data = 00112233
# READ STATUS: Burst-No:           0 Addr: 01213582 Rxd: 00112233
# tb_top.u_sdram32 : at time   30452.0 ns BST  : Burst Terminate
# tb_top.u_sdram32 : at time   30478.0 ns READ : Bank = 1 Row =   77, Col = 131, Data = 11223344
# READ STATUS: Burst-No:           1 Addr: 01213583 Rxd: 11223344
# tb_top.u_sdram32 : at time   30652.0 ns BST  : Burst Terminate
# tb_top.u_sdram32 : at time   30678.0 ns READ : Bank = 1 Row =   77, Col = 132, Data = 22334455
# READ STATUS: Burst-No:           2 Addr: 01213584 Rxd: 22334455
# tb_top.u_sdram32 : at time   30852.0 ns BST  : Burst Terminate
# tb_top.u_sdram32 : at time   30878.0 ns READ : Bank = 1 Row =   77, Col = 133, Data = 33445566
# READ STATUS: Burst-No:           3 Addr: 01213585 Rxd: 33445566
# tb_top.u_sdram32 : at time   31052.0 ns BST  : Burst Terminate
# tb_top.u_sdram32 : at time   31078.0 ns READ : Bank = 1 Row =   77, Col = 134, Data = 44556677
# READ STATUS: Burst-No:           4 Addr: 01213586 Rxd: 44556677
# tb_top.u_sdram32 : at time   31252.0 ns BST  : Burst Terminate
# tb_top.u_sdram32 : at time   31278.0 ns READ : Bank = 1 Row =   77, Col = 135, Data = 55667788
# READ STATUS: Burst-No:           5 Addr: 01213587 Rxd: 55667788
# tb_top.u_sdram32 : at time   31452.0 ns BST  : Burst Terminate
# tb_top.u_sdram32 : at time   31478.0 ns READ : Bank = 1 Row =   77, Col = 136, Data = 66778899
# READ STATUS: Burst-No:           6 Addr: 01213588 Rxd: 66778899
# tb_top.u_sdram32 : at time   31652.0 ns BST  : Burst Terminate
# tb_top.u_sdram32 : at time   31678.0 ns READ : Bank = 1 Row =   77, Col = 137, Data = 77889900
# READ STATUS: Burst-No:           7 Addr: 01213589 Rxd: 77889900
# tb_top.u_sdram32 : at time   31852.0 ns BST  : Burst Terminate
# tb_top.u_sdram32 : at time   31878.0 ns READ : Bank = 1 Row =   77, Col = 138, Data = 88990011
# READ STATUS: Burst-No:           8 Addr: 0121358a Rxd: 88990011
# tb_top.u_sdram32 : at time   32052.0 ns BST  : Burst Terminate
# tb_top.u_sdram32 : at time   32078.0 ns READ : Bank = 1 Row =   77, Col = 139, Data = 99001122
# READ STATUS: Burst-No:           9 Addr: 0121358b Rxd: 99001122
# Write Address: 01f05663, Burst Size:          10
# Status: Burst-No:           0  Write Address: 007c1598  WriteData: 00112233 
# Status: Burst-No:           1  Write Address: 007c1599  WriteData: 11223344 
# Status: Burst-No:           2  Write Address: 007c159a  WriteData: 22334455 
# Status: Burst-No:           3  Write Address: 007c159b  WriteData: 33445566 
# Status: Burst-No:           4  Write Address: 007c159c  WriteData: 44556677 
# Status: Burst-No:           5  Write Address: 007c159d  WriteData: 55667788 
# tb_top.u_sdram32 : at time   32312.0 ns ACT  : Bank = 1 Row = 1797
# tb_top.u_sdram32 : at time   32372.0 ns WRITE: Bank = 1 Row = 1797, Col = 152, Data = 00112233
# tb_top.u_sdram32 : at time   32392.0 ns WRITE: Bank = 1 Row = 1797, Col = 153, Data = 11223344
# tb_top.u_sdram32 : at time   32412.0 ns BST  : Burst Terminate
# tb_top.u_sdram32 : at time   32432.0 ns WRITE: Bank = 1 Row = 1797, Col = 154, Data = 22334455
# Status: Burst-No:           6  Write Address: 007c159e  WriteData: 66778899 
